%YAML 1.1
%TAG !u! tag:unity3d.com,2011:
--- !u!21 &2100000
Material:
  serializedVersion: 6
  m_ObjectHideFlags: 0
  m_PrefabParentObject: {fileID: 0}
  m_PrefabInternal: {fileID: 0}
  m_Name: skeleton_bronze_2handed_sword
  m_Shader: {fileID: 23, guid: 0000000000000000f000000000000000, type: 0}
  m_ShaderKeywords: 
  m_LightmapFlags: 4
  m_EnableInstancingVariants: 0
  m_DoubleSidedGI: 0
  m_CustomRenderQueue: -1
  stringTagMap: {}
  disabledShaderPasses: []
  m_SavedProperties:
    serializedVersion: 3
    m_TexEnvs:
    - _BumpMap:
        m_Texture: {fileID: 2800000, guid: eab6cda77a1e6854f8211e06f281d147, type: 3}
        m_Scale: {x: 1, y: 1}
        m_Offset: {x: 0, y: 0}
    - _Cube:
        m_Texture: {fileID: 8900000, guid: 1ee0a0d3b00631342a1371b9fd3ec1bb, type: 2}
        m_Scale: {x: 1, y: 1}
        m_Offset: {x: 0, y: 0}
    - _MainTex:
        m_Texture: {fileID: 2800000, guid: e4355689e5a10ad489fbc2ba81634889, type: 3}
        m_Scale: {x: 1, y: 1}
        m_Offset: {x: 0, y: 0}
    m_Floats:
    - _Shininess: 0.078125
    m_Colors:
    - _Color: {r: 0.5882353, g: 0.5882353, b: 0.5882353, a: 1}
    - _ReflectColor: {r: 0.12928106, g: 0.13432837, b: 0.089218095, a: 0.5019608}
    - _SpecColor: {r: 0.35074627, g: 0.32987943, b: 0.272221, a: 1}
--- !u!1002 &2100001
EditorExtensionImpl:
  serializedVersion: 6
