%YAML 1.1
%TAG !u! tag:unity3d.com,2011:
--- !u!29 &1
OcclusionCullingSettings:
  m_ObjectHideFlags: 0
  serializedVersion: 2
  m_OcclusionBakeSettings:
    smallestOccluder: 5
    smallestHole: 0.25
    backfaceThreshold: 100
  m_SceneGUID: 00000000000000000000000000000000
  m_OcclusionCullingData: {fileID: 0}
--- !u!104 &2
RenderSettings:
  m_ObjectHideFlags: 0
  serializedVersion: 8
  m_Fog: 0
  m_FogColor: {r: 0.5, g: 0.5, b: 0.5, a: 1}
  m_FogMode: 3
  m_FogDensity: 0.01
  m_LinearFogStart: 0
  m_LinearFogEnd: 300
  m_AmbientSkyColor: {r: 0.2, g: 0.2, b: 0.2, a: 1}
  m_AmbientEquatorColor: {r: 0.2, g: 0.2, b: 0.2, a: 1}
  m_AmbientGroundColor: {r: 0.2, g: 0.2, b: 0.2, a: 1}
  m_AmbientIntensity: 1
  m_AmbientMode: 3
  m_SubtractiveShadowColor: {r: 0.42, g: 0.478, b: 0.627, a: 1}
  m_SkyboxMaterial: {fileID: 0}
  m_HaloStrength: 0.5
  m_FlareStrength: 1
  m_FlareFadeSpeed: 3
  m_HaloTexture: {fileID: 0}
  m_SpotCookie: {fileID: 10001, guid: 0000000000000000e000000000000000, type: 0}
  m_DefaultReflectionMode: 0
  m_DefaultReflectionResolution: 128
  m_ReflectionBounces: 1
  m_ReflectionIntensity: 1
  m_CustomReflection: {fileID: 0}
  m_Sun: {fileID: 0}
  m_IndirectSpecularColor: {r: 0, g: 0, b: 0, a: 1}
--- !u!157 &4
LightmapSettings:
  m_ObjectHideFlags: 0
  serializedVersion: 11
  m_GIWorkflowMode: 1
  m_GISettings:
    serializedVersion: 2
    m_BounceScale: 1
    m_IndirectOutputScale: 1
    m_AlbedoBoost: 1
    m_TemporalCoherenceThreshold: 1
    m_EnvironmentLightingMode: 0
    m_EnableBakedLightmaps: 1
    m_EnableRealtimeLightmaps: 0
  m_LightmapEditorSettings:
    serializedVersion: 9
    m_Resolution: 1
    m_BakeResolution: 100
    m_TextureWidth: 1024
    m_TextureHeight: 1024
    m_AO: 0
    m_AOMaxDistance: 1
    m_CompAOExponent: 0
    m_CompAOExponentDirect: 0
    m_Padding: 2
    m_LightmapParameters: {fileID: 0}
    m_LightmapsBakeMode: 1
    m_TextureCompression: 0
    m_FinalGather: 0
    m_FinalGatherFiltering: 1
    m_FinalGatherRayCount: 1024
    m_ReflectionCompression: 2
    m_MixedBakeMode: 1
    m_BakeBackend: 0
    m_PVRSampling: 1
    m_PVRDirectSampleCount: 32
    m_PVRSampleCount: 500
    m_PVRBounces: 2
    m_PVRFilterTypeDirect: 0
    m_PVRFilterTypeIndirect: 0
    m_PVRFilterTypeAO: 0
    m_PVRFilteringMode: 0
    m_PVRCulling: 1
    m_PVRFilteringGaussRadiusDirect: 1
    m_PVRFilteringGaussRadiusIndirect: 5
    m_PVRFilteringGaussRadiusAO: 2
    m_PVRFilteringAtrousPositionSigmaDirect: 0.5
    m_PVRFilteringAtrousPositionSigmaIndirect: 2
    m_PVRFilteringAtrousPositionSigmaAO: 1
    m_ShowResolutionOverlay: 1
  m_LightingDataAsset: {fileID: 0}
  m_UseShadowmask: 0
--- !u!196 &5
NavMeshSettings:
  serializedVersion: 2
  m_ObjectHideFlags: 0
  m_BuildSettings:
    serializedVersion: 2
    agentTypeID: 0
    agentRadius: 0.5
    agentHeight: 2
    agentSlope: 45
    agentClimb: 0.4
    ledgeDropHeight: 0
    maxJumpAcrossDistance: 0
    minRegionArea: 2
    manualCellSize: 0
    cellSize: 0.16666666
    manualTileSize: 0
    tileSize: 256
    accuratePlacement: 0
    debug:
      m_Flags: 0
  m_NavMeshData: {fileID: 0}
--- !u!1 &33026448
GameObject:
  m_ObjectHideFlags: 0
  m_PrefabParentObject: {fileID: 100106, guid: 959d14bf134f54a6e993fe6ca6e063c0, type: 3}
  m_PrefabInternal: {fileID: 1211868613}
  serializedVersion: 5
  m_Component:
  - component: {fileID: 33026449}
  m_Layer: 0
  m_Name: BipDummy R Finger31
  m_TagString: Untagged
  m_Icon: {fileID: 0}
  m_NavMeshLayer: 0
  m_StaticEditorFlags: 0
  m_IsActive: 1
--- !u!4 &33026449
Transform:
  m_ObjectHideFlags: 0
  m_PrefabParentObject: {fileID: 400106, guid: 959d14bf134f54a6e993fe6ca6e063c0, type: 3}
  m_PrefabInternal: {fileID: 1211868613}
  m_GameObject: {fileID: 33026448}
  m_LocalRotation: {x: -0.000000009311458, y: 1.813486e-10, z: -0.615464, w: 0.78816503}
  m_LocalPosition: {x: -0.040773623, y: 0.00000003051758, z: 0.00000001525879}
  m_LocalScale: {x: 1.0000001, y: 1.0000001, z: 1}
  m_Children:
  - {fileID: 1800634855}
  m_Father: {fileID: 389264340}
  m_RootOrder: 0
  m_LocalEulerAnglesHint: {x: 0, y: 0, z: 0}
--- !u!4 &118095887
Transform:
  m_ObjectHideFlags: 0
  m_PrefabParentObject: {fileID: 400056, guid: 959d14bf134f54a6e993fe6ca6e063c0, type: 3}
  m_PrefabInternal: {fileID: 1211868613}
  m_GameObject: {fileID: 635184044}
  m_LocalRotation: {x: -1.1736887e-13, y: 0.000000010320554, z: -0.0037209955, w: 0.9999931}
  m_LocalPosition: {x: -0.10531482, y: -0.00008385468, z: -2.3258327e-10}
  m_LocalScale: {x: 1, y: 1, z: 1}
  m_Children:
  - {fileID: 1215540418}
  m_Father: {fileID: 600582779}
  m_RootOrder: 0
  m_LocalEulerAnglesHint: {x: 0, y: 0, z: 0}
--- !u!1 &205401614
GameObject:
  m_ObjectHideFlags: 0
  m_PrefabParentObject: {fileID: 100088, guid: 959d14bf134f54a6e993fe6ca6e063c0, type: 3}
  m_PrefabInternal: {fileID: 1211868613}
  serializedVersion: 5
  m_Component:
  - component: {fileID: 205401615}
  m_Layer: 0
  m_Name: BipDummy R Finger01
  m_TagString: Untagged
  m_Icon: {fileID: 0}
  m_NavMeshLayer: 0
  m_StaticEditorFlags: 0
  m_IsActive: 1
--- !u!4 &205401615
Transform:
  m_ObjectHideFlags: 0
  m_PrefabParentObject: {fileID: 400088, guid: 959d14bf134f54a6e993fe6ca6e063c0, type: 3}
  m_PrefabInternal: {fileID: 1211868613}
  m_GameObject: {fileID: 205401614}
  m_LocalRotation: {x: -0.0000000054362164, y: 0.0000000012932826, z: -0.23144192,
    w: 0.9728487}
  m_LocalPosition: {x: -0.028966065, y: 0.00000003051758, z: 0}
  m_LocalScale: {x: 1, y: 0.99999994, z: 1}
  m_Children:
  - {fileID: 1548726146}
  m_Father: {fileID: 749245035}
  m_RootOrder: 0
  m_LocalEulerAnglesHint: {x: 0, y: 0, z: 0}
--- !u!4 &258021817
Transform:
  m_ObjectHideFlags: 0
  m_PrefabParentObject: {fileID: 400052, guid: 959d14bf134f54a6e993fe6ca6e063c0, type: 3}
  m_PrefabInternal: {fileID: 1211868613}
  m_GameObject: {fileID: 521765338}
  m_LocalRotation: {x: 4.0745185e-14, y: 0, z: -0, w: 1}
  m_LocalPosition: {x: -0.10531403, y: -0.00008385659, z: -2.3259054e-10}
  m_LocalScale: {x: 1, y: 1, z: 1}
  m_Children:
  - {fileID: 600582779}
  m_Father: {fileID: 1345772583}
  m_RootOrder: 2
  m_LocalEulerAnglesHint: {x: 0, y: 0, z: 0}
--- !u!1 &273351627
GameObject:
  m_ObjectHideFlags: 0
  m_PrefabParentObject: {fileID: 100058, guid: 959d14bf134f54a6e993fe6ca6e063c0, type: 3}
  m_PrefabInternal: {fileID: 1211868613}
  serializedVersion: 5
  m_Component:
  - component: {fileID: 273351628}
  m_Layer: 0
  m_Name: BipDummy
  m_TagString: Untagged
  m_Icon: {fileID: 0}
  m_NavMeshLayer: 0
  m_StaticEditorFlags: 0
  m_IsActive: 1
--- !u!4 &273351628
Transform:
  m_ObjectHideFlags: 0
  m_PrefabParentObject: {fileID: 400058, guid: 959d14bf134f54a6e993fe6ca6e063c0, type: 3}
  m_PrefabInternal: {fileID: 1211868613}
  m_GameObject: {fileID: 273351627}
  m_LocalRotation: {x: -0.50000054, y: 0.49999946, z: 0.49999946, w: 0.50000054}
  m_LocalPosition: {x: -1.4901162e-10, y: 0.89560544, z: -0.0034221578}
  m_LocalScale: {x: 1, y: 1, z: 1}
  m_Children:
  - {fileID: 594212893}
  m_Father: {fileID: 573142177}
  m_RootOrder: 0
  m_LocalEulerAnglesHint: {x: 0, y: 0, z: 0}
--- !u!1 &278092591
GameObject:
  m_ObjectHideFlags: 0
  m_PrefabParentObject: {fileID: 100064, guid: 959d14bf134f54a6e993fe6ca6e063c0, type: 3}
  m_PrefabInternal: {fileID: 1211868613}
  serializedVersion: 5
  m_Component:
  - component: {fileID: 278092592}
  m_Layer: 0
  m_Name: BipDummy L Finger1
  m_TagString: Untagged
  m_Icon: {fileID: 0}
  m_NavMeshLayer: 0
  m_StaticEditorFlags: 0
  m_IsActive: 1
--- !u!4 &278092592
Transform:
  m_ObjectHideFlags: 0
  m_PrefabParentObject: {fileID: 400064, guid: 959d14bf134f54a6e993fe6ca6e063c0, type: 3}
  m_PrefabInternal: {fileID: 1211868613}
  m_GameObject: {fileID: 278092591}
  m_LocalRotation: {x: -0.00039683317, y: -0.00003227424, z: -0.081061095, w: 0.99670905}
  m_LocalPosition: {x: -0.1003982, y: -0.003286377, z: -0.022277009}
  m_LocalScale: {x: 1, y: 0.99999994, z: 0.99999994}
  m_Children:
  - {fileID: 1581244701}
  m_Father: {fileID: 912260237}
  m_RootOrder: 1
  m_LocalEulerAnglesHint: {x: 0, y: 0, z: 0}
--- !u!1 &280044165
GameObject:
  m_ObjectHideFlags: 0
  m_PrefabParentObject: {fileID: 100082, guid: 959d14bf134f54a6e993fe6ca6e063c0, type: 3}
  m_PrefabInternal: {fileID: 1211868613}
  serializedVersion: 5
  m_Component:
  - component: {fileID: 280044166}
  m_Layer: 0
  m_Name: BipDummy L Finger4
  m_TagString: Untagged
  m_Icon: {fileID: 0}
  m_NavMeshLayer: 0
  m_StaticEditorFlags: 0
  m_IsActive: 1
--- !u!4 &280044166
Transform:
  m_ObjectHideFlags: 0
  m_PrefabParentObject: {fileID: 400082, guid: 959d14bf134f54a6e993fe6ca6e063c0, type: 3}
  m_PrefabInternal: {fileID: 1211868613}
  m_GameObject: {fileID: 280044165}
  m_LocalRotation: {x: -0.002490904, y: 0.009521965, z: -0.21373138, w: 0.9768429}
  m_LocalPosition: {x: -0.09384656, y: 0.00909961, z: 0.03997948}
  m_LocalScale: {x: 1.0000001, y: 1.0000001, z: 0.9999999}
  m_Children:
  - {fileID: 2136111828}
  m_Father: {fileID: 912260237}
  m_RootOrder: 4
  m_LocalEulerAnglesHint: {x: 0, y: 0, z: 0}
--- !u!1 &296633313
GameObject:
  m_ObjectHideFlags: 0
  m_PrefabParentObject: {fileID: 100038, guid: 959d14bf134f54a6e993fe6ca6e063c0, type: 3}
  m_PrefabInternal: {fileID: 1211868613}
  serializedVersion: 5
  m_Component:
  - component: {fileID: 296633314}
  m_Layer: 0
  m_Name: Bip002 R Hand
  m_TagString: Untagged
  m_Icon: {fileID: 0}
  m_NavMeshLayer: 0
  m_StaticEditorFlags: 0
  m_IsActive: 1
--- !u!4 &296633314
Transform:
  m_ObjectHideFlags: 0
  m_PrefabParentObject: {fileID: 400038, guid: 959d14bf134f54a6e993fe6ca6e063c0, type: 3}
  m_PrefabInternal: {fileID: 1211868613}
  m_GameObject: {fileID: 296633313}
  m_LocalRotation: {x: 0.72127545, y: 0.08105711, z: 0.07682161, w: 0.68358606}
  m_LocalPosition: {x: -0.2430326, y: 0.00000003051758, z: -0.00000006103516}
  m_LocalScale: {x: 0.99999994, y: 1, z: 0.99999994}
  m_Children:
  - {fileID: 749245035}
  - {fileID: 981526386}
  - {fileID: 404735703}
  - {fileID: 389264340}
  - {fileID: 1221708475}
  m_Father: {fileID: 817677811}
  m_RootOrder: 0
  m_LocalEulerAnglesHint: {x: 0, y: 0, z: 0}
--- !u!1 &313380054
GameObject:
  m_ObjectHideFlags: 0
  m_PrefabParentObject: {fileID: 100014, guid: 959d14bf134f54a6e993fe6ca6e063c0, type: 3}
  m_PrefabInternal: {fileID: 1211868613}
  serializedVersion: 5
  m_Component:
  - component: {fileID: 313380055}
  m_Layer: 0
  m_Name: Bip002 L Thigh
  m_TagString: Untagged
  m_Icon: {fileID: 0}
  m_NavMeshLayer: 0
  m_StaticEditorFlags: 0
  m_IsActive: 1
--- !u!4 &313380055
Transform:
  m_ObjectHideFlags: 0
  m_PrefabParentObject: {fileID: 400014, guid: 959d14bf134f54a6e993fe6ca6e063c0, type: 3}
  m_PrefabInternal: {fileID: 1211868613}
  m_GameObject: {fileID: 313380054}
  m_LocalRotation: {x: -0.012555973, y: 0.9998845, z: 0.0005191883, w: 0.008549745}
  m_LocalPosition: {x: 0.09312867, y: -0.0024274522, z: 0.096502244}
  m_LocalScale: {x: 1, y: 1, z: 1.0000001}
  m_Children:
  - {fileID: 1592993543}
  m_Father: {fileID: 1345772583}
  m_RootOrder: 0
  m_LocalEulerAnglesHint: {x: 0, y: 0, z: 0}
--- !u!1 &314065709
GameObject:
  m_ObjectHideFlags: 0
  m_PrefabParentObject: {fileID: 100096, guid: 959d14bf134f54a6e993fe6ca6e063c0, type: 3}
  m_PrefabInternal: {fileID: 1211868613}
  serializedVersion: 5
  m_Component:
  - component: {fileID: 314065710}
  m_Layer: 0
  m_Name: BipDummy R Finger12
  m_TagString: Untagged
  m_Icon: {fileID: 0}
  m_NavMeshLayer: 0
  m_StaticEditorFlags: 0
  m_IsActive: 1
--- !u!4 &314065710
Transform:
  m_ObjectHideFlags: 0
  m_PrefabParentObject: {fileID: 400096, guid: 959d14bf134f54a6e993fe6ca6e063c0, type: 3}
  m_PrefabInternal: {fileID: 1211868613}
  m_GameObject: {fileID: 314065709}
  m_LocalRotation: {x: 0.0000000045875606, y: 0.000000021875893, z: -0.20524399, w: 0.97871083}
  m_LocalPosition: {x: -0.01876288, y: -0.000000045776368, z: 0.00000001525879}
  m_LocalScale: {x: 1, y: 0.99999994, z: 0.99999994}
  m_Children: []
  m_Father: {fileID: 1257069433}
  m_RootOrder: 0
  m_LocalEulerAnglesHint: {x: 0, y: 0, z: 0}
--- !u!1 &340743659
GameObject:
  m_ObjectHideFlags: 0
  m_PrefabParentObject: {fileID: 0}
  m_PrefabInternal: {fileID: 0}
  serializedVersion: 5
  m_Component:
  - component: {fileID: 340743660}
  - component: {fileID: 340743661}
  - component: {fileID: 340743663}
  - component: {fileID: 340743664}
  - component: {fileID: 340743662}
  m_Layer: 0
  m_Name: Main Camera
  m_TagString: MainCamera
  m_Icon: {fileID: 0}
  m_NavMeshLayer: 0
  m_StaticEditorFlags: 0
  m_IsActive: 1
--- !u!4 &340743660
Transform:
  m_ObjectHideFlags: 0
  m_PrefabParentObject: {fileID: 0}
  m_PrefabInternal: {fileID: 0}
  m_GameObject: {fileID: 340743659}
  m_LocalRotation: {x: 0.07117132, y: 0.27148557, z: -0.020135542, w: 0.9595962}
  m_LocalPosition: {x: -1.4474839, y: 1.73283, z: -2.5482874}
  m_LocalScale: {x: 1, y: 1, z: 1}
  m_Children: []
  m_Father: {fileID: 0}
  m_RootOrder: 3
  m_LocalEulerAnglesHint: {x: 0, y: 0, z: 0}
--- !u!20 &340743661
Camera:
  m_ObjectHideFlags: 0
  m_PrefabParentObject: {fileID: 0}
  m_PrefabInternal: {fileID: 0}
  m_GameObject: {fileID: 340743659}
  m_Enabled: 1
  serializedVersion: 2
  m_ClearFlags: 1
  m_BackGroundColor: {r: 0.27450982, g: 0.27450982, b: 0.27450982, a: 0.019607844}
  m_NormalizedViewPortRect:
    serializedVersion: 2
    x: 0
    y: 0
    width: 1
    height: 1
  near clip plane: 0.3
  far clip plane: 1000
  field of view: 60
  orthographic: 0
  orthographic size: 100
  m_Depth: -1
  m_CullingMask:
    serializedVersion: 2
    m_Bits: 4294967295
  m_RenderingPath: -1
  m_TargetTexture: {fileID: 0}
  m_TargetDisplay: 0
  m_TargetEye: 3
  m_HDR: 0
  m_AllowMSAA: 1
  m_AllowDynamicResolution: 0
  m_ForceIntoRT: 0
  m_OcclusionCulling: 1
  m_StereoConvergence: 10
  m_StereoSeparation: 0.022
--- !u!81 &340743662
AudioListener:
  m_ObjectHideFlags: 0
  m_PrefabParentObject: {fileID: 0}
  m_PrefabInternal: {fileID: 0}
  m_GameObject: {fileID: 340743659}
  m_Enabled: 1
--- !u!92 &340743663
Behaviour:
  m_ObjectHideFlags: 0
  m_PrefabParentObject: {fileID: 0}
  m_PrefabInternal: {fileID: 0}
  m_GameObject: {fileID: 340743659}
  m_Enabled: 1
--- !u!124 &340743664
Behaviour:
  m_ObjectHideFlags: 0
  m_PrefabParentObject: {fileID: 0}
  m_PrefabInternal: {fileID: 0}
  m_GameObject: {fileID: 340743659}
  m_Enabled: 1
--- !u!1 &384873648
GameObject:
  m_ObjectHideFlags: 0
  m_PrefabParentObject: {fileID: 100078, guid: 959d14bf134f54a6e993fe6ca6e063c0, type: 3}
  m_PrefabInternal: {fileID: 1211868613}
  serializedVersion: 5
  m_Component:
  - component: {fileID: 384873649}
  m_Layer: 0
  m_Name: BipDummy L Finger31
  m_TagString: Untagged
  m_Icon: {fileID: 0}
  m_NavMeshLayer: 0
  m_StaticEditorFlags: 0
  m_IsActive: 1
--- !u!4 &384873649
Transform:
  m_ObjectHideFlags: 0
  m_PrefabParentObject: {fileID: 400078, guid: 959d14bf134f54a6e993fe6ca6e063c0, type: 3}
  m_PrefabInternal: {fileID: 1211868613}
  m_GameObject: {fileID: 384873648}
  m_LocalRotation: {x: 0.0000000026053375, y: -0.0000000045790607, z: -0.26490858,
    w: 0.9642736}
  m_LocalPosition: {x: -0.040773623, y: 0.00000003051758, z: 0.00000001525879}
  m_LocalScale: {x: 1, y: 1.0000001, z: 1.0000001}
  m_Children:
  - {fileID: 1002258079}
  m_Father: {fileID: 2056835168}
  m_RootOrder: 0
  m_LocalEulerAnglesHint: {x: 0, y: 0, z: 0}
--- !u!1 &389264339
GameObject:
  m_ObjectHideFlags: 0
  m_PrefabParentObject: {fileID: 100104, guid: 959d14bf134f54a6e993fe6ca6e063c0, type: 3}
  m_PrefabInternal: {fileID: 1211868613}
  serializedVersion: 5
  m_Component:
  - component: {fileID: 389264340}
  m_Layer: 0
  m_Name: BipDummy R Finger3
  m_TagString: Untagged
  m_Icon: {fileID: 0}
  m_NavMeshLayer: 0
  m_StaticEditorFlags: 0
  m_IsActive: 1
--- !u!4 &389264340
Transform:
  m_ObjectHideFlags: 0
  m_PrefabParentObject: {fileID: 400104, guid: 959d14bf134f54a6e993fe6ca6e063c0, type: 3}
  m_PrefabInternal: {fileID: 1211868613}
  m_GameObject: {fileID: 389264339}
  m_LocalRotation: {x: 0.0022173636, y: -0.0136231445, z: -0.13210824, w: 0.99113923}
  m_LocalPosition: {x: -0.10328601, y: 0.0010224, z: -0.020135256}
  m_LocalScale: {x: 1, y: 1, z: 1.0000001}
  m_Children:
  - {fileID: 33026449}
  m_Father: {fileID: 296633314}
  m_RootOrder: 3
  m_LocalEulerAnglesHint: {x: 0, y: 0, z: 0}
--- !u!1 &404735702
GameObject:
  m_ObjectHideFlags: 0
  m_PrefabParentObject: {fileID: 100098, guid: 959d14bf134f54a6e993fe6ca6e063c0, type: 3}
  m_PrefabInternal: {fileID: 1211868613}
  serializedVersion: 5
  m_Component:
  - component: {fileID: 404735703}
  m_Layer: 0
  m_Name: BipDummy R Finger2
  m_TagString: Untagged
  m_Icon: {fileID: 0}
  m_NavMeshLayer: 0
  m_StaticEditorFlags: 0
  m_IsActive: 1
--- !u!4 &404735703
Transform:
  m_ObjectHideFlags: 0
  m_PrefabParentObject: {fileID: 400098, guid: 959d14bf134f54a6e993fe6ca6e063c0, type: 3}
  m_PrefabInternal: {fileID: 1211868613}
  m_GameObject: {fileID: 404735702}
  m_LocalRotation: {x: 0.0046662716, y: -0.023126798, z: -0.2611372, w: 0.9650134}
  m_LocalPosition: {x: -0.10838886, y: -0.005205994, z: 0.00035925294}
  m_LocalScale: {x: 1.0000001, y: 1.0000001, z: 1.0000001}
  m_Children:
  - {fileID: 651876589}
  m_Father: {fileID: 296633314}
  m_RootOrder: 2
  m_LocalEulerAnglesHint: {x: 0, y: 0, z: 0}
--- !u!1 &441461754
GameObject:
  m_ObjectHideFlags: 0
  m_PrefabParentObject: {fileID: 0}
  m_PrefabInternal: {fileID: 0}
  serializedVersion: 5
  m_Component:
  - component: {fileID: 441461755}
  m_Layer: 0
  m_Name: Punch Aim Transform
  m_TagString: Untagged
  m_Icon: {fileID: 0}
  m_NavMeshLayer: 0
  m_StaticEditorFlags: 0
  m_IsActive: 1
--- !u!4 &441461755
Transform:
  m_ObjectHideFlags: 0
  m_PrefabParentObject: {fileID: 0}
  m_PrefabInternal: {fileID: 0}
  m_GameObject: {fileID: 441461754}
  m_LocalRotation: {x: 0, y: 0, z: 0, w: 1}
  m_LocalPosition: {x: -0, y: -0, z: 0}
  m_LocalScale: {x: 1, y: 1, z: 1}
  m_Children: []
  m_Father: {fileID: 2068716409}
  m_RootOrder: 1
  m_LocalEulerAnglesHint: {x: 0, y: 0, z: 0}
--- !u!1 &487172031
GameObject:
  m_ObjectHideFlags: 0
  m_PrefabParentObject: {fileID: 100060, guid: 959d14bf134f54a6e993fe6ca6e063c0, type: 3}
  m_PrefabInternal: {fileID: 1211868613}
  serializedVersion: 5
  m_Component:
  - component: {fileID: 487172032}
  m_Layer: 0
  m_Name: BipDummy L Finger01
  m_TagString: Untagged
  m_Icon: {fileID: 0}
  m_NavMeshLayer: 0
  m_StaticEditorFlags: 0
  m_IsActive: 1
--- !u!4 &487172032
Transform:
  m_ObjectHideFlags: 0
  m_PrefabParentObject: {fileID: 400060, guid: 959d14bf134f54a6e993fe6ca6e063c0, type: 3}
  m_PrefabInternal: {fileID: 1211868613}
  m_GameObject: {fileID: 487172031}
  m_LocalRotation: {x: 0, y: 0, z: -0.24637195, w: 0.9691754}
  m_LocalPosition: {x: -0.028966127, y: 0, z: -0.00000003051758}
  m_LocalScale: {x: 1.0000001, y: 1.0000001, z: 1}
  m_Children:
  - {fileID: 2128935942}
  m_Father: {fileID: 1008697860}
  m_RootOrder: 0
  m_LocalEulerAnglesHint: {x: 0, y: 0, z: 0}
--- !u!1 &496072813
GameObject:
  m_ObjectHideFlags: 0
  m_PrefabParentObject: {fileID: 100112, guid: 959d14bf134f54a6e993fe6ca6e063c0, type: 3}
  m_PrefabInternal: {fileID: 1211868613}
  serializedVersion: 5
  m_Component:
  - component: {fileID: 496072814}
  m_Layer: 0
  m_Name: BipDummy R Finger41
  m_TagString: Untagged
  m_Icon: {fileID: 0}
  m_NavMeshLayer: 0
  m_StaticEditorFlags: 0
  m_IsActive: 1
--- !u!4 &496072814
Transform:
  m_ObjectHideFlags: 0
  m_PrefabParentObject: {fileID: 400112, guid: 959d14bf134f54a6e993fe6ca6e063c0, type: 3}
  m_PrefabInternal: {fileID: 1211868613}
  m_GameObject: {fileID: 496072813}
  m_LocalRotation: {x: 0.0000000024180136, y: 0.0000000028339022, z: -0.6490805, w: 0.7607197}
  m_LocalPosition: {x: -0.032120302, y: 0.00000006103516, z: 0.00000006103516}
  m_LocalScale: {x: 0.9999999, y: 0.99999976, z: 0.99999994}
  m_Children:
  - {fileID: 1955842992}
  m_Father: {fileID: 1221708475}
  m_RootOrder: 0
  m_LocalEulerAnglesHint: {x: 0, y: 0, z: 0}
--- !u!1 &517978684
GameObject:
  m_ObjectHideFlags: 0
  m_PrefabParentObject: {fileID: 100068, guid: 959d14bf134f54a6e993fe6ca6e063c0, type: 3}
  m_PrefabInternal: {fileID: 1211868613}
  serializedVersion: 5
  m_Component:
  - component: {fileID: 517978685}
  m_Layer: 0
  m_Name: BipDummy L Finger12
  m_TagString: Untagged
  m_Icon: {fileID: 0}
  m_NavMeshLayer: 0
  m_StaticEditorFlags: 0
  m_IsActive: 1
--- !u!4 &517978685
Transform:
  m_ObjectHideFlags: 0
  m_PrefabParentObject: {fileID: 400068, guid: 959d14bf134f54a6e993fe6ca6e063c0, type: 3}
  m_PrefabInternal: {fileID: 1211868613}
  m_GameObject: {fileID: 517978684}
  m_LocalRotation: {x: 0.000000039817607, y: -0.000000012218085, z: -0.117604196,
    w: 0.9930606}
  m_LocalPosition: {x: -0.01876288, y: 0.00000003051758, z: 0}
  m_LocalScale: {x: 1, y: 1.0000001, z: 1}
  m_Children: []
  m_Father: {fileID: 1581244701}
  m_RootOrder: 0
  m_LocalEulerAnglesHint: {x: 0, y: 0, z: 0}
--- !u!1 &521765338
GameObject:
  m_ObjectHideFlags: 0
  m_PrefabParentObject: {fileID: 100052, guid: 959d14bf134f54a6e993fe6ca6e063c0, type: 3}
  m_PrefabInternal: {fileID: 1211868613}
  serializedVersion: 5
  m_Component:
  - component: {fileID: 258021817}
  m_Layer: 0
  m_Name: Bip002 Spine1
  m_TagString: Untagged
  m_Icon: {fileID: 0}
  m_NavMeshLayer: 0
  m_StaticEditorFlags: 0
  m_IsActive: 1
--- !u!1 &522297484
GameObject:
  m_ObjectHideFlags: 0
  m_PrefabParentObject: {fileID: 100042, guid: 959d14bf134f54a6e993fe6ca6e063c0, type: 3}
  m_PrefabInternal: {fileID: 1211868613}
  serializedVersion: 5
  m_Component:
  - component: {fileID: 522297485}
  m_Layer: 0
  m_Name: Bip002 R Toe0
  m_TagString: Untagged
  m_Icon: {fileID: 0}
  m_NavMeshLayer: 0
  m_StaticEditorFlags: 0
  m_IsActive: 1
--- !u!4 &522297485
Transform:
  m_ObjectHideFlags: 0
  m_PrefabParentObject: {fileID: 400042, guid: 959d14bf134f54a6e993fe6ca6e063c0, type: 3}
  m_PrefabInternal: {fileID: 1211868613}
  m_GameObject: {fileID: 522297484}
  m_LocalRotation: {x: -0.000000015454312, y: 0.000000015454312, z: -0.7071068, w: 0.7071068}
  m_LocalPosition: {x: -0.06716837, y: 0.13374838, z: 0}
  m_LocalScale: {x: 1, y: 1, z: 1}
  m_Children:
  - {fileID: 1463596284}
  m_Father: {fileID: 1803485549}
  m_RootOrder: 0
  m_LocalEulerAnglesHint: {x: 0, y: 0, z: 0}
--- !u!1 &573142176
GameObject:
  m_ObjectHideFlags: 0
  m_PrefabParentObject: {fileID: 100118, guid: 959d14bf134f54a6e993fe6ca6e063c0, type: 3}
  m_PrefabInternal: {fileID: 1211868613}
  serializedVersion: 5
  m_Component:
  - component: {fileID: 573142177}
  - component: {fileID: 573142179}
  - component: {fileID: 573142178}
  m_Layer: 0
  m_Name: Dummy Humanoid
  m_TagString: Untagged
  m_Icon: {fileID: 0}
  m_NavMeshLayer: 0
  m_StaticEditorFlags: 0
  m_IsActive: 1
--- !u!4 &573142177
Transform:
  m_ObjectHideFlags: 0
  m_PrefabParentObject: {fileID: 400118, guid: 959d14bf134f54a6e993fe6ca6e063c0, type: 3}
  m_PrefabInternal: {fileID: 1211868613}
  m_GameObject: {fileID: 573142176}
  m_LocalRotation: {x: 0, y: 1, z: 0, w: -0.00000016292068}
  m_LocalPosition: {x: 0, y: 0, z: 0}
  m_LocalScale: {x: 1, y: 1, z: 1}
  m_Children:
  - {fileID: 273351628}
  - {fileID: 1486179881}
  - {fileID: 1746691338}
  m_Father: {fileID: 0}
  m_RootOrder: 4
  m_LocalEulerAnglesHint: {x: 0, y: 0, z: 0}
--- !u!114 &573142178
MonoBehaviour:
  m_ObjectHideFlags: 0
  m_PrefabParentObject: {fileID: 0}
  m_PrefabInternal: {fileID: 0}
  m_GameObject: {fileID: 573142176}
  m_Enabled: 1
  m_EditorHideFlags: 0
  m_Script: {fileID: 11500000, guid: 5013856973b27429d937d256dc082f2e, type: 3}
  m_Name: 
  m_EditorClassIdentifier: 
  fixTransforms: 1
  solver:
    IKPosition: {x: 1.8469585, y: 0.50856787, z: 2.0059528}
    IKPositionWeight: 1
    root: {fileID: 573142177}
    target: {fileID: 0}
    tolerance: 0
    maxIterations: 4
    useRotationLimits: 0
    XY: 0
    bones:
    - transform: {fileID: 258021817}
      weight: 1
      solverPosition: {x: 0, y: 0, z: 0}
      solverRotation: {x: 0, y: 0, z: 0, w: 1}
      defaultLocalPosition: {x: -0.10531403, y: -0.00008385659, z: -2.3259054e-10}
      defaultLocalRotation: {x: 4.0745185e-14, y: 0, z: -0, w: 1}
      length: 0
      sqrMag: 0
      axis: {x: 0, y: 0, z: 0}
    - transform: {fileID: 600582779}
      weight: 0.5
      solverPosition: {x: 0, y: 0, z: 0}
      solverRotation: {x: 0, y: 0, z: 0, w: 1}
      defaultLocalPosition: {x: -0.10531482, y: -0.00008385659, z: -2.3258327e-10}
      defaultLocalRotation: {x: -8.096637e-15, y: 0.000000010320556, z: -0.0037209948,
        w: 0.9999931}
      length: 0
      sqrMag: 0
      axis: {x: 0, y: 0, z: 0}
    - transform: {fileID: 118095887}
      weight: 1
      solverPosition: {x: 0, y: 0, z: 0}
      solverRotation: {x: 0, y: 0, z: 0, w: 1}
      defaultLocalPosition: {x: -0.10531482, y: -0.00008385468, z: -2.3258327e-10}
      defaultLocalRotation: {x: -1.1736887e-13, y: 0.000000010320554, z: -0.0037209955,
        w: 0.9999931}
      length: 0
      sqrMag: 0
      axis: {x: 0, y: 0, z: 0}
    transform: {fileID: 441461755}
    axis: {x: 0, y: 0, z: 1}
    poleAxis: {x: 0, y: 1, z: 0}
    polePosition: {x: -1.4481627, y: 3.1797447, z: 2.0895588}
    poleWeight: 0
    poleTarget: {fileID: 0}
    clampWeight: 0.2
    clampSmoothing: 2
--- !u!95 &573142179
Animator:
  serializedVersion: 3
  m_ObjectHideFlags: 0
  m_PrefabParentObject: {fileID: 9500000, guid: 959d14bf134f54a6e993fe6ca6e063c0,
    type: 3}
  m_PrefabInternal: {fileID: 1211868613}
  m_GameObject: {fileID: 573142176}
  m_Enabled: 1
  m_Avatar: {fileID: 9000000, guid: 959d14bf134f54a6e993fe6ca6e063c0, type: 3}
  m_Controller: {fileID: 9100000, guid: a3b2662b56ec9481e9e0327a30d7c02d, type: 2}
  m_CullingMode: 1
  m_UpdateMode: 0
  m_ApplyRootMotion: 1
  m_LinearVelocityBlending: 0
  m_WarningMessage: 
  m_HasTransformHierarchy: 1
  m_AllowConstantClipSamplingOptimization: 1
--- !u!1 &586779668
GameObject:
  m_ObjectHideFlags: 0
  m_PrefabParentObject: {fileID: 100070, guid: 959d14bf134f54a6e993fe6ca6e063c0, type: 3}
  m_PrefabInternal: {fileID: 1211868613}
  serializedVersion: 5
  m_Component:
  - component: {fileID: 586779669}
  m_Layer: 0
  m_Name: BipDummy L Finger2
  m_TagString: Untagged
  m_Icon: {fileID: 0}
  m_NavMeshLayer: 0
  m_StaticEditorFlags: 0
  m_IsActive: 1
--- !u!4 &586779669
Transform:
  m_ObjectHideFlags: 0
  m_PrefabParentObject: {fileID: 400070, guid: 959d14bf134f54a6e993fe6ca6e063c0, type: 3}
  m_PrefabInternal: {fileID: 1211868613}
  m_GameObject: {fileID: 586779668}
  m_LocalRotation: {x: -0.001918456, y: 0.023514757, z: -0.14601779, w: 0.9890006}
  m_LocalPosition: {x: -0.10838886, y: -0.005206055, z: -0.00035929872}
  m_LocalScale: {x: 1, y: 1.0000001, z: 1.0000001}
  m_Children:
  - {fileID: 826276792}
  m_Father: {fileID: 912260237}
  m_RootOrder: 2
  m_LocalEulerAnglesHint: {x: 0, y: 0, z: 0}
--- !u!1 &594212892
GameObject:
  m_ObjectHideFlags: 0
  m_PrefabParentObject: {fileID: 100026, guid: 959d14bf134f54a6e993fe6ca6e063c0, type: 3}
  m_PrefabInternal: {fileID: 1211868613}
  serializedVersion: 5
  m_Component:
  - component: {fileID: 594212893}
  m_Layer: 0
  m_Name: Bip002 Pelvis
  m_TagString: Untagged
  m_Icon: {fileID: 0}
  m_NavMeshLayer: 0
  m_StaticEditorFlags: 0
  m_IsActive: 1
--- !u!4 &594212893
Transform:
  m_ObjectHideFlags: 0
  m_PrefabParentObject: {fileID: 400026, guid: 959d14bf134f54a6e993fe6ca6e063c0, type: 3}
  m_PrefabInternal: {fileID: 1211868613}
  m_GameObject: {fileID: 594212892}
  m_LocalRotation: {x: -0.49999964, y: 0.50000036, z: 0.49999964, w: 0.50000036}
  m_LocalPosition: {x: -0, y: 0, z: 0}
  m_LocalScale: {x: 1, y: 1, z: 1}
  m_Children:
  - {fileID: 1345772583}
  m_Father: {fileID: 273351628}
  m_RootOrder: 0
  m_LocalEulerAnglesHint: {x: 0, y: 0, z: 0}
--- !u!4 &600582779
Transform:
  m_ObjectHideFlags: 0
  m_PrefabParentObject: {fileID: 400054, guid: 959d14bf134f54a6e993fe6ca6e063c0, type: 3}
  m_PrefabInternal: {fileID: 1211868613}
  m_GameObject: {fileID: 1183763901}
  m_LocalRotation: {x: -8.096637e-15, y: 0.000000010320556, z: -0.0037209948, w: 0.9999931}
  m_LocalPosition: {x: -0.10531482, y: -0.00008385659, z: -2.3258327e-10}
  m_LocalScale: {x: 1, y: 1, z: 1}
  m_Children:
  - {fileID: 118095887}
  m_Father: {fileID: 258021817}
  m_RootOrder: 0
  m_LocalEulerAnglesHint: {x: 0, y: 0, z: 0}
--- !u!1 &635184044
GameObject:
  m_ObjectHideFlags: 0
  m_PrefabParentObject: {fileID: 100056, guid: 959d14bf134f54a6e993fe6ca6e063c0, type: 3}
  m_PrefabInternal: {fileID: 1211868613}
  serializedVersion: 5
  m_Component:
  - component: {fileID: 118095887}
  m_Layer: 0
  m_Name: Bip002 Spine3
  m_TagString: Untagged
  m_Icon: {fileID: 0}
  m_NavMeshLayer: 0
  m_StaticEditorFlags: 0
  m_IsActive: 1
--- !u!1 &651876588
GameObject:
  m_ObjectHideFlags: 0
  m_PrefabParentObject: {fileID: 100100, guid: 959d14bf134f54a6e993fe6ca6e063c0, type: 3}
  m_PrefabInternal: {fileID: 1211868613}
  serializedVersion: 5
  m_Component:
  - component: {fileID: 651876589}
  m_Layer: 0
  m_Name: BipDummy R Finger21
  m_TagString: Untagged
  m_Icon: {fileID: 0}
  m_NavMeshLayer: 0
  m_StaticEditorFlags: 0
  m_IsActive: 1
--- !u!4 &651876589
Transform:
  m_ObjectHideFlags: 0
  m_PrefabParentObject: {fileID: 400100, guid: 959d14bf134f54a6e993fe6ca6e063c0, type: 3}
  m_PrefabInternal: {fileID: 1211868613}
  m_GameObject: {fileID: 651876588}
  m_LocalRotation: {x: 0.000000035312798, y: 0.0000000014167345, z: -0.2779434, w: 0.96059746}
  m_LocalPosition: {x: -0.044976626, y: -0.00000001525879, z: 0}
  m_LocalScale: {x: 1, y: 1, z: 1}
  m_Children:
  - {fileID: 1366376342}
  m_Father: {fileID: 404735703}
  m_RootOrder: 0
  m_LocalEulerAnglesHint: {x: 0, y: 0, z: 0}
--- !u!1 &749245034
GameObject:
  m_ObjectHideFlags: 0
  m_PrefabParentObject: {fileID: 100032, guid: 959d14bf134f54a6e993fe6ca6e063c0, type: 3}
  m_PrefabInternal: {fileID: 1211868613}
  serializedVersion: 5
  m_Component:
  - component: {fileID: 749245035}
  m_Layer: 0
  m_Name: Bip002 R Finger0
  m_TagString: Untagged
  m_Icon: {fileID: 0}
  m_NavMeshLayer: 0
  m_StaticEditorFlags: 0
  m_IsActive: 1
--- !u!4 &749245035
Transform:
  m_ObjectHideFlags: 0
  m_PrefabParentObject: {fileID: 400032, guid: 959d14bf134f54a6e993fe6ca6e063c0, type: 3}
  m_PrefabInternal: {fileID: 1211868613}
  m_GameObject: {fileID: 749245034}
  m_LocalRotation: {x: -0.4061612, y: 0.2668805, z: 0.03686745, w: 0.8731831}
  m_LocalPosition: {x: -0.04263898, y: 0.010434327, z: 0.0281187}
  m_LocalScale: {x: 1.0000001, y: 1, z: 0.9999999}
  m_Children:
  - {fileID: 205401615}
  m_Father: {fileID: 296633314}
  m_RootOrder: 0
  m_LocalEulerAnglesHint: {x: 0, y: 0, z: 0}
--- !u!1 &817677810
GameObject:
  m_ObjectHideFlags: 0
  m_PrefabParentObject: {fileID: 100036, guid: 959d14bf134f54a6e993fe6ca6e063c0, type: 3}
  m_PrefabInternal: {fileID: 1211868613}
  serializedVersion: 5
  m_Component:
  - component: {fileID: 817677811}
  m_Layer: 0
  m_Name: Bip002 R Forearm
  m_TagString: Untagged
  m_Icon: {fileID: 0}
  m_NavMeshLayer: 0
  m_StaticEditorFlags: 0
  m_IsActive: 1
--- !u!4 &817677811
Transform:
  m_ObjectHideFlags: 0
  m_PrefabParentObject: {fileID: 400036, guid: 959d14bf134f54a6e993fe6ca6e063c0, type: 3}
  m_PrefabInternal: {fileID: 1211868613}
  m_GameObject: {fileID: 817677810}
  m_LocalRotation: {x: -0.000000024085356, y: -0.0000000072251183, z: 0.28733006,
    w: 0.9578316}
  m_LocalPosition: {x: -0.24303266, y: 0, z: 0}
  m_LocalScale: {x: 1, y: 1, z: 1}
  m_Children:
  - {fileID: 296633314}
  m_Father: {fileID: 2068716409}
  m_RootOrder: 0
  m_LocalEulerAnglesHint: {x: 0, y: 0, z: 0}
--- !u!1 &826276791
GameObject:
  m_ObjectHideFlags: 0
  m_PrefabParentObject: {fileID: 100072, guid: 959d14bf134f54a6e993fe6ca6e063c0, type: 3}
  m_PrefabInternal: {fileID: 1211868613}
  serializedVersion: 5
  m_Component:
  - component: {fileID: 826276792}
  m_Layer: 0
  m_Name: BipDummy L Finger21
  m_TagString: Untagged
  m_Icon: {fileID: 0}
  m_NavMeshLayer: 0
  m_StaticEditorFlags: 0
  m_IsActive: 1
--- !u!4 &826276792
Transform:
  m_ObjectHideFlags: 0
  m_PrefabParentObject: {fileID: 400072, guid: 959d14bf134f54a6e993fe6ca6e063c0, type: 3}
  m_PrefabInternal: {fileID: 1211868613}
  m_GameObject: {fileID: 826276791}
  m_LocalRotation: {x: 0.000000026105285, y: 0.000000005454415, z: -0.22450191, w: 0.97447366}
  m_LocalPosition: {x: -0.044976626, y: 0, z: 0}
  m_LocalScale: {x: 1, y: 1, z: 1.0000001}
  m_Children:
  - {fileID: 1663328388}
  m_Father: {fileID: 586779669}
  m_RootOrder: 0
  m_LocalEulerAnglesHint: {x: 0, y: 0, z: 0}
--- !u!1 &911996438
GameObject:
  m_ObjectHideFlags: 0
  m_PrefabParentObject: {fileID: 100000, guid: 959d14bf134f54a6e993fe6ca6e063c0, type: 3}
  m_PrefabInternal: {fileID: 1211868613}
  serializedVersion: 5
  m_Component:
  - component: {fileID: 911996439}
  m_Layer: 0
  m_Name: Bip002 Head
  m_TagString: Untagged
  m_Icon: {fileID: 0}
  m_NavMeshLayer: 0
  m_StaticEditorFlags: 0
  m_IsActive: 1
--- !u!4 &911996439
Transform:
  m_ObjectHideFlags: 0
  m_PrefabParentObject: {fileID: 400000, guid: 959d14bf134f54a6e993fe6ca6e063c0, type: 3}
  m_PrefabInternal: {fileID: 1211868613}
  m_GameObject: {fileID: 911996438}
  m_LocalRotation: {x: 4.7719963e-11, y: -0.00000040002516, z: 0.14414449, w: 0.98955667}
  m_LocalPosition: {x: -0.1367727, y: 0, z: 1.1641533e-13}
  m_LocalScale: {x: 1.0000001, y: 1.0000001, z: 1}
  m_Children: []
  m_Father: {fileID: 1215540418}
  m_RootOrder: 0
  m_LocalEulerAnglesHint: {x: 0, y: 0, z: 0}
--- !u!1 &912260236
GameObject:
  m_ObjectHideFlags: 0
  m_PrefabParentObject: {fileID: 100012, guid: 959d14bf134f54a6e993fe6ca6e063c0, type: 3}
  m_PrefabInternal: {fileID: 1211868613}
  serializedVersion: 5
  m_Component:
  - component: {fileID: 912260237}
  m_Layer: 0
  m_Name: Bip002 L Hand
  m_TagString: Untagged
  m_Icon: {fileID: 0}
  m_NavMeshLayer: 0
  m_StaticEditorFlags: 0
  m_IsActive: 1
--- !u!4 &912260237
Transform:
  m_ObjectHideFlags: 0
  m_PrefabParentObject: {fileID: 400012, guid: 959d14bf134f54a6e993fe6ca6e063c0, type: 3}
  m_PrefabInternal: {fileID: 1211868613}
  m_GameObject: {fileID: 912260236}
  m_LocalRotation: {x: -0.7212754, y: -0.08105717, z: 0.07682164, w: 0.6835861}
  m_LocalPosition: {x: -0.2430326, y: -0.00000003051758, z: 0}
  m_LocalScale: {x: 1, y: 1, z: 1.0000001}
  m_Children:
  - {fileID: 1008697860}
  - {fileID: 278092592}
  - {fileID: 586779669}
  - {fileID: 2056835168}
  - {fileID: 280044166}
  m_Father: {fileID: 1862417047}
  m_RootOrder: 0
  m_LocalEulerAnglesHint: {x: 0, y: 0, z: 0}
--- !u!1 &958320605
GameObject:
  m_ObjectHideFlags: 0
  m_PrefabParentObject: {fileID: 100008, guid: 959d14bf134f54a6e993fe6ca6e063c0, type: 3}
  m_PrefabInternal: {fileID: 1211868613}
  serializedVersion: 5
  m_Component:
  - component: {fileID: 958320606}
  m_Layer: 0
  m_Name: Bip002 L Foot
  m_TagString: Untagged
  m_Icon: {fileID: 0}
  m_NavMeshLayer: 0
  m_StaticEditorFlags: 0
  m_IsActive: 1
--- !u!4 &958320606
Transform:
  m_ObjectHideFlags: 0
  m_PrefabParentObject: {fileID: 400008, guid: 959d14bf134f54a6e993fe6ca6e063c0, type: 3}
  m_PrefabInternal: {fileID: 1211868613}
  m_GameObject: {fileID: 958320605}
  m_LocalRotation: {x: -0.04586778, y: 0.013275927, z: -0.101802245, w: 0.993658}
  m_LocalPosition: {x: -0.41098914, y: -0.000000007629395, z: 0}
  m_LocalScale: {x: 1, y: 0.99999994, z: 0.99999994}
  m_Children:
  - {fileID: 1938177007}
  m_Father: {fileID: 1592993543}
  m_RootOrder: 0
  m_LocalEulerAnglesHint: {x: 0, y: 0, z: 0}
--- !u!1 &981526385
GameObject:
  m_ObjectHideFlags: 0
  m_PrefabParentObject: {fileID: 100092, guid: 959d14bf134f54a6e993fe6ca6e063c0, type: 3}
  m_PrefabInternal: {fileID: 1211868613}
  serializedVersion: 5
  m_Component:
  - component: {fileID: 981526386}
  m_Layer: 0
  m_Name: BipDummy R Finger1
  m_TagString: Untagged
  m_Icon: {fileID: 0}
  m_NavMeshLayer: 0
  m_StaticEditorFlags: 0
  m_IsActive: 1
--- !u!4 &981526386
Transform:
  m_ObjectHideFlags: 0
  m_PrefabParentObject: {fileID: 400092, guid: 959d14bf134f54a6e993fe6ca6e063c0, type: 3}
  m_PrefabInternal: {fileID: 1211868613}
  m_GameObject: {fileID: 981526385}
  m_LocalRotation: {x: 0.00039008295, y: 0.000079733094, z: -0.20024739, w: 0.97974527}
  m_LocalPosition: {x: -0.1003982, y: -0.003286316, z: 0.022276932}
  m_LocalScale: {x: 1, y: 1, z: 1.0000001}
  m_Children:
  - {fileID: 1257069433}
  m_Father: {fileID: 296633314}
  m_RootOrder: 1
  m_LocalEulerAnglesHint: {x: 0, y: 0, z: 0}
--- !u!1 &1002258078
GameObject:
  m_ObjectHideFlags: 0
  m_PrefabParentObject: {fileID: 100080, guid: 959d14bf134f54a6e993fe6ca6e063c0, type: 3}
  m_PrefabInternal: {fileID: 1211868613}
  serializedVersion: 5
  m_Component:
  - component: {fileID: 1002258079}
  m_Layer: 0
  m_Name: BipDummy L Finger32
  m_TagString: Untagged
  m_Icon: {fileID: 0}
  m_NavMeshLayer: 0
  m_StaticEditorFlags: 0
  m_IsActive: 1
--- !u!4 &1002258079
Transform:
  m_ObjectHideFlags: 0
  m_PrefabParentObject: {fileID: 400080, guid: 959d14bf134f54a6e993fe6ca6e063c0, type: 3}
  m_PrefabInternal: {fileID: 1211868613}
  m_GameObject: {fileID: 1002258078}
  m_LocalRotation: {x: -0.000000023906223, y: -0.000000025557926, z: -0.30713028,
    w: 0.9516675}
  m_LocalPosition: {x: -0.02278595, y: -0.00000001525879, z: 0}
  m_LocalScale: {x: 0.9999999, y: 0.99999994, z: 0.99999994}
  m_Children: []
  m_Father: {fileID: 384873649}
  m_RootOrder: 0
  m_LocalEulerAnglesHint: {x: 0, y: 0, z: 0}
--- !u!1 &1008697859
GameObject:
  m_ObjectHideFlags: 0
  m_PrefabParentObject: {fileID: 100006, guid: 959d14bf134f54a6e993fe6ca6e063c0, type: 3}
  m_PrefabInternal: {fileID: 1211868613}
  serializedVersion: 5
  m_Component:
  - component: {fileID: 1008697860}
  m_Layer: 0
  m_Name: Bip002 L Finger0
  m_TagString: Untagged
  m_Icon: {fileID: 0}
  m_NavMeshLayer: 0
  m_StaticEditorFlags: 0
  m_IsActive: 1
--- !u!4 &1008697860
Transform:
  m_ObjectHideFlags: 0
  m_PrefabParentObject: {fileID: 400006, guid: 959d14bf134f54a6e993fe6ca6e063c0, type: 3}
  m_PrefabInternal: {fileID: 1211868613}
  m_GameObject: {fileID: 1008697859}
  m_LocalRotation: {x: 0.40023914, y: -0.27571434, z: 0.056018174, w: 0.87215376}
  m_LocalPosition: {x: -0.042638857, y: 0.010434205, z: -0.028118744}
  m_LocalScale: {x: 1.0000001, y: 1, z: 0.9999999}
  m_Children:
  - {fileID: 487172032}
  m_Father: {fileID: 912260237}
  m_RootOrder: 0
  m_LocalEulerAnglesHint: {x: 0, y: 0, z: 0}
--- !u!1 &1072057494
GameObject:
  m_ObjectHideFlags: 0
  m_PrefabParentObject: {fileID: 100022, guid: 959d14bf134f54a6e993fe6ca6e063c0, type: 3}
  m_PrefabInternal: {fileID: 1211868613}
  serializedVersion: 5
  m_Component:
  - component: {fileID: 1072057495}
  m_Layer: 0
  m_Name: Bip002 L UpperArm
  m_TagString: Untagged
  m_Icon: {fileID: 0}
  m_NavMeshLayer: 0
  m_StaticEditorFlags: 0
  m_IsActive: 1
--- !u!4 &1072057495
Transform:
  m_ObjectHideFlags: 0
  m_PrefabParentObject: {fileID: 400022, guid: 959d14bf134f54a6e993fe6ca6e063c0, type: 3}
  m_PrefabInternal: {fileID: 1211868613}
  m_GameObject: {fileID: 1072057494}
  m_LocalRotation: {x: 0.39572874, y: -0.43531165, z: 0.033002764, w: 0.80796874}
  m_LocalPosition: {x: -0.17969485, y: 9.536744e-10, z: 0}
  m_LocalScale: {x: 1.0000001, y: 1.0000001, z: 1}
  m_Children:
  - {fileID: 1862417047}
  m_Father: {fileID: 2141839092}
  m_RootOrder: 0
  m_LocalEulerAnglesHint: {x: 0, y: 0, z: 0}
--- !u!1 &1149305452
GameObject:
  m_ObjectHideFlags: 0
  m_PrefabParentObject: {fileID: 100018, guid: 959d14bf134f54a6e993fe6ca6e063c0, type: 3}
  m_PrefabInternal: {fileID: 1211868613}
  serializedVersion: 5
  m_Component:
  - component: {fileID: 1149305453}
  m_Layer: 0
  m_Name: Bip002 L Toe01
  m_TagString: Untagged
  m_Icon: {fileID: 0}
  m_NavMeshLayer: 0
  m_StaticEditorFlags: 0
  m_IsActive: 1
--- !u!4 &1149305453
Transform:
  m_ObjectHideFlags: 0
  m_PrefabParentObject: {fileID: 400018, guid: 959d14bf134f54a6e993fe6ca6e063c0, type: 3}
  m_PrefabInternal: {fileID: 1211868613}
  m_GameObject: {fileID: 1149305452}
  m_LocalRotation: {x: 0, y: -9.407548e-16, z: -0, w: 1}
  m_LocalPosition: {x: -0.012151627, y: 0, z: 0}
  m_LocalScale: {x: 1, y: 1, z: 1}
  m_Children:
  - {fileID: 1466310030}
  m_Father: {fileID: 1938177007}
  m_RootOrder: 0
  m_LocalEulerAnglesHint: {x: 0, y: 0, z: 0}
--- !u!1 &1171382395
GameObject:
  m_ObjectHideFlags: 0
  m_PrefabParentObject: {fileID: 100040, guid: 959d14bf134f54a6e993fe6ca6e063c0, type: 3}
  m_PrefabInternal: {fileID: 1211868613}
  serializedVersion: 5
  m_Component:
  - component: {fileID: 1171382396}
  m_Layer: 0
  m_Name: Bip002 R Thigh
  m_TagString: Untagged
  m_Icon: {fileID: 0}
  m_NavMeshLayer: 0
  m_StaticEditorFlags: 0
  m_IsActive: 1
--- !u!4 &1171382396
Transform:
  m_ObjectHideFlags: 0
  m_PrefabParentObject: {fileID: 400040, guid: 959d14bf134f54a6e993fe6ca6e063c0, type: 3}
  m_PrefabInternal: {fileID: 1211868613}
  m_GameObject: {fileID: 1171382395}
  m_LocalRotation: {x: -0.012553991, y: 0.99988455, z: -0.0005164296, w: -0.008549793}
  m_LocalPosition: {x: 0.09312867, y: -0.0024269181, z: -0.096502244}
  m_LocalScale: {x: 0.99999994, y: 1.0000001, z: 1.0000001}
  m_Children:
  - {fileID: 2004355332}
  m_Father: {fileID: 1345772583}
  m_RootOrder: 1
  m_LocalEulerAnglesHint: {x: 0, y: 0, z: 0}
--- !u!1 &1174195109
GameObject:
  m_ObjectHideFlags: 0
  m_PrefabParentObject: {fileID: 100030, guid: 959d14bf134f54a6e993fe6ca6e063c0, type: 3}
  m_PrefabInternal: {fileID: 1211868613}
  serializedVersion: 5
  m_Component:
  - component: {fileID: 1174195110}
  m_Layer: 0
  m_Name: Bip002 R Clavicle
  m_TagString: Untagged
  m_Icon: {fileID: 0}
  m_NavMeshLayer: 0
  m_StaticEditorFlags: 0
  m_IsActive: 1
--- !u!4 &1174195110
Transform:
  m_ObjectHideFlags: 0
  m_PrefabParentObject: {fileID: 400030, guid: 959d14bf134f54a6e993fe6ca6e063c0, type: 3}
  m_PrefabInternal: {fileID: 1211868613}
  m_GameObject: {fileID: 1174195109}
  m_LocalRotation: {x: 0.69003195, y: 0.10505109, z: 0.7079571, w: -0.10778195}
  m_LocalPosition: {x: -0, y: 0.0001090088, z: -0.028353818}
  m_LocalScale: {x: 1, y: 1, z: 1}
  m_Children:
  - {fileID: 2068716409}
  m_Father: {fileID: 1215540418}
  m_RootOrder: 2
  m_LocalEulerAnglesHint: {x: 0, y: 0, z: 0}
--- !u!1 &1178531802
GameObject:
  m_ObjectHideFlags: 0
  m_PrefabParentObject: {fileID: 0}
  m_PrefabInternal: {fileID: 0}
  serializedVersion: 5
  m_Component:
  - component: {fileID: 1178531803}
  - component: {fileID: 1178531804}
  m_Layer: 0
  m_Name: Directional light
  m_TagString: Untagged
  m_Icon: {fileID: 0}
  m_NavMeshLayer: 0
  m_StaticEditorFlags: 0
  m_IsActive: 1
--- !u!4 &1178531803
Transform:
  m_ObjectHideFlags: 0
  m_PrefabParentObject: {fileID: 0}
  m_PrefabInternal: {fileID: 0}
  m_GameObject: {fileID: 1178531802}
  m_LocalRotation: {x: 0.2953351, y: -0.45261332, z: 0.8302652, w: -0.13630143}
  m_LocalPosition: {x: -0.022630244, y: 3.5827851, z: 0.086004406}
  m_LocalScale: {x: 1, y: 1, z: 1}
  m_Children: []
  m_Father: {fileID: 0}
  m_RootOrder: 2
  m_LocalEulerAnglesHint: {x: 0, y: 0, z: 0}
--- !u!108 &1178531804
Light:
  m_ObjectHideFlags: 0
  m_PrefabParentObject: {fileID: 0}
  m_PrefabInternal: {fileID: 0}
  m_GameObject: {fileID: 1178531802}
  m_Enabled: 1
  serializedVersion: 8
  m_Type: 1
  m_Color: {r: 1, g: 1, b: 1, a: 1}
  m_Intensity: 1
  m_Range: 10
  m_SpotAngle: 30
  m_CookieSize: 10
  m_Shadows:
    m_Type: 2
    m_Resolution: -1
    m_CustomResolution: -1
    m_Strength: 0.796
    m_Bias: 0.044
    m_NormalBias: 0.4
    m_NearPlane: 0.2
  m_Cookie: {fileID: 0}
  m_DrawHalo: 0
  m_Flare: {fileID: 0}
  m_RenderMode: 0
  m_CullingMask:
    serializedVersion: 2
    m_Bits: 4294967295
  m_Lightmapping: 1
  m_AreaSize: {x: 1, y: 1}
  m_BounceIntensity: 1
  m_ColorTemperature: 6570
  m_UseColorTemperature: 0
  m_ShadowRadius: 0
  m_ShadowAngle: 0
--- !u!1 &1183763901
GameObject:
  m_ObjectHideFlags: 0
  m_PrefabParentObject: {fileID: 100054, guid: 959d14bf134f54a6e993fe6ca6e063c0, type: 3}
  m_PrefabInternal: {fileID: 1211868613}
  serializedVersion: 5
  m_Component:
  - component: {fileID: 600582779}
  m_Layer: 0
  m_Name: Bip002 Spine2
  m_TagString: Untagged
  m_Icon: {fileID: 0}
  m_NavMeshLayer: 0
  m_StaticEditorFlags: 0
  m_IsActive: 1
--- !u!1001 &1211868613
Prefab:
  m_ObjectHideFlags: 0
  serializedVersion: 2
  m_Modification:
    m_TransformParent: {fileID: 0}
    m_Modifications:
    - target: {fileID: 400118, guid: 959d14bf134f54a6e993fe6ca6e063c0, type: 3}
      propertyPath: m_LocalPosition.x
      value: 0
      objectReference: {fileID: 0}
    - target: {fileID: 400118, guid: 959d14bf134f54a6e993fe6ca6e063c0, type: 3}
      propertyPath: m_LocalPosition.y
      value: 0
      objectReference: {fileID: 0}
    - target: {fileID: 400118, guid: 959d14bf134f54a6e993fe6ca6e063c0, type: 3}
      propertyPath: m_LocalPosition.z
      value: 0
      objectReference: {fileID: 0}
    - target: {fileID: 400118, guid: 959d14bf134f54a6e993fe6ca6e063c0, type: 3}
      propertyPath: m_LocalRotation.x
      value: 0
      objectReference: {fileID: 0}
    - target: {fileID: 400118, guid: 959d14bf134f54a6e993fe6ca6e063c0, type: 3}
      propertyPath: m_LocalRotation.y
      value: 1
      objectReference: {fileID: 0}
    - target: {fileID: 400118, guid: 959d14bf134f54a6e993fe6ca6e063c0, type: 3}
      propertyPath: m_LocalRotation.z
      value: 0
      objectReference: {fileID: 0}
    - target: {fileID: 400118, guid: 959d14bf134f54a6e993fe6ca6e063c0, type: 3}
      propertyPath: m_LocalRotation.w
      value: -1.62920685e-07
      objectReference: {fileID: 0}
    - target: {fileID: 400118, guid: 959d14bf134f54a6e993fe6ca6e063c0, type: 3}
      propertyPath: m_RootOrder
      value: 5
      objectReference: {fileID: 0}
    - target: {fileID: 100118, guid: 959d14bf134f54a6e993fe6ca6e063c0, type: 3}
      propertyPath: m_Name
      value: Dummy Humanoid
      objectReference: {fileID: 0}
    - target: {fileID: 9500000, guid: 959d14bf134f54a6e993fe6ca6e063c0, type: 3}
      propertyPath: m_Controller
      value: 
      objectReference: {fileID: 9100000, guid: a3b2662b56ec9481e9e0327a30d7c02d, type: 2}
    m_RemovedComponents: []
  m_ParentPrefab: {fileID: 100100000, guid: 959d14bf134f54a6e993fe6ca6e063c0, type: 3}
  m_RootGameObject: {fileID: 573142176}
  m_IsPrefabParent: 0
--- !u!1 &1215540417
GameObject:
  m_ObjectHideFlags: 0
  m_PrefabParentObject: {fileID: 100024, guid: 959d14bf134f54a6e993fe6ca6e063c0, type: 3}
  m_PrefabInternal: {fileID: 1211868613}
  serializedVersion: 5
  m_Component:
  - component: {fileID: 1215540418}
  m_Layer: 0
  m_Name: Bip002 Neck
  m_TagString: Untagged
  m_Icon: {fileID: 0}
  m_NavMeshLayer: 0
  m_StaticEditorFlags: 0
  m_IsActive: 1
--- !u!4 &1215540418
Transform:
  m_ObjectHideFlags: 0
  m_PrefabParentObject: {fileID: 400024, guid: 959d14bf134f54a6e993fe6ca6e063c0, type: 3}
  m_PrefabInternal: {fileID: 1211868613}
  m_GameObject: {fileID: 1215540417}
  m_LocalRotation: {x: 4.448862e-14, y: 0.0000004163574, z: -0.15011443, w: 0.9886686}
  m_LocalPosition: {x: -0.10534644, y: -0.00010401631, z: -2.884772e-10}
  m_LocalScale: {x: 1.0000001, y: 1.0000001, z: 1}
  m_Children:
  - {fileID: 911996439}
  - {fileID: 2141839092}
  - {fileID: 1174195110}
  m_Father: {fileID: 118095887}
  m_RootOrder: 0
  m_LocalEulerAnglesHint: {x: 0, y: 0, z: 0}
--- !u!1 &1221708474
GameObject:
  m_ObjectHideFlags: 0
  m_PrefabParentObject: {fileID: 100110, guid: 959d14bf134f54a6e993fe6ca6e063c0, type: 3}
  m_PrefabInternal: {fileID: 1211868613}
  serializedVersion: 5
  m_Component:
  - component: {fileID: 1221708475}
  m_Layer: 0
  m_Name: BipDummy R Finger4
  m_TagString: Untagged
  m_Icon: {fileID: 0}
  m_NavMeshLayer: 0
  m_StaticEditorFlags: 0
  m_IsActive: 1
--- !u!4 &1221708475
Transform:
  m_ObjectHideFlags: 0
  m_PrefabParentObject: {fileID: 400110, guid: 959d14bf134f54a6e993fe6ca6e063c0, type: 3}
  m_PrefabInternal: {fileID: 1211868613}
  m_GameObject: {fileID: 1221708474}
  m_LocalRotation: {x: 0.0007130304, y: -0.0098164985, z: -0.032043967, w: 0.99943805}
  m_LocalPosition: {x: -0.09384656, y: 0.009099671, z: -0.039979525}
  m_LocalScale: {x: 1.0000001, y: 1.0000001, z: 1}
  m_Children:
  - {fileID: 496072814}
  m_Father: {fileID: 296633314}
  m_RootOrder: 4
  m_LocalEulerAnglesHint: {x: 0, y: 0, z: 0}
--- !u!1 &1257069432
GameObject:
  m_ObjectHideFlags: 0
  m_PrefabParentObject: {fileID: 100094, guid: 959d14bf134f54a6e993fe6ca6e063c0, type: 3}
  m_PrefabInternal: {fileID: 1211868613}
  serializedVersion: 5
  m_Component:
  - component: {fileID: 1257069433}
  m_Layer: 0
  m_Name: BipDummy R Finger11
  m_TagString: Untagged
  m_Icon: {fileID: 0}
  m_NavMeshLayer: 0
  m_StaticEditorFlags: 0
  m_IsActive: 1
--- !u!4 &1257069433
Transform:
  m_ObjectHideFlags: 0
  m_PrefabParentObject: {fileID: 400094, guid: 959d14bf134f54a6e993fe6ca6e063c0, type: 3}
  m_PrefabInternal: {fileID: 1211868613}
  m_GameObject: {fileID: 1257069432}
  m_LocalRotation: {x: 0.000000001861105, y: -7.57366e-11, z: -0.040660772, w: 0.99917305}
  m_LocalPosition: {x: -0.047266603, y: 0.00000001525879, z: -0.00000001525879}
  m_LocalScale: {x: 0.99999994, y: 0.99999994, z: 0.99999994}
  m_Children:
  - {fileID: 314065710}
  m_Father: {fileID: 981526386}
  m_RootOrder: 0
  m_LocalEulerAnglesHint: {x: 0, y: 0, z: 0}
--- !u!1 &1301267381
GameObject:
  m_ObjectHideFlags: 0
  m_PrefabParentObject: {fileID: 100048, guid: 959d14bf134f54a6e993fe6ca6e063c0, type: 3}
  m_PrefabInternal: {fileID: 1211868613}
  serializedVersion: 5
  m_Component:
  - component: {fileID: 2068716409}
  m_Layer: 0
  m_Name: Bip002 R UpperArm
  m_TagString: Untagged
  m_Icon: {fileID: 0}
  m_NavMeshLayer: 0
  m_StaticEditorFlags: 0
  m_IsActive: 1
--- !u!1 &1345772582
GameObject:
  m_ObjectHideFlags: 0
  m_PrefabParentObject: {fileID: 100050, guid: 959d14bf134f54a6e993fe6ca6e063c0, type: 3}
  m_PrefabInternal: {fileID: 1211868613}
  serializedVersion: 5
  m_Component:
  - component: {fileID: 1345772583}
  m_Layer: 0
  m_Name: Bip002 Spine
  m_TagString: Untagged
  m_Icon: {fileID: 0}
  m_NavMeshLayer: 0
  m_StaticEditorFlags: 0
  m_IsActive: 1
--- !u!4 &1345772583
Transform:
  m_ObjectHideFlags: 0
  m_PrefabParentObject: {fileID: 400050, guid: 959d14bf134f54a6e993fe6ca6e063c0, type: 3}
  m_PrefabInternal: {fileID: 1211868613}
  m_GameObject: {fileID: 1345772582}
  m_LocalRotation: {x: -0.000002070677, y: 0.000000684224, z: 0.013477894, w: 0.99990916}
  m_LocalPosition: {x: -0.09316022, y: -0.00008378435, z: 0.00000012931065}
  m_LocalScale: {x: 1, y: 1, z: 1}
  m_Children:
  - {fileID: 313380055}
  - {fileID: 1171382396}
  - {fileID: 258021817}
  m_Father: {fileID: 594212893}
  m_RootOrder: 0
  m_LocalEulerAnglesHint: {x: 0, y: 0, z: 0}
--- !u!1 &1366376341
GameObject:
  m_ObjectHideFlags: 0
  m_PrefabParentObject: {fileID: 100102, guid: 959d14bf134f54a6e993fe6ca6e063c0, type: 3}
  m_PrefabInternal: {fileID: 1211868613}
  serializedVersion: 5
  m_Component:
  - component: {fileID: 1366376342}
  m_Layer: 0
  m_Name: BipDummy R Finger22
  m_TagString: Untagged
  m_Icon: {fileID: 0}
  m_NavMeshLayer: 0
  m_StaticEditorFlags: 0
  m_IsActive: 1
--- !u!4 &1366376342
Transform:
  m_ObjectHideFlags: 0
  m_PrefabParentObject: {fileID: 400102, guid: 959d14bf134f54a6e993fe6ca6e063c0, type: 3}
  m_PrefabInternal: {fileID: 1211868613}
  m_GameObject: {fileID: 1366376341}
  m_LocalRotation: {x: -3.7377737e-10, y: -0.0000000037064913, z: -0.100335106, w: 0.99495375}
  m_LocalPosition: {x: -0.023578431, y: 0, z: 0.00000003051758}
  m_LocalScale: {x: 1, y: 1.0000001, z: 1.0000001}
  m_Children: []
  m_Father: {fileID: 651876589}
  m_RootOrder: 0
  m_LocalEulerAnglesHint: {x: 0, y: 0, z: 0}
--- !u!1 &1463596283
GameObject:
  m_ObjectHideFlags: 0
  m_PrefabParentObject: {fileID: 100044, guid: 959d14bf134f54a6e993fe6ca6e063c0, type: 3}
  m_PrefabInternal: {fileID: 1211868613}
  serializedVersion: 5
  m_Component:
  - component: {fileID: 1463596284}
  m_Layer: 0
  m_Name: Bip002 R Toe01
  m_TagString: Untagged
  m_Icon: {fileID: 0}
  m_NavMeshLayer: 0
  m_StaticEditorFlags: 0
  m_IsActive: 1
--- !u!4 &1463596284
Transform:
  m_ObjectHideFlags: 0
  m_PrefabParentObject: {fileID: 400044, guid: 959d14bf134f54a6e993fe6ca6e063c0, type: 3}
  m_PrefabInternal: {fileID: 1211868613}
  m_GameObject: {fileID: 1463596283}
  m_LocalRotation: {x: 0, y: -1.0418551e-15, z: -0, w: 1}
  m_LocalPosition: {x: -0.012151627, y: 0, z: 0}
  m_LocalScale: {x: 1, y: 1, z: 1}
  m_Children:
  - {fileID: 1743744671}
  m_Father: {fileID: 522297485}
  m_RootOrder: 0
  m_LocalEulerAnglesHint: {x: 0, y: 0, z: 0}
--- !u!1 &1466310029
GameObject:
  m_ObjectHideFlags: 0
  m_PrefabParentObject: {fileID: 100020, guid: 959d14bf134f54a6e993fe6ca6e063c0, type: 3}
  m_PrefabInternal: {fileID: 1211868613}
  serializedVersion: 5
  m_Component:
  - component: {fileID: 1466310030}
  m_Layer: 0
  m_Name: Bip002 L Toe02
  m_TagString: Untagged
  m_Icon: {fileID: 0}
  m_NavMeshLayer: 0
  m_StaticEditorFlags: 0
  m_IsActive: 1
--- !u!4 &1466310030
Transform:
  m_ObjectHideFlags: 0
  m_PrefabParentObject: {fileID: 400020, guid: 959d14bf134f54a6e993fe6ca6e063c0, type: 3}
  m_PrefabInternal: {fileID: 1211868613}
  m_GameObject: {fileID: 1466310029}
  m_LocalRotation: {x: 0, y: -9.407548e-16, z: -0, w: 1}
  m_LocalPosition: {x: -0.012151627, y: 0, z: -0.000000007629395}
  m_LocalScale: {x: 1, y: 1, z: 1}
  m_Children: []
  m_Father: {fileID: 1149305453}
  m_RootOrder: 0
  m_LocalEulerAnglesHint: {x: 0, y: 0, z: 0}
--- !u!1 &1486179880
GameObject:
  m_ObjectHideFlags: 0
  m_PrefabParentObject: {fileID: 100116, guid: 959d14bf134f54a6e993fe6ca6e063c0, type: 3}
  m_PrefabInternal: {fileID: 1211868613}
  serializedVersion: 5
  m_Component:
  - component: {fileID: 1486179881}
  - component: {fileID: 1486179882}
  m_Layer: 0
  m_Name: Dummy
  m_TagString: Untagged
  m_Icon: {fileID: 0}
  m_NavMeshLayer: 0
  m_StaticEditorFlags: 0
  m_IsActive: 1
--- !u!4 &1486179881
Transform:
  m_ObjectHideFlags: 0
  m_PrefabParentObject: {fileID: 400116, guid: 959d14bf134f54a6e993fe6ca6e063c0, type: 3}
  m_PrefabInternal: {fileID: 1211868613}
  m_GameObject: {fileID: 1486179880}
  m_LocalRotation: {x: 0.000000021855694, y: 0, z: -0, w: 1}
  m_LocalPosition: {x: -0, y: 0, z: 0}
  m_LocalScale: {x: 1.9103826, y: 1.9103826, z: 1.9103826}
  m_Children: []
  m_Father: {fileID: 573142177}
  m_RootOrder: 1
  m_LocalEulerAnglesHint: {x: 0, y: 0, z: 0}
--- !u!137 &1486179882
SkinnedMeshRenderer:
  m_ObjectHideFlags: 0
  m_PrefabParentObject: {fileID: 13700000, guid: 959d14bf134f54a6e993fe6ca6e063c0,
    type: 3}
  m_PrefabInternal: {fileID: 1211868613}
  m_GameObject: {fileID: 1486179880}
  m_Enabled: 1
  m_CastShadows: 1
  m_ReceiveShadows: 1
  m_DynamicOccludee: 1
  m_MotionVectors: 1
  m_LightProbeUsage: 1
  m_ReflectionProbeUsage: 1
  m_Materials:
  - {fileID: 2100000, guid: 8a758f41de96147d29c0b9d92ce2a3c5, type: 2}
  m_StaticBatchInfo:
    firstSubMesh: 0
    subMeshCount: 0
  m_StaticBatchRoot: {fileID: 0}
  m_ProbeAnchor: {fileID: 0}
  m_LightProbeVolumeOverride: {fileID: 0}
  m_ScaleInLightmap: 1
  m_PreserveUVs: 0
  m_IgnoreNormalsForChartDetection: 0
  m_ImportantGI: 0
  m_StitchLightmapSeams: 0
  m_SelectedEditorRenderState: 3
  m_MinimumChartSize: 4
  m_AutoUVMaxDistance: 0.5
  m_AutoUVMaxAngle: 89
  m_LightmapParameters: {fileID: 0}
  m_SortingLayerID: 0
  m_SortingLayer: 0
  m_SortingOrder: 0
  serializedVersion: 2
  m_Quality: 0
  m_UpdateWhenOffscreen: 0
  m_SkinnedMotionVectors: 1
  m_Mesh: {fileID: 4300000, guid: 959d14bf134f54a6e993fe6ca6e063c0, type: 3}
  m_Bones:
  - {fileID: 313380055}
  - {fileID: 594212893}
  - {fileID: 1345772583}
  - {fileID: 273351628}
  - {fileID: 1171382396}
  - {fileID: 2141839092}
  - {fileID: 1072057495}
  - {fileID: 600582779}
  - {fileID: 118095887}
  - {fileID: 1215540418}
  - {fileID: 911996439}
  - {fileID: 1174195110}
  - {fileID: 1862417047}
  - {fileID: 2068716409}
  - {fileID: 817677811}
  - {fileID: 258021817}
  - {fileID: 1592993543}
  - {fileID: 958320606}
  - {fileID: 1803485549}
  - {fileID: 1938177007}
  - {fileID: 2004355332}
  - {fileID: 522297485}
  - {fileID: 1008697860}
  - {fileID: 912260237}
  - {fileID: 586779669}
  - {fileID: 2056835168}
  - {fileID: 278092592}
  - {fileID: 487172032}
  - {fileID: 280044166}
  - {fileID: 2128935942}
  - {fileID: 826276792}
  - {fileID: 1663328388}
  - {fileID: 384873649}
  - {fileID: 1002258079}
  - {fileID: 1581244701}
  - {fileID: 517978685}
  - {fileID: 2136111828}
  - {fileID: 1728666917}
  - {fileID: 749245035}
  - {fileID: 296633314}
  - {fileID: 404735703}
  - {fileID: 389264340}
  - {fileID: 981526386}
  - {fileID: 205401615}
  - {fileID: 1221708475}
  - {fileID: 1548726146}
  - {fileID: 651876589}
  - {fileID: 1366376342}
  - {fileID: 33026449}
  - {fileID: 1800634855}
  - {fileID: 1257069433}
  - {fileID: 314065710}
  - {fileID: 496072814}
  - {fileID: 1955842992}
  - {fileID: 1743744671}
  - {fileID: 1466310030}
  m_BlendShapeWeights: []
  m_RootBone: {fileID: 273351628}
  m_AABB:
    m_Center: {x: -0.013714805, y: -0.00000086426735, z: 0.00061771274}
    m_Extent: {x: 0.1674635, y: 0.48301005, z: 0.89055586}
  m_DirtyAABB: 0
--- !u!1 &1548726145
GameObject:
  m_ObjectHideFlags: 0
  m_PrefabParentObject: {fileID: 100090, guid: 959d14bf134f54a6e993fe6ca6e063c0, type: 3}
  m_PrefabInternal: {fileID: 1211868613}
  serializedVersion: 5
  m_Component:
  - component: {fileID: 1548726146}
  m_Layer: 0
  m_Name: BipDummy R Finger02
  m_TagString: Untagged
  m_Icon: {fileID: 0}
  m_NavMeshLayer: 0
  m_StaticEditorFlags: 0
  m_IsActive: 1
--- !u!4 &1548726146
Transform:
  m_ObjectHideFlags: 0
  m_PrefabParentObject: {fileID: 400090, guid: 959d14bf134f54a6e993fe6ca6e063c0, type: 3}
  m_PrefabInternal: {fileID: 1211868613}
  m_GameObject: {fileID: 1548726145}
  m_LocalRotation: {x: -0.0051727896, y: -0.14755645, z: -0.23301202, w: 0.9612002}
  m_LocalPosition: {x: -0.032908753, y: -0.000000007629395, z: -0.00000003051758}
  m_LocalScale: {x: 1.0000001, y: 1.0000001, z: 1.0000001}
  m_Children: []
  m_Father: {fileID: 205401615}
  m_RootOrder: 0
  m_LocalEulerAnglesHint: {x: 0, y: 0, z: 0}
--- !u!1 &1581244700
GameObject:
  m_ObjectHideFlags: 0
  m_PrefabParentObject: {fileID: 100066, guid: 959d14bf134f54a6e993fe6ca6e063c0, type: 3}
  m_PrefabInternal: {fileID: 1211868613}
  serializedVersion: 5
  m_Component:
  - component: {fileID: 1581244701}
  m_Layer: 0
  m_Name: BipDummy L Finger11
  m_TagString: Untagged
  m_Icon: {fileID: 0}
  m_NavMeshLayer: 0
  m_StaticEditorFlags: 0
  m_IsActive: 1
--- !u!4 &1581244701
Transform:
  m_ObjectHideFlags: 0
  m_PrefabParentObject: {fileID: 400066, guid: 959d14bf134f54a6e993fe6ca6e063c0, type: 3}
  m_PrefabInternal: {fileID: 1211868613}
  m_GameObject: {fileID: 1581244700}
  m_LocalRotation: {x: -0.00000004303571, y: 0.000000014207038, z: -0.15310442, w: 0.98821}
  m_LocalPosition: {x: -0.047266666, y: 0, z: 0.00000003051758}
  m_LocalScale: {x: 1.0000001, y: 1.0000001, z: 1}
  m_Children:
  - {fileID: 517978685}
  m_Father: {fileID: 278092592}
  m_RootOrder: 0
  m_LocalEulerAnglesHint: {x: 0, y: 0, z: 0}
--- !u!1 &1592993542
GameObject:
  m_ObjectHideFlags: 0
  m_PrefabParentObject: {fileID: 100002, guid: 959d14bf134f54a6e993fe6ca6e063c0, type: 3}
  m_PrefabInternal: {fileID: 1211868613}
  serializedVersion: 5
  m_Component:
  - component: {fileID: 1592993543}
  m_Layer: 0
  m_Name: Bip002 L Calf
  m_TagString: Untagged
  m_Icon: {fileID: 0}
  m_NavMeshLayer: 0
  m_StaticEditorFlags: 0
  m_IsActive: 1
--- !u!4 &1592993543
Transform:
  m_ObjectHideFlags: 0
  m_PrefabParentObject: {fileID: 400002, guid: 959d14bf134f54a6e993fe6ca6e063c0, type: 3}
  m_PrefabInternal: {fileID: 1211868613}
  m_GameObject: {fileID: 1592993542}
  m_LocalRotation: {x: -3.5029177e-10, y: 8.9379376e-10, z: 0.12818542, w: 0.99175024}
  m_LocalPosition: {x: -0.42230678, y: 0, z: 0}
  m_LocalScale: {x: 1.0000001, y: 1.0000001, z: 1}
  m_Children:
  - {fileID: 958320606}
  m_Father: {fileID: 313380055}
  m_RootOrder: 0
  m_LocalEulerAnglesHint: {x: 0, y: 0, z: 0}
--- !u!1 &1663328387
GameObject:
  m_ObjectHideFlags: 0
  m_PrefabParentObject: {fileID: 100074, guid: 959d14bf134f54a6e993fe6ca6e063c0, type: 3}
  m_PrefabInternal: {fileID: 1211868613}
  serializedVersion: 5
  m_Component:
  - component: {fileID: 1663328388}
  m_Layer: 0
  m_Name: BipDummy L Finger22
  m_TagString: Untagged
  m_Icon: {fileID: 0}
  m_NavMeshLayer: 0
  m_StaticEditorFlags: 0
  m_IsActive: 1
--- !u!4 &1663328388
Transform:
  m_ObjectHideFlags: 0
  m_PrefabParentObject: {fileID: 400074, guid: 959d14bf134f54a6e993fe6ca6e063c0, type: 3}
  m_PrefabInternal: {fileID: 1211868613}
  m_GameObject: {fileID: 1663328387}
  m_LocalRotation: {x: -8.062054e-10, y: -0.000000037430024, z: -0.120907776, w: 0.99266374}
  m_LocalPosition: {x: -0.02357837, y: 0, z: -0.00000001525879}
  m_LocalScale: {x: 1, y: 1.0000001, z: 1}
  m_Children: []
  m_Father: {fileID: 826276792}
  m_RootOrder: 0
  m_LocalEulerAnglesHint: {x: 0, y: 0, z: 0}
--- !u!1 &1728666916
GameObject:
  m_ObjectHideFlags: 0
  m_PrefabParentObject: {fileID: 100086, guid: 959d14bf134f54a6e993fe6ca6e063c0, type: 3}
  m_PrefabInternal: {fileID: 1211868613}
  serializedVersion: 5
  m_Component:
  - component: {fileID: 1728666917}
  m_Layer: 0
  m_Name: BipDummy L Finger42
  m_TagString: Untagged
  m_Icon: {fileID: 0}
  m_NavMeshLayer: 0
  m_StaticEditorFlags: 0
  m_IsActive: 1
--- !u!4 &1728666917
Transform:
  m_ObjectHideFlags: 0
  m_PrefabParentObject: {fileID: 400086, guid: 959d14bf134f54a6e993fe6ca6e063c0, type: 3}
  m_PrefabInternal: {fileID: 1211868613}
  m_GameObject: {fileID: 1728666916}
  m_LocalRotation: {x: 0.00000001644754, y: 0.00000001808565, z: -0.41532043, w: 0.90967524}
  m_LocalPosition: {x: -0.01889612, y: 0, z: 0.000000045776368}
  m_LocalScale: {x: 1, y: 1.0000001, z: 1}
  m_Children: []
  m_Father: {fileID: 2136111828}
  m_RootOrder: 0
  m_LocalEulerAnglesHint: {x: 0, y: 0, z: 0}
--- !u!1 &1743744670
GameObject:
  m_ObjectHideFlags: 0
  m_PrefabParentObject: {fileID: 100046, guid: 959d14bf134f54a6e993fe6ca6e063c0, type: 3}
  m_PrefabInternal: {fileID: 1211868613}
  serializedVersion: 5
  m_Component:
  - component: {fileID: 1743744671}
  m_Layer: 0
  m_Name: Bip002 R Toe02
  m_TagString: Untagged
  m_Icon: {fileID: 0}
  m_NavMeshLayer: 0
  m_StaticEditorFlags: 0
  m_IsActive: 1
--- !u!4 &1743744671
Transform:
  m_ObjectHideFlags: 0
  m_PrefabParentObject: {fileID: 400046, guid: 959d14bf134f54a6e993fe6ca6e063c0, type: 3}
  m_PrefabInternal: {fileID: 1211868613}
  m_GameObject: {fileID: 1743744670}
  m_LocalRotation: {x: 0, y: -1.0418551e-15, z: -0, w: 1}
  m_LocalPosition: {x: -0.012151635, y: 0, z: 0}
  m_LocalScale: {x: 1, y: 1, z: 1}
  m_Children: []
  m_Father: {fileID: 1463596284}
  m_RootOrder: 0
  m_LocalEulerAnglesHint: {x: 0, y: 0, z: 0}
--- !u!1 &1746691337
GameObject:
  m_ObjectHideFlags: 0
  m_PrefabParentObject: {fileID: 0}
  m_PrefabInternal: {fileID: 0}
  serializedVersion: 5
  m_Component:
  - component: {fileID: 1746691338}
  m_Layer: 0
  m_Name: PunchPin
  m_TagString: Untagged
  m_Icon: {fileID: 0}
  m_NavMeshLayer: 0
  m_StaticEditorFlags: 0
  m_IsActive: 1
--- !u!4 &1746691338
Transform:
  m_ObjectHideFlags: 0
  m_PrefabParentObject: {fileID: 0}
  m_PrefabInternal: {fileID: 0}
  m_GameObject: {fileID: 1746691337}
  m_LocalRotation: {x: 0, y: -1, z: 0, w: -0.00000016292068}
  m_LocalPosition: {x: -0.028715255, y: 1.515957, z: 0.784472}
  m_LocalScale: {x: 0.1, y: 0.1, z: 0.1}
  m_Children: []
  m_Father: {fileID: 573142177}
  m_RootOrder: 2
  m_LocalEulerAnglesHint: {x: 0, y: 0, z: 0}
--- !u!1 &1774727564
GameObject:
  m_ObjectHideFlags: 0
  m_PrefabParentObject: {fileID: 0}
  m_PrefabInternal: {fileID: 0}
  serializedVersion: 5
  m_Component:
  - component: {fileID: 1774727566}
  - component: {fileID: 1774727565}
  m_Layer: 0
  m_Name: READ ME!
  m_TagString: Untagged
  m_Icon: {fileID: 0}
  m_NavMeshLayer: 0
  m_StaticEditorFlags: 0
  m_IsActive: 1
--- !u!114 &1774727565
MonoBehaviour:
  m_ObjectHideFlags: 0
  m_PrefabParentObject: {fileID: 0}
  m_PrefabInternal: {fileID: 0}
  m_GameObject: {fileID: 1774727564}
  m_Enabled: 1
  m_EditorHideFlags: 0
  m_Script: {fileID: 11500000, guid: 92471cc1733c49042be56cd39b4b6e5e, type: 3}
  m_Name: 
  m_EditorClassIdentifier: 
  text: "AimIK is good for keeping objects steadily aimed at the target. Sometimes
    those objects have a lot of swinging motion in the animation though, like swinging
    a sword for example, and it is not good to use AimIK to keep the sword oriented
    towards a certain position during that swing. \nIt would keep the sword orientation
    fixed by bending the rest of the spine hierarchy and that would interfere with
    the animation in an unnatural way. \n\nIt is still possible to use AimIK to redirect
    swinging animations like swordplay or punching. For that, we would have to tell
    AimIK each frame that whatever the current animated pose, it is the default forward
    aiming pose.\n\nThis can be done either by rotating the Aim Transform of AimIK
    towards the target before AimIK solves or by adjusting the Axis of AimIK.\n\nTake
    a look at AimBoxing.cs to see how it's done.\n\nRight-click on any FinalIK component
    header and select \"User Manual\" or \"Script Reference\" for more info."
--- !u!4 &1774727566
Transform:
  m_ObjectHideFlags: 0
  m_PrefabParentObject: {fileID: 0}
  m_PrefabInternal: {fileID: 0}
  m_GameObject: {fileID: 1774727564}
  m_LocalRotation: {x: 0, y: 0, z: 0, w: 1}
  m_LocalPosition: {x: 0, y: 0, z: 0}
  m_LocalScale: {x: 1, y: 1, z: 1}
  m_Children: []
  m_Father: {fileID: 0}
  m_RootOrder: 0
  m_LocalEulerAnglesHint: {x: 0, y: 0, z: 0}
--- !u!1 &1800634854
GameObject:
  m_ObjectHideFlags: 0
  m_PrefabParentObject: {fileID: 100108, guid: 959d14bf134f54a6e993fe6ca6e063c0, type: 3}
  m_PrefabInternal: {fileID: 1211868613}
  serializedVersion: 5
  m_Component:
  - component: {fileID: 1800634855}
  m_Layer: 0
  m_Name: BipDummy R Finger32
  m_TagString: Untagged
  m_Icon: {fileID: 0}
  m_NavMeshLayer: 0
  m_StaticEditorFlags: 0
  m_IsActive: 1
--- !u!4 &1800634855
Transform:
  m_ObjectHideFlags: 0
  m_PrefabParentObject: {fileID: 400108, guid: 959d14bf134f54a6e993fe6ca6e063c0, type: 3}
  m_PrefabInternal: {fileID: 1211868613}
  m_GameObject: {fileID: 1800634854}
  m_LocalRotation: {x: 0.000000014849564, y: -0.0000000022370685, z: -0.27046826,
    w: 0.9627289}
  m_LocalPosition: {x: -0.02278583, y: 0, z: -0.00000001525879}
  m_LocalScale: {x: 1, y: 1, z: 1}
  m_Children: []
  m_Father: {fileID: 33026449}
  m_RootOrder: 0
  m_LocalEulerAnglesHint: {x: 0, y: 0, z: 0}
--- !u!1 &1803485548
GameObject:
  m_ObjectHideFlags: 0
  m_PrefabParentObject: {fileID: 100034, guid: 959d14bf134f54a6e993fe6ca6e063c0, type: 3}
  m_PrefabInternal: {fileID: 1211868613}
  serializedVersion: 5
  m_Component:
  - component: {fileID: 1803485549}
  m_Layer: 0
  m_Name: Bip002 R Foot
  m_TagString: Untagged
  m_Icon: {fileID: 0}
  m_NavMeshLayer: 0
  m_StaticEditorFlags: 0
  m_IsActive: 1
--- !u!4 &1803485549
Transform:
  m_ObjectHideFlags: 0
  m_PrefabParentObject: {fileID: 400034, guid: 959d14bf134f54a6e993fe6ca6e063c0, type: 3}
  m_PrefabInternal: {fileID: 1211868613}
  m_GameObject: {fileID: 1803485548}
  m_LocalRotation: {x: 0.045867775, y: -0.013275983, z: -0.10180175, w: 0.99365807}
  m_LocalPosition: {x: -0.41098925, y: -0.000000007629395, z: 0}
  m_LocalScale: {x: 1, y: 0.99999994, z: 0.99999994}
  m_Children:
  - {fileID: 522297485}
  m_Father: {fileID: 2004355332}
  m_RootOrder: 0
  m_LocalEulerAnglesHint: {x: 0, y: 0, z: 0}
--- !u!1 &1862417046
GameObject:
  m_ObjectHideFlags: 0
  m_PrefabParentObject: {fileID: 100010, guid: 959d14bf134f54a6e993fe6ca6e063c0, type: 3}
  m_PrefabInternal: {fileID: 1211868613}
  serializedVersion: 5
  m_Component:
  - component: {fileID: 1862417047}
  m_Layer: 0
  m_Name: Bip002 L Forearm
  m_TagString: Untagged
  m_Icon: {fileID: 0}
  m_NavMeshLayer: 0
  m_StaticEditorFlags: 0
  m_IsActive: 1
--- !u!4 &1862417047
Transform:
  m_ObjectHideFlags: 0
  m_PrefabParentObject: {fileID: 400010, guid: 959d14bf134f54a6e993fe6ca6e063c0, type: 3}
  m_PrefabInternal: {fileID: 1211868613}
  m_GameObject: {fileID: 1862417046}
  m_LocalRotation: {x: -0.000000030864356, y: 0.000000021855683, z: 0.28733003, w: 0.9578316}
  m_LocalPosition: {x: -0.2430326, y: 0.00000006103516, z: 0}
  m_LocalScale: {x: 1.0000001, y: 1.0000001, z: 1.0000001}
  m_Children:
  - {fileID: 912260237}
  m_Father: {fileID: 1072057495}
  m_RootOrder: 0
  m_LocalEulerAnglesHint: {x: 0, y: 0, z: 0}
--- !u!1 &1938177006
GameObject:
  m_ObjectHideFlags: 0
  m_PrefabParentObject: {fileID: 100016, guid: 959d14bf134f54a6e993fe6ca6e063c0, type: 3}
  m_PrefabInternal: {fileID: 1211868613}
  serializedVersion: 5
  m_Component:
  - component: {fileID: 1938177007}
  m_Layer: 0
  m_Name: Bip002 L Toe0
  m_TagString: Untagged
  m_Icon: {fileID: 0}
  m_NavMeshLayer: 0
  m_StaticEditorFlags: 0
  m_IsActive: 1
--- !u!4 &1938177007
Transform:
  m_ObjectHideFlags: 0
  m_PrefabParentObject: {fileID: 400016, guid: 959d14bf134f54a6e993fe6ca6e063c0, type: 3}
  m_PrefabInternal: {fileID: 1211868613}
  m_GameObject: {fileID: 1938177006}
  m_LocalRotation: {x: -0.000000015454312, y: 0.000000015454312, z: -0.7071068, w: 0.7071068}
  m_LocalPosition: {x: -0.06716837, y: 0.13374838, z: 0}
  m_LocalScale: {x: 1, y: 1, z: 1}
  m_Children:
  - {fileID: 1149305453}
  m_Father: {fileID: 958320606}
  m_RootOrder: 0
  m_LocalEulerAnglesHint: {x: 0, y: 0, z: 0}
--- !u!1 &1955842991
GameObject:
  m_ObjectHideFlags: 0
  m_PrefabParentObject: {fileID: 100114, guid: 959d14bf134f54a6e993fe6ca6e063c0, type: 3}
  m_PrefabInternal: {fileID: 1211868613}
  serializedVersion: 5
  m_Component:
  - component: {fileID: 1955842992}
  m_Layer: 0
  m_Name: BipDummy R Finger42
  m_TagString: Untagged
  m_Icon: {fileID: 0}
  m_NavMeshLayer: 0
  m_StaticEditorFlags: 0
  m_IsActive: 1
--- !u!4 &1955842992
Transform:
  m_ObjectHideFlags: 0
  m_PrefabParentObject: {fileID: 400114, guid: 959d14bf134f54a6e993fe6ca6e063c0, type: 3}
  m_PrefabInternal: {fileID: 1211868613}
  m_GameObject: {fileID: 1955842991}
  m_LocalRotation: {x: 0.00000002317485, y: -0.000000022827779, z: -0.35736334, w: 0.93396544}
  m_LocalPosition: {x: -0.018896058, y: 0, z: -0.00000001525879}
  m_LocalScale: {x: 1.0000001, y: 1, z: 0.99999994}
  m_Children: []
  m_Father: {fileID: 496072814}
  m_RootOrder: 0
  m_LocalEulerAnglesHint: {x: 0, y: 0, z: 0}
--- !u!1 &2004355331
GameObject:
  m_ObjectHideFlags: 0
  m_PrefabParentObject: {fileID: 100028, guid: 959d14bf134f54a6e993fe6ca6e063c0, type: 3}
  m_PrefabInternal: {fileID: 1211868613}
  serializedVersion: 5
  m_Component:
  - component: {fileID: 2004355332}
  m_Layer: 0
  m_Name: Bip002 R Calf
  m_TagString: Untagged
  m_Icon: {fileID: 0}
  m_NavMeshLayer: 0
  m_StaticEditorFlags: 0
  m_IsActive: 1
--- !u!4 &2004355332
Transform:
  m_ObjectHideFlags: 0
  m_PrefabParentObject: {fileID: 400028, guid: 959d14bf134f54a6e993fe6ca6e063c0, type: 3}
  m_PrefabInternal: {fileID: 1211868613}
  m_GameObject: {fileID: 2004355331}
  m_LocalRotation: {x: -2.2306051e-10, y: -0.000000001906969, z: 0.12818292, w: 0.99175054}
  m_LocalPosition: {x: -0.42230672, y: 0, z: 0}
  m_LocalScale: {x: 1, y: 1, z: 0.99999994}
  m_Children:
  - {fileID: 1803485549}
  m_Father: {fileID: 1171382396}
  m_RootOrder: 0
  m_LocalEulerAnglesHint: {x: 0, y: 0, z: 0}
--- !u!1 &2056835167
GameObject:
  m_ObjectHideFlags: 0
  m_PrefabParentObject: {fileID: 100076, guid: 959d14bf134f54a6e993fe6ca6e063c0, type: 3}
  m_PrefabInternal: {fileID: 1211868613}
  serializedVersion: 5
  m_Component:
  - component: {fileID: 2056835168}
  m_Layer: 0
  m_Name: BipDummy L Finger3
  m_TagString: Untagged
  m_Icon: {fileID: 0}
  m_NavMeshLayer: 0
  m_StaticEditorFlags: 0
  m_IsActive: 1
--- !u!4 &2056835168
Transform:
  m_ObjectHideFlags: 0
  m_PrefabParentObject: {fileID: 400076, guid: 959d14bf134f54a6e993fe6ca6e063c0, type: 3}
  m_PrefabInternal: {fileID: 1211868613}
  m_GameObject: {fileID: 2056835167}
  m_LocalRotation: {x: -0.002835928, y: 0.013507943, z: -0.17714134, w: 0.98408866}
  m_LocalPosition: {x: -0.10328601, y: 0.0010223389, z: 0.020135194}
  m_LocalScale: {x: 1, y: 1.0000001, z: 1.0000001}
  m_Children:
  - {fileID: 384873649}
  m_Father: {fileID: 912260237}
  m_RootOrder: 3
  m_LocalEulerAnglesHint: {x: 0, y: 0, z: 0}
--- !u!4 &2068716409
Transform:
  m_ObjectHideFlags: 0
  m_PrefabParentObject: {fileID: 400048, guid: 959d14bf134f54a6e993fe6ca6e063c0, type: 3}
  m_PrefabInternal: {fileID: 1211868613}
  m_GameObject: {fileID: 1301267381}
  m_LocalRotation: {x: -0.39572957, y: 0.43531126, z: 0.033003364, w: 0.80796844}
  m_LocalPosition: {x: -0.17969485, y: 9.536744e-10, z: 0}
  m_LocalScale: {x: 1.0000001, y: 1.0000001, z: 1}
  m_Children:
  - {fileID: 817677811}
  - {fileID: 441461755}
  m_Father: {fileID: 1174195110}
  m_RootOrder: 0
  m_LocalEulerAnglesHint: {x: 0, y: 0, z: 0}
--- !u!1 &2112400637
GameObject:
  m_ObjectHideFlags: 0
  m_PrefabParentObject: {fileID: 0}
  m_PrefabInternal: {fileID: 0}
  serializedVersion: 5
  m_Component:
  - component: {fileID: 2112400638}
  - component: {fileID: 2112400640}
  - component: {fileID: 2112400639}
  - component: {fileID: 2112400641}
  m_Layer: 0
  m_Name: Aim Target
  m_TagString: Untagged
  m_Icon: {fileID: 0}
  m_NavMeshLayer: 0
  m_StaticEditorFlags: 0
  m_IsActive: 1
--- !u!4 &2112400638
Transform:
  m_ObjectHideFlags: 0
  m_PrefabParentObject: {fileID: 0}
  m_PrefabInternal: {fileID: 0}
  m_GameObject: {fileID: 2112400637}
  m_LocalRotation: {x: 0, y: 0, z: -0, w: 1}
  m_LocalPosition: {x: 0.16094112, y: 1.5706415, z: -0.70428365}
  m_LocalScale: {x: 0.1, y: 0.1, z: 0.1}
  m_Children: []
  m_Father: {fileID: 0}
  m_RootOrder: 1
  m_LocalEulerAnglesHint: {x: 0, y: 0, z: 0}
--- !u!23 &2112400639
MeshRenderer:
  m_ObjectHideFlags: 0
  m_PrefabParentObject: {fileID: 0}
  m_PrefabInternal: {fileID: 0}
  m_GameObject: {fileID: 2112400637}
  m_Enabled: 1
  m_CastShadows: 1
  m_ReceiveShadows: 1
  m_DynamicOccludee: 1
  m_MotionVectors: 1
  m_LightProbeUsage: 0
  m_ReflectionProbeUsage: 1
  m_Materials:
  - {fileID: 2100000, guid: aae886dd0d5d59844b4ec40cc2d96918, type: 2}
  m_StaticBatchInfo:
    firstSubMesh: 0
    subMeshCount: 0
  m_StaticBatchRoot: {fileID: 0}
  m_ProbeAnchor: {fileID: 0}
  m_LightProbeVolumeOverride: {fileID: 0}
  m_ScaleInLightmap: 1
  m_PreserveUVs: 0
  m_IgnoreNormalsForChartDetection: 0
  m_ImportantGI: 0
  m_StitchLightmapSeams: 0
  m_SelectedEditorRenderState: 3
  m_MinimumChartSize: 4
  m_AutoUVMaxDistance: 0.5
  m_AutoUVMaxAngle: 89
  m_LightmapParameters: {fileID: 0}
  m_SortingLayerID: 0
  m_SortingLayer: 0
  m_SortingOrder: 0
--- !u!33 &2112400640
MeshFilter:
  m_ObjectHideFlags: 0
  m_PrefabParentObject: {fileID: 0}
  m_PrefabInternal: {fileID: 0}
  m_GameObject: {fileID: 2112400637}
  m_Mesh: {fileID: 10207, guid: 0000000000000000e000000000000000, type: 0}
--- !u!114 &2112400641
MonoBehaviour:
  m_ObjectHideFlags: 0
  m_PrefabParentObject: {fileID: 0}
  m_PrefabInternal: {fileID: 0}
  m_GameObject: {fileID: 2112400637}
  m_Enabled: 1
  m_EditorHideFlags: 0
  m_Script: {fileID: 11500000, guid: 66452eca044e1420e9e9bd2945a6bad7, type: 3}
  m_Name: 
  m_EditorClassIdentifier: 
  aimIK: {fileID: 573142178}
  pin: {fileID: 1746691338}
--- !u!1 &2128935941
GameObject:
  m_ObjectHideFlags: 0
  m_PrefabParentObject: {fileID: 100062, guid: 959d14bf134f54a6e993fe6ca6e063c0, type: 3}
  m_PrefabInternal: {fileID: 1211868613}
  serializedVersion: 5
  m_Component:
  - component: {fileID: 2128935942}
  m_Layer: 0
  m_Name: BipDummy L Finger02
  m_TagString: Untagged
  m_Icon: {fileID: 0}
  m_NavMeshLayer: 0
  m_StaticEditorFlags: 0
  m_IsActive: 1
--- !u!4 &2128935942
Transform:
  m_ObjectHideFlags: 0
  m_PrefabParentObject: {fileID: 400062, guid: 959d14bf134f54a6e993fe6ca6e063c0, type: 3}
  m_PrefabInternal: {fileID: 1211868613}
  m_GameObject: {fileID: 2128935941}
  m_LocalRotation: {x: 0.032045208, y: 0.123279884, z: -0.24952908, w: 0.95995337}
  m_LocalPosition: {x: -0.032908816, y: -0.000000007629395, z: 0.00000003051758}
  m_LocalScale: {x: 0.9999999, y: 0.99999994, z: 1}
  m_Children: []
  m_Father: {fileID: 487172032}
  m_RootOrder: 0
  m_LocalEulerAnglesHint: {x: 0, y: 0, z: 0}
--- !u!1 &2136111827
GameObject:
  m_ObjectHideFlags: 0
  m_PrefabParentObject: {fileID: 100084, guid: 959d14bf134f54a6e993fe6ca6e063c0, type: 3}
  m_PrefabInternal: {fileID: 1211868613}
  serializedVersion: 5
  m_Component:
  - component: {fileID: 2136111828}
  m_Layer: 0
  m_Name: BipDummy L Finger41
  m_TagString: Untagged
  m_Icon: {fileID: 0}
  m_NavMeshLayer: 0
  m_StaticEditorFlags: 0
  m_IsActive: 1
--- !u!4 &2136111828
Transform:
  m_ObjectHideFlags: 0
  m_PrefabParentObject: {fileID: 400084, guid: 959d14bf134f54a6e993fe6ca6e063c0, type: 3}
  m_PrefabInternal: {fileID: 1211868613}
  m_GameObject: {fileID: 2136111827}
  m_LocalRotation: {x: -0.000000027031515, y: 0.0000000021954984, z: -0.35165805,
    w: 0.93612856}
  m_LocalPosition: {x: -0.03212024, y: -0.00000003051758, z: -0.000000045776368}
  m_LocalScale: {x: 0.99999994, y: 0.99999976, z: 1}
  m_Children:
  - {fileID: 1728666917}
  m_Father: {fileID: 280044166}
  m_RootOrder: 0
  m_LocalEulerAnglesHint: {x: 0, y: 0, z: 0}
--- !u!1 &2141839091
GameObject:
  m_ObjectHideFlags: 0
  m_PrefabParentObject: {fileID: 100004, guid: 959d14bf134f54a6e993fe6ca6e063c0, type: 3}
  m_PrefabInternal: {fileID: 1211868613}
  serializedVersion: 5
  m_Component:
  - component: {fileID: 2141839092}
  m_Layer: 0
  m_Name: Bip002 L Clavicle
  m_TagString: Untagged
  m_Icon: {fileID: 0}
  m_NavMeshLayer: 0
  m_StaticEditorFlags: 0
  m_IsActive: 1
--- !u!4 &2141839092
Transform:
  m_ObjectHideFlags: 0
  m_PrefabParentObject: {fileID: 400004, guid: 959d14bf134f54a6e993fe6ca6e063c0, type: 3}
  m_PrefabInternal: {fileID: 1211868613}
  m_GameObject: {fileID: 2141839091}
  m_LocalRotation: {x: -0.69003224, y: -0.10505305, z: 0.7079568, w: -0.10778003}
  m_LocalPosition: {x: -0, y: 0.000108856206, z: 0.028353818}
  m_LocalScale: {x: 1, y: 1, z: 1}
  m_Children:
  - {fileID: 1072057495}
  m_Father: {fileID: 1215540418}
  m_RootOrder: 1
  m_LocalEulerAnglesHint: {x: 0, y: 0, z: 0}
