%YAML 1.1
%TAG !u! tag:unity3d.com,2011:
--- !u!29 &1
OcclusionCullingSettings:
  m_ObjectHideFlags: 0
  serializedVersion: 2
  m_OcclusionBakeSettings:
    smallestOccluder: 5
    smallestHole: 0.25
    backfaceThreshold: 100
  m_SceneGUID: 00000000000000000000000000000000
  m_OcclusionCullingData: {fileID: 0}
--- !u!104 &2
RenderSettings:
  m_ObjectHideFlags: 0
  serializedVersion: 8
  m_Fog: 0
  m_FogColor: {r: 0.5, g: 0.5, b: 0.5, a: 1}
  m_FogMode: 3
  m_FogDensity: 0.01
  m_LinearFogStart: 0
  m_LinearFogEnd: 300
  m_AmbientSkyColor: {r: 0.2, g: 0.2, b: 0.2, a: 1}
  m_AmbientEquatorColor: {r: 0.2, g: 0.2, b: 0.2, a: 1}
  m_AmbientGroundColor: {r: 0.2, g: 0.2, b: 0.2, a: 1}
  m_AmbientIntensity: 1
  m_AmbientMode: 3
  m_SubtractiveShadowColor: {r: 0.42, g: 0.478, b: 0.627, a: 1}
  m_SkyboxMaterial: {fileID: 0}
  m_HaloStrength: 0.5
  m_FlareStrength: 1
  m_FlareFadeSpeed: 3
  m_HaloTexture: {fileID: 0}
  m_SpotCookie: {fileID: 10001, guid: 0000000000000000e000000000000000, type: 0}
  m_DefaultReflectionMode: 0
  m_DefaultReflectionResolution: 128
  m_ReflectionBounces: 1
  m_ReflectionIntensity: 1
  m_CustomReflection: {fileID: 0}
  m_Sun: {fileID: 0}
  m_IndirectSpecularColor: {r: 0, g: 0, b: 0, a: 1}
--- !u!157 &4
LightmapSettings:
  m_ObjectHideFlags: 0
  serializedVersion: 11
  m_GIWorkflowMode: 1
  m_GISettings:
    serializedVersion: 2
    m_BounceScale: 1
    m_IndirectOutputScale: 1
    m_AlbedoBoost: 1
    m_TemporalCoherenceThreshold: 1
    m_EnvironmentLightingMode: 0
    m_EnableBakedLightmaps: 1
    m_EnableRealtimeLightmaps: 0
  m_LightmapEditorSettings:
    serializedVersion: 9
    m_Resolution: 1
    m_BakeResolution: 50
    m_TextureWidth: 1024
    m_TextureHeight: 1024
    m_AO: 0
    m_AOMaxDistance: 1
    m_CompAOExponent: 0
    m_CompAOExponentDirect: 0
    m_Padding: 2
    m_LightmapParameters: {fileID: 0}
    m_LightmapsBakeMode: 1
    m_TextureCompression: 0
    m_FinalGather: 0
    m_FinalGatherFiltering: 1
    m_FinalGatherRayCount: 1024
    m_ReflectionCompression: 2
    m_MixedBakeMode: 1
    m_BakeBackend: 0
    m_PVRSampling: 1
    m_PVRDirectSampleCount: 32
    m_PVRSampleCount: 500
    m_PVRBounces: 2
    m_PVRFilterTypeDirect: 0
    m_PVRFilterTypeIndirect: 0
    m_PVRFilterTypeAO: 0
    m_PVRFilteringMode: 0
    m_PVRCulling: 1
    m_PVRFilteringGaussRadiusDirect: 1
    m_PVRFilteringGaussRadiusIndirect: 5
    m_PVRFilteringGaussRadiusAO: 2
    m_PVRFilteringAtrousPositionSigmaDirect: 0.5
    m_PVRFilteringAtrousPositionSigmaIndirect: 2
    m_PVRFilteringAtrousPositionSigmaAO: 1
    m_ShowResolutionOverlay: 1
  m_LightingDataAsset: {fileID: 0}
  m_UseShadowmask: 0
--- !u!196 &5
NavMeshSettings:
  serializedVersion: 2
  m_ObjectHideFlags: 0
  m_BuildSettings:
    serializedVersion: 2
    agentTypeID: 0
    agentRadius: 0.5
    agentHeight: 2
    agentSlope: 45
    agentClimb: 0.4
    ledgeDropHeight: 0
    maxJumpAcrossDistance: 0
    minRegionArea: 2
    manualCellSize: 0
    cellSize: 0.16666666
    manualTileSize: 0
    tileSize: 256
    accuratePlacement: 0
    debug:
      m_Flags: 0
  m_NavMeshData: {fileID: 0}
--- !u!1 &37290388
GameObject:
  m_ObjectHideFlags: 0
  m_PrefabParentObject: {fileID: 100052, guid: 959d14bf134f54a6e993fe6ca6e063c0, type: 3}
  m_PrefabInternal: {fileID: 672938625}
  serializedVersion: 5
  m_Component:
  - component: {fileID: 409497981}
  m_Layer: 0
  m_Name: Bip002 Spine1
  m_TagString: Untagged
  m_Icon: {fileID: 0}
  m_NavMeshLayer: 0
  m_StaticEditorFlags: 0
  m_IsActive: 1
--- !u!1 &63551719
GameObject:
  m_ObjectHideFlags: 0
  m_PrefabParentObject: {fileID: 100036, guid: 959d14bf134f54a6e993fe6ca6e063c0, type: 3}
  m_PrefabInternal: {fileID: 672938625}
  serializedVersion: 5
  m_Component:
  - component: {fileID: 63551720}
  m_Layer: 0
  m_Name: Bip002 R Forearm
  m_TagString: Untagged
  m_Icon: {fileID: 0}
  m_NavMeshLayer: 0
  m_StaticEditorFlags: 0
  m_IsActive: 1
--- !u!4 &63551720
Transform:
  m_ObjectHideFlags: 0
  m_PrefabParentObject: {fileID: 400036, guid: 959d14bf134f54a6e993fe6ca6e063c0, type: 3}
  m_PrefabInternal: {fileID: 672938625}
  m_GameObject: {fileID: 63551719}
  m_LocalRotation: {x: -0.000000024085356, y: -0.0000000072251183, z: 0.28733006,
    w: 0.9578316}
  m_LocalPosition: {x: -0.24303266, y: 0, z: 0}
  m_LocalScale: {x: 1, y: 1, z: 1}
  m_Children:
  - {fileID: 1200296718}
  m_Father: {fileID: 1869548991}
  m_RootOrder: 0
  m_LocalEulerAnglesHint: {x: 0, y: 0, z: 0}
--- !u!1 &208816791
GameObject:
  m_ObjectHideFlags: 0
  m_PrefabParentObject: {fileID: 100076, guid: 959d14bf134f54a6e993fe6ca6e063c0, type: 3}
  m_PrefabInternal: {fileID: 672938625}
  serializedVersion: 5
  m_Component:
  - component: {fileID: 208816792}
  m_Layer: 0
  m_Name: BipDummy L Finger3
  m_TagString: Untagged
  m_Icon: {fileID: 0}
  m_NavMeshLayer: 0
  m_StaticEditorFlags: 0
  m_IsActive: 1
--- !u!4 &208816792
Transform:
  m_ObjectHideFlags: 0
  m_PrefabParentObject: {fileID: 400076, guid: 959d14bf134f54a6e993fe6ca6e063c0, type: 3}
  m_PrefabInternal: {fileID: 672938625}
  m_GameObject: {fileID: 208816791}
  m_LocalRotation: {x: -0.002835928, y: 0.013507943, z: -0.17714134, w: 0.98408866}
  m_LocalPosition: {x: -0.10328601, y: 0.0010223389, z: 0.020135194}
  m_LocalScale: {x: 1, y: 1.0000001, z: 1.0000001}
  m_Children:
  - {fileID: 786519682}
  m_Father: {fileID: 795970380}
  m_RootOrder: 3
  m_LocalEulerAnglesHint: {x: 0, y: 0, z: 0}
--- !u!1 &228522162
GameObject:
  m_ObjectHideFlags: 0
  m_PrefabParentObject: {fileID: 100050, guid: 959d14bf134f54a6e993fe6ca6e063c0, type: 3}
  m_PrefabInternal: {fileID: 672938625}
  serializedVersion: 5
  m_Component:
  - component: {fileID: 228522163}
  m_Layer: 0
  m_Name: Bip002 Spine
  m_TagString: Untagged
  m_Icon: {fileID: 0}
  m_NavMeshLayer: 0
  m_StaticEditorFlags: 0
  m_IsActive: 1
--- !u!4 &228522163
Transform:
  m_ObjectHideFlags: 0
  m_PrefabParentObject: {fileID: 400050, guid: 959d14bf134f54a6e993fe6ca6e063c0, type: 3}
  m_PrefabInternal: {fileID: 672938625}
  m_GameObject: {fileID: 228522162}
  m_LocalRotation: {x: -0.000002070677, y: 0.000000684224, z: 0.013477894, w: 0.99990916}
  m_LocalPosition: {x: -0.09316022, y: -0.00008378435, z: 0.00000012931065}
  m_LocalScale: {x: 1, y: 1, z: 1}
  m_Children:
  - {fileID: 934476653}
  - {fileID: 1623952070}
  - {fileID: 409497981}
  m_Father: {fileID: 1671589714}
  m_RootOrder: 0
  m_LocalEulerAnglesHint: {x: 0, y: 0, z: 0}
--- !u!1 &232100412
GameObject:
  m_ObjectHideFlags: 0
  m_PrefabParentObject: {fileID: 100096, guid: 959d14bf134f54a6e993fe6ca6e063c0, type: 3}
  m_PrefabInternal: {fileID: 672938625}
  serializedVersion: 5
  m_Component:
  - component: {fileID: 232100413}
  m_Layer: 0
  m_Name: BipDummy R Finger12
  m_TagString: Untagged
  m_Icon: {fileID: 0}
  m_NavMeshLayer: 0
  m_StaticEditorFlags: 0
  m_IsActive: 1
--- !u!4 &232100413
Transform:
  m_ObjectHideFlags: 0
  m_PrefabParentObject: {fileID: 400096, guid: 959d14bf134f54a6e993fe6ca6e063c0, type: 3}
  m_PrefabInternal: {fileID: 672938625}
  m_GameObject: {fileID: 232100412}
  m_LocalRotation: {x: 0.0000000045875606, y: 0.000000021875893, z: -0.20524399, w: 0.97871083}
  m_LocalPosition: {x: -0.01876288, y: -0.000000045776368, z: 0.00000001525879}
  m_LocalScale: {x: 1, y: 0.99999994, z: 0.99999994}
  m_Children: []
  m_Father: {fileID: 255401882}
  m_RootOrder: 0
  m_LocalEulerAnglesHint: {x: 0, y: 0, z: 0}
--- !u!1 &251274339
GameObject:
  m_ObjectHideFlags: 0
  m_PrefabParentObject: {fileID: 0}
  m_PrefabInternal: {fileID: 0}
  serializedVersion: 5
  m_Component:
  - component: {fileID: 251274340}
  m_Layer: 0
  m_Name: Aim Transform
  m_TagString: Untagged
  m_Icon: {fileID: 0}
  m_NavMeshLayer: 0
  m_StaticEditorFlags: 0
  m_IsActive: 1
--- !u!4 &251274340
Transform:
  m_ObjectHideFlags: 0
  m_PrefabParentObject: {fileID: 0}
  m_PrefabInternal: {fileID: 0}
  m_GameObject: {fileID: 251274339}
  m_LocalRotation: {x: 0.6708205, y: -0.0012566651, z: 0.6432012, w: 0.3691756}
  m_LocalPosition: {x: -0.046099357, y: -0.17864881, z: 0.08533224}
  m_LocalScale: {x: 1, y: 1, z: 1}
  m_Children: []
  m_Father: {fileID: 571165036}
  m_RootOrder: 1
  m_LocalEulerAnglesHint: {x: 0, y: 0, z: 0}
--- !u!1 &255401881
GameObject:
  m_ObjectHideFlags: 0
  m_PrefabParentObject: {fileID: 100094, guid: 959d14bf134f54a6e993fe6ca6e063c0, type: 3}
  m_PrefabInternal: {fileID: 672938625}
  serializedVersion: 5
  m_Component:
  - component: {fileID: 255401882}
  m_Layer: 0
  m_Name: BipDummy R Finger11
  m_TagString: Untagged
  m_Icon: {fileID: 0}
  m_NavMeshLayer: 0
  m_StaticEditorFlags: 0
  m_IsActive: 1
--- !u!4 &255401882
Transform:
  m_ObjectHideFlags: 0
  m_PrefabParentObject: {fileID: 400094, guid: 959d14bf134f54a6e993fe6ca6e063c0, type: 3}
  m_PrefabInternal: {fileID: 672938625}
  m_GameObject: {fileID: 255401881}
  m_LocalRotation: {x: 0.000000001861105, y: -7.57366e-11, z: -0.040660772, w: 0.99917305}
  m_LocalPosition: {x: -0.047266603, y: 0.00000001525879, z: -0.00000001525879}
  m_LocalScale: {x: 0.99999994, y: 0.99999994, z: 0.99999994}
  m_Children:
  - {fileID: 232100413}
  m_Father: {fileID: 1765031653}
  m_RootOrder: 0
  m_LocalEulerAnglesHint: {x: 0, y: 0, z: 0}
--- !u!1 &305798504
GameObject:
  m_ObjectHideFlags: 0
  m_PrefabParentObject: {fileID: 100022, guid: 959d14bf134f54a6e993fe6ca6e063c0, type: 3}
  m_PrefabInternal: {fileID: 672938625}
  serializedVersion: 5
  m_Component:
  - component: {fileID: 305798505}
  m_Layer: 0
  m_Name: Bip002 L UpperArm
  m_TagString: Untagged
  m_Icon: {fileID: 0}
  m_NavMeshLayer: 0
  m_StaticEditorFlags: 0
  m_IsActive: 1
--- !u!4 &305798505
Transform:
  m_ObjectHideFlags: 0
  m_PrefabParentObject: {fileID: 400022, guid: 959d14bf134f54a6e993fe6ca6e063c0, type: 3}
  m_PrefabInternal: {fileID: 672938625}
  m_GameObject: {fileID: 305798504}
  m_LocalRotation: {x: 0.39572874, y: -0.43531165, z: 0.033002764, w: 0.80796874}
  m_LocalPosition: {x: -0.17969485, y: 9.536744e-10, z: 0}
  m_LocalScale: {x: 1.0000001, y: 1.0000001, z: 1}
  m_Children:
  - {fileID: 696362764}
  m_Father: {fileID: 1696399738}
  m_RootOrder: 0
  m_LocalEulerAnglesHint: {x: 0, y: 0, z: 0}
--- !u!1 &340743659
GameObject:
  m_ObjectHideFlags: 0
  m_PrefabParentObject: {fileID: 0}
  m_PrefabInternal: {fileID: 0}
  serializedVersion: 5
  m_Component:
  - component: {fileID: 340743660}
  - component: {fileID: 340743661}
  - component: {fileID: 340743663}
  - component: {fileID: 340743664}
  - component: {fileID: 340743662}
  m_Layer: 0
  m_Name: Main Camera
  m_TagString: MainCamera
  m_Icon: {fileID: 0}
  m_NavMeshLayer: 0
  m_StaticEditorFlags: 0
  m_IsActive: 1
--- !u!4 &340743660
Transform:
  m_ObjectHideFlags: 0
  m_PrefabParentObject: {fileID: 0}
  m_PrefabInternal: {fileID: 0}
  m_GameObject: {fileID: 340743659}
  m_LocalRotation: {x: 0.010451215, y: 0.9545902, z: -0.13709058, w: -0.2643001}
  m_LocalPosition: {x: 0.8828898, y: 1.6776807, z: 2.2280314}
  m_LocalScale: {x: 1, y: 1, z: 1}
  m_Children: []
  m_Father: {fileID: 0}
  m_RootOrder: 4
  m_LocalEulerAnglesHint: {x: 0, y: 0, z: 0}
--- !u!20 &340743661
Camera:
  m_ObjectHideFlags: 0
  m_PrefabParentObject: {fileID: 0}
  m_PrefabInternal: {fileID: 0}
  m_GameObject: {fileID: 340743659}
  m_Enabled: 1
  serializedVersion: 2
  m_ClearFlags: 1
  m_BackGroundColor: {r: 0.2835821, g: 0.2835821, b: 0.2835821, a: 0.019607844}
  m_NormalizedViewPortRect:
    serializedVersion: 2
    x: 0
    y: 0
    width: 1
    height: 1
  near clip plane: 0.3
  far clip plane: 1000
  field of view: 60
  orthographic: 0
  orthographic size: 100
  m_Depth: -1
  m_CullingMask:
    serializedVersion: 2
    m_Bits: 4294967295
  m_RenderingPath: -1
  m_TargetTexture: {fileID: 0}
  m_TargetDisplay: 0
  m_TargetEye: 3
  m_HDR: 0
  m_AllowMSAA: 1
  m_AllowDynamicResolution: 0
  m_ForceIntoRT: 0
  m_OcclusionCulling: 1
  m_StereoConvergence: 10
  m_StereoSeparation: 0.022
--- !u!81 &340743662
AudioListener:
  m_ObjectHideFlags: 0
  m_PrefabParentObject: {fileID: 0}
  m_PrefabInternal: {fileID: 0}
  m_GameObject: {fileID: 340743659}
  m_Enabled: 1
--- !u!92 &340743663
Behaviour:
  m_ObjectHideFlags: 0
  m_PrefabParentObject: {fileID: 0}
  m_PrefabInternal: {fileID: 0}
  m_GameObject: {fileID: 340743659}
  m_Enabled: 1
--- !u!124 &340743664
Behaviour:
  m_ObjectHideFlags: 0
  m_PrefabParentObject: {fileID: 0}
  m_PrefabInternal: {fileID: 0}
  m_GameObject: {fileID: 340743659}
  m_Enabled: 1
--- !u!1 &369200127
GameObject:
  m_ObjectHideFlags: 0
  m_PrefabParentObject: {fileID: 100074, guid: 959d14bf134f54a6e993fe6ca6e063c0, type: 3}
  m_PrefabInternal: {fileID: 672938625}
  serializedVersion: 5
  m_Component:
  - component: {fileID: 369200128}
  m_Layer: 0
  m_Name: BipDummy L Finger22
  m_TagString: Untagged
  m_Icon: {fileID: 0}
  m_NavMeshLayer: 0
  m_StaticEditorFlags: 0
  m_IsActive: 1
--- !u!4 &369200128
Transform:
  m_ObjectHideFlags: 0
  m_PrefabParentObject: {fileID: 400074, guid: 959d14bf134f54a6e993fe6ca6e063c0, type: 3}
  m_PrefabInternal: {fileID: 672938625}
  m_GameObject: {fileID: 369200127}
  m_LocalRotation: {x: -8.062054e-10, y: -0.000000037430024, z: -0.120907776, w: 0.99266374}
  m_LocalPosition: {x: -0.02357837, y: 0, z: -0.00000001525879}
  m_LocalScale: {x: 1, y: 1.0000001, z: 1}
  m_Children: []
  m_Father: {fileID: 1082635535}
  m_RootOrder: 0
  m_LocalEulerAnglesHint: {x: 0, y: 0, z: 0}
--- !u!4 &409497981
Transform:
  m_ObjectHideFlags: 0
  m_PrefabParentObject: {fileID: 400052, guid: 959d14bf134f54a6e993fe6ca6e063c0, type: 3}
  m_PrefabInternal: {fileID: 672938625}
  m_GameObject: {fileID: 37290388}
  m_LocalRotation: {x: 4.0745185e-14, y: 0, z: -0, w: 1}
  m_LocalPosition: {x: -0.10531403, y: -0.00008385659, z: -2.3259054e-10}
  m_LocalScale: {x: 1, y: 1, z: 1}
  m_Children:
  - {fileID: 1773624310}
  m_Father: {fileID: 228522163}
  m_RootOrder: 2
  m_LocalEulerAnglesHint: {x: 0, y: 0, z: 0}
--- !u!1 &446204830
GameObject:
  m_ObjectHideFlags: 0
  m_PrefabParentObject: {fileID: 100046, guid: 959d14bf134f54a6e993fe6ca6e063c0, type: 3}
  m_PrefabInternal: {fileID: 672938625}
  serializedVersion: 5
  m_Component:
  - component: {fileID: 446204831}
  m_Layer: 0
  m_Name: Bip002 R Toe02
  m_TagString: Untagged
  m_Icon: {fileID: 0}
  m_NavMeshLayer: 0
  m_StaticEditorFlags: 0
  m_IsActive: 1
--- !u!4 &446204831
Transform:
  m_ObjectHideFlags: 0
  m_PrefabParentObject: {fileID: 400046, guid: 959d14bf134f54a6e993fe6ca6e063c0, type: 3}
  m_PrefabInternal: {fileID: 672938625}
  m_GameObject: {fileID: 446204830}
  m_LocalRotation: {x: 0, y: -1.0418551e-15, z: -0, w: 1}
  m_LocalPosition: {x: -0.012151635, y: 0, z: 0}
  m_LocalScale: {x: 1, y: 1, z: 1}
  m_Children: []
  m_Father: {fileID: 808940951}
  m_RootOrder: 0
  m_LocalEulerAnglesHint: {x: 0, y: 0, z: 0}
--- !u!1 &500742693
GameObject:
  m_ObjectHideFlags: 0
  m_PrefabParentObject: {fileID: 100064, guid: 959d14bf134f54a6e993fe6ca6e063c0, type: 3}
  m_PrefabInternal: {fileID: 672938625}
  serializedVersion: 5
  m_Component:
  - component: {fileID: 500742694}
  m_Layer: 0
  m_Name: BipDummy L Finger1
  m_TagString: Untagged
  m_Icon: {fileID: 0}
  m_NavMeshLayer: 0
  m_StaticEditorFlags: 0
  m_IsActive: 1
--- !u!4 &500742694
Transform:
  m_ObjectHideFlags: 0
  m_PrefabParentObject: {fileID: 400064, guid: 959d14bf134f54a6e993fe6ca6e063c0, type: 3}
  m_PrefabInternal: {fileID: 672938625}
  m_GameObject: {fileID: 500742693}
  m_LocalRotation: {x: -0.00039683317, y: -0.00003227424, z: -0.081061095, w: 0.99670905}
  m_LocalPosition: {x: -0.1003982, y: -0.003286377, z: -0.022277009}
  m_LocalScale: {x: 1, y: 0.99999994, z: 0.99999994}
  m_Children:
  - {fileID: 1619680512}
  m_Father: {fileID: 795970380}
  m_RootOrder: 1
  m_LocalEulerAnglesHint: {x: 0, y: 0, z: 0}
--- !u!1 &538651408
GameObject:
  m_ObjectHideFlags: 0
  m_PrefabParentObject: {fileID: 100056, guid: 959d14bf134f54a6e993fe6ca6e063c0, type: 3}
  m_PrefabInternal: {fileID: 672938625}
  serializedVersion: 5
  m_Component:
  - component: {fileID: 1480834526}
  m_Layer: 0
  m_Name: Bip002 Spine3
  m_TagString: Untagged
  m_Icon: {fileID: 0}
  m_NavMeshLayer: 0
  m_StaticEditorFlags: 0
  m_IsActive: 1
--- !u!1 &543642063
GameObject:
  m_ObjectHideFlags: 0
  m_PrefabParentObject: {fileID: 100082, guid: 959d14bf134f54a6e993fe6ca6e063c0, type: 3}
  m_PrefabInternal: {fileID: 672938625}
  serializedVersion: 5
  m_Component:
  - component: {fileID: 543642064}
  m_Layer: 0
  m_Name: BipDummy L Finger4
  m_TagString: Untagged
  m_Icon: {fileID: 0}
  m_NavMeshLayer: 0
  m_StaticEditorFlags: 0
  m_IsActive: 1
--- !u!4 &543642064
Transform:
  m_ObjectHideFlags: 0
  m_PrefabParentObject: {fileID: 400082, guid: 959d14bf134f54a6e993fe6ca6e063c0, type: 3}
  m_PrefabInternal: {fileID: 672938625}
  m_GameObject: {fileID: 543642063}
  m_LocalRotation: {x: -0.002490904, y: 0.009521965, z: -0.21373138, w: 0.9768429}
  m_LocalPosition: {x: -0.09384656, y: 0.00909961, z: 0.03997948}
  m_LocalScale: {x: 1.0000001, y: 1.0000001, z: 0.9999999}
  m_Children:
  - {fileID: 930265187}
  m_Father: {fileID: 795970380}
  m_RootOrder: 4
  m_LocalEulerAnglesHint: {x: 0, y: 0, z: 0}
--- !u!4 &571165036
Transform:
  m_ObjectHideFlags: 0
  m_PrefabParentObject: {fileID: 400030, guid: 959d14bf134f54a6e993fe6ca6e063c0, type: 3}
  m_PrefabInternal: {fileID: 672938625}
  m_GameObject: {fileID: 1415987884}
  m_LocalRotation: {x: 0.69003195, y: 0.10505109, z: 0.7079571, w: -0.10778195}
  m_LocalPosition: {x: -0, y: 0.0001090088, z: -0.028353818}
  m_LocalScale: {x: 1, y: 1, z: 1}
  m_Children:
  - {fileID: 1869548991}
  - {fileID: 251274340}
  m_Father: {fileID: 1291661721}
  m_RootOrder: 2
  m_LocalEulerAnglesHint: {x: 0, y: 0, z: 0}
--- !u!1001 &672938625
Prefab:
  m_ObjectHideFlags: 0
  serializedVersion: 2
  m_Modification:
    m_TransformParent: {fileID: 0}
    m_Modifications:
    - target: {fileID: 400118, guid: 959d14bf134f54a6e993fe6ca6e063c0, type: 3}
      propertyPath: m_LocalPosition.x
      value: 0
      objectReference: {fileID: 0}
    - target: {fileID: 400118, guid: 959d14bf134f54a6e993fe6ca6e063c0, type: 3}
      propertyPath: m_LocalPosition.y
      value: 0
      objectReference: {fileID: 0}
    - target: {fileID: 400118, guid: 959d14bf134f54a6e993fe6ca6e063c0, type: 3}
      propertyPath: m_LocalPosition.z
      value: 0
      objectReference: {fileID: 0}
    - target: {fileID: 400118, guid: 959d14bf134f54a6e993fe6ca6e063c0, type: 3}
      propertyPath: m_LocalRotation.x
      value: 0
      objectReference: {fileID: 0}
    - target: {fileID: 400118, guid: 959d14bf134f54a6e993fe6ca6e063c0, type: 3}
      propertyPath: m_LocalRotation.y
      value: 0
      objectReference: {fileID: 0}
    - target: {fileID: 400118, guid: 959d14bf134f54a6e993fe6ca6e063c0, type: 3}
      propertyPath: m_LocalRotation.z
      value: 0
      objectReference: {fileID: 0}
    - target: {fileID: 400118, guid: 959d14bf134f54a6e993fe6ca6e063c0, type: 3}
      propertyPath: m_LocalRotation.w
      value: 1
      objectReference: {fileID: 0}
    - target: {fileID: 400118, guid: 959d14bf134f54a6e993fe6ca6e063c0, type: 3}
      propertyPath: m_RootOrder
      value: 7
      objectReference: {fileID: 0}
    - target: {fileID: 9500000, guid: 959d14bf134f54a6e993fe6ca6e063c0, type: 3}
      propertyPath: m_Controller
      value: 
      objectReference: {fileID: 9100000, guid: c6a41433f43f04320a84210d6839f609, type: 2}
    - target: {fileID: 9500000, guid: 959d14bf134f54a6e993fe6ca6e063c0, type: 3}
      propertyPath: m_ApplyRootMotion
      value: 1
      objectReference: {fileID: 0}
    m_RemovedComponents: []
  m_ParentPrefab: {fileID: 100100000, guid: 959d14bf134f54a6e993fe6ca6e063c0, type: 3}
  m_RootGameObject: {fileID: 2080756817}
  m_IsPrefabParent: 0
--- !u!1 &679864997
GameObject:
  m_ObjectHideFlags: 0
  m_PrefabParentObject: {fileID: 0}
  m_PrefabInternal: {fileID: 0}
  serializedVersion: 5
  m_Component:
  - component: {fileID: 679864999}
  - component: {fileID: 679864998}
  m_Layer: 0
  m_Name: READ ME!
  m_TagString: Untagged
  m_Icon: {fileID: 0}
  m_NavMeshLayer: 0
  m_StaticEditorFlags: 0
  m_IsActive: 1
--- !u!114 &679864998
MonoBehaviour:
  m_ObjectHideFlags: 0
  m_PrefabParentObject: {fileID: 0}
  m_PrefabInternal: {fileID: 0}
  m_GameObject: {fileID: 679864997}
  m_Enabled: 1
  m_EditorHideFlags: 0
  m_Script: {fileID: 11500000, guid: 92471cc1733c49042be56cd39b4b6e5e, type: 3}
  m_Name: 
  m_EditorClassIdentifier: 
  text: 'This scene is an extension of the "Aim Swing" demo (take a look at it for
    a simpler example of redirecting animation).


    Here I have added some basic raycasting to find the height of the ground at the
    position in front ot the character and redirect the swing animation based on the
    vertical offset of the raycast hit and the character''s position.


    Take a look at TerrainOffset.cs on the "Dummy" Game Object to see how it was done.


    Right-click on any FinalIK component and select "User Manual" or "Script Reference"
    for more info.'
--- !u!4 &679864999
Transform:
  m_ObjectHideFlags: 0
  m_PrefabParentObject: {fileID: 0}
  m_PrefabInternal: {fileID: 0}
  m_GameObject: {fileID: 679864997}
  m_LocalRotation: {x: 0, y: 0, z: 0, w: 1}
  m_LocalPosition: {x: 0, y: 0, z: 0}
  m_LocalScale: {x: 1, y: 1, z: 1}
  m_Children: []
  m_Father: {fileID: 0}
  m_RootOrder: 0
  m_LocalEulerAnglesHint: {x: 0, y: 0, z: 0}
--- !u!1 &696362763
GameObject:
  m_ObjectHideFlags: 0
  m_PrefabParentObject: {fileID: 100010, guid: 959d14bf134f54a6e993fe6ca6e063c0, type: 3}
  m_PrefabInternal: {fileID: 672938625}
  serializedVersion: 5
  m_Component:
  - component: {fileID: 696362764}
  m_Layer: 0
  m_Name: Bip002 L Forearm
  m_TagString: Untagged
  m_Icon: {fileID: 0}
  m_NavMeshLayer: 0
  m_StaticEditorFlags: 0
  m_IsActive: 1
--- !u!4 &696362764
Transform:
  m_ObjectHideFlags: 0
  m_PrefabParentObject: {fileID: 400010, guid: 959d14bf134f54a6e993fe6ca6e063c0, type: 3}
  m_PrefabInternal: {fileID: 672938625}
  m_GameObject: {fileID: 696362763}
  m_LocalRotation: {x: -0.000000030864356, y: 0.000000021855683, z: 0.28733003, w: 0.9578316}
  m_LocalPosition: {x: -0.2430326, y: 0.00000006103516, z: 0}
  m_LocalScale: {x: 1.0000001, y: 1.0000001, z: 1.0000001}
  m_Children:
  - {fileID: 795970380}
  m_Father: {fileID: 305798505}
  m_RootOrder: 0
  m_LocalEulerAnglesHint: {x: 0, y: 0, z: 0}
--- !u!1 &755032227
GameObject:
  m_ObjectHideFlags: 0
  m_PrefabParentObject: {fileID: 100054, guid: 959d14bf134f54a6e993fe6ca6e063c0, type: 3}
  m_PrefabInternal: {fileID: 672938625}
  serializedVersion: 5
  m_Component:
  - component: {fileID: 1773624310}
  m_Layer: 0
  m_Name: Bip002 Spine2
  m_TagString: Untagged
  m_Icon: {fileID: 0}
  m_NavMeshLayer: 0
  m_StaticEditorFlags: 0
  m_IsActive: 1
--- !u!1 &786519681
GameObject:
  m_ObjectHideFlags: 0
  m_PrefabParentObject: {fileID: 100078, guid: 959d14bf134f54a6e993fe6ca6e063c0, type: 3}
  m_PrefabInternal: {fileID: 672938625}
  serializedVersion: 5
  m_Component:
  - component: {fileID: 786519682}
  m_Layer: 0
  m_Name: BipDummy L Finger31
  m_TagString: Untagged
  m_Icon: {fileID: 0}
  m_NavMeshLayer: 0
  m_StaticEditorFlags: 0
  m_IsActive: 1
--- !u!4 &786519682
Transform:
  m_ObjectHideFlags: 0
  m_PrefabParentObject: {fileID: 400078, guid: 959d14bf134f54a6e993fe6ca6e063c0, type: 3}
  m_PrefabInternal: {fileID: 672938625}
  m_GameObject: {fileID: 786519681}
  m_LocalRotation: {x: 0.0000000026053375, y: -0.0000000045790607, z: -0.26490858,
    w: 0.9642736}
  m_LocalPosition: {x: -0.040773623, y: 0.00000003051758, z: 0.00000001525879}
  m_LocalScale: {x: 1, y: 1.0000001, z: 1.0000001}
  m_Children:
  - {fileID: 1190270030}
  m_Father: {fileID: 208816792}
  m_RootOrder: 0
  m_LocalEulerAnglesHint: {x: 0, y: 0, z: 0}
--- !u!1 &795970379
GameObject:
  m_ObjectHideFlags: 0
  m_PrefabParentObject: {fileID: 100012, guid: 959d14bf134f54a6e993fe6ca6e063c0, type: 3}
  m_PrefabInternal: {fileID: 672938625}
  serializedVersion: 5
  m_Component:
  - component: {fileID: 795970380}
  m_Layer: 0
  m_Name: Bip002 L Hand
  m_TagString: Untagged
  m_Icon: {fileID: 0}
  m_NavMeshLayer: 0
  m_StaticEditorFlags: 0
  m_IsActive: 1
--- !u!4 &795970380
Transform:
  m_ObjectHideFlags: 0
  m_PrefabParentObject: {fileID: 400012, guid: 959d14bf134f54a6e993fe6ca6e063c0, type: 3}
  m_PrefabInternal: {fileID: 672938625}
  m_GameObject: {fileID: 795970379}
  m_LocalRotation: {x: -0.7212754, y: -0.08105717, z: 0.07682164, w: 0.6835861}
  m_LocalPosition: {x: -0.2430326, y: -0.00000003051758, z: 0}
  m_LocalScale: {x: 1, y: 1, z: 1.0000001}
  m_Children:
  - {fileID: 2006982153}
  - {fileID: 500742694}
  - {fileID: 1693890242}
  - {fileID: 208816792}
  - {fileID: 543642064}
  m_Father: {fileID: 696362764}
  m_RootOrder: 0
  m_LocalEulerAnglesHint: {x: 0, y: 0, z: 0}
--- !u!1 &804423695
GameObject:
  m_ObjectHideFlags: 0
  m_PrefabParentObject: {fileID: 100032, guid: 959d14bf134f54a6e993fe6ca6e063c0, type: 3}
  m_PrefabInternal: {fileID: 672938625}
  serializedVersion: 5
  m_Component:
  - component: {fileID: 804423696}
  m_Layer: 0
  m_Name: Bip002 R Finger0
  m_TagString: Untagged
  m_Icon: {fileID: 0}
  m_NavMeshLayer: 0
  m_StaticEditorFlags: 0
  m_IsActive: 1
--- !u!4 &804423696
Transform:
  m_ObjectHideFlags: 0
  m_PrefabParentObject: {fileID: 400032, guid: 959d14bf134f54a6e993fe6ca6e063c0, type: 3}
  m_PrefabInternal: {fileID: 672938625}
  m_GameObject: {fileID: 804423695}
  m_LocalRotation: {x: -0.4061612, y: 0.2668805, z: 0.03686745, w: 0.8731831}
  m_LocalPosition: {x: -0.04263898, y: 0.010434327, z: 0.0281187}
  m_LocalScale: {x: 1.0000001, y: 1, z: 0.9999999}
  m_Children:
  - {fileID: 1760593760}
  m_Father: {fileID: 1200296718}
  m_RootOrder: 0
  m_LocalEulerAnglesHint: {x: 0, y: 0, z: 0}
--- !u!1 &808940950
GameObject:
  m_ObjectHideFlags: 0
  m_PrefabParentObject: {fileID: 100044, guid: 959d14bf134f54a6e993fe6ca6e063c0, type: 3}
  m_PrefabInternal: {fileID: 672938625}
  serializedVersion: 5
  m_Component:
  - component: {fileID: 808940951}
  m_Layer: 0
  m_Name: Bip002 R Toe01
  m_TagString: Untagged
  m_Icon: {fileID: 0}
  m_NavMeshLayer: 0
  m_StaticEditorFlags: 0
  m_IsActive: 1
--- !u!4 &808940951
Transform:
  m_ObjectHideFlags: 0
  m_PrefabParentObject: {fileID: 400044, guid: 959d14bf134f54a6e993fe6ca6e063c0, type: 3}
  m_PrefabInternal: {fileID: 672938625}
  m_GameObject: {fileID: 808940950}
  m_LocalRotation: {x: 0, y: -1.0418551e-15, z: -0, w: 1}
  m_LocalPosition: {x: -0.012151627, y: 0, z: 0}
  m_LocalScale: {x: 1, y: 1, z: 1}
  m_Children:
  - {fileID: 446204831}
  m_Father: {fileID: 1172920252}
  m_RootOrder: 0
  m_LocalEulerAnglesHint: {x: 0, y: 0, z: 0}
--- !u!1 &848450171
GameObject:
  m_ObjectHideFlags: 0
  m_PrefabParentObject: {fileID: 100098, guid: 959d14bf134f54a6e993fe6ca6e063c0, type: 3}
  m_PrefabInternal: {fileID: 672938625}
  serializedVersion: 5
  m_Component:
  - component: {fileID: 848450172}
  m_Layer: 0
  m_Name: BipDummy R Finger2
  m_TagString: Untagged
  m_Icon: {fileID: 0}
  m_NavMeshLayer: 0
  m_StaticEditorFlags: 0
  m_IsActive: 1
--- !u!4 &848450172
Transform:
  m_ObjectHideFlags: 0
  m_PrefabParentObject: {fileID: 400098, guid: 959d14bf134f54a6e993fe6ca6e063c0, type: 3}
  m_PrefabInternal: {fileID: 672938625}
  m_GameObject: {fileID: 848450171}
  m_LocalRotation: {x: 0.0046662716, y: -0.023126798, z: -0.2611372, w: 0.9650134}
  m_LocalPosition: {x: -0.10838886, y: -0.005205994, z: 0.00035925294}
  m_LocalScale: {x: 1.0000001, y: 1.0000001, z: 1.0000001}
  m_Children:
  - {fileID: 1215677394}
  m_Father: {fileID: 1200296718}
  m_RootOrder: 2
  m_LocalEulerAnglesHint: {x: 0, y: 0, z: 0}
--- !u!1 &893481136
GameObject:
  m_ObjectHideFlags: 0
  m_PrefabParentObject: {fileID: 100034, guid: 959d14bf134f54a6e993fe6ca6e063c0, type: 3}
  m_PrefabInternal: {fileID: 672938625}
  serializedVersion: 5
  m_Component:
  - component: {fileID: 893481137}
  m_Layer: 0
  m_Name: Bip002 R Foot
  m_TagString: Untagged
  m_Icon: {fileID: 0}
  m_NavMeshLayer: 0
  m_StaticEditorFlags: 0
  m_IsActive: 1
--- !u!4 &893481137
Transform:
  m_ObjectHideFlags: 0
  m_PrefabParentObject: {fileID: 400034, guid: 959d14bf134f54a6e993fe6ca6e063c0, type: 3}
  m_PrefabInternal: {fileID: 672938625}
  m_GameObject: {fileID: 893481136}
  m_LocalRotation: {x: 0.045867775, y: -0.013275983, z: -0.10180175, w: 0.99365807}
  m_LocalPosition: {x: -0.41098925, y: -0.000000007629395, z: 0}
  m_LocalScale: {x: 1, y: 0.99999994, z: 0.99999994}
  m_Children:
  - {fileID: 1172920252}
  m_Father: {fileID: 1801181694}
  m_RootOrder: 0
  m_LocalEulerAnglesHint: {x: 0, y: 0, z: 0}
--- !u!1 &897057197
GameObject:
  m_ObjectHideFlags: 0
  m_PrefabParentObject: {fileID: 100002, guid: 959d14bf134f54a6e993fe6ca6e063c0, type: 3}
  m_PrefabInternal: {fileID: 672938625}
  serializedVersion: 5
  m_Component:
  - component: {fileID: 897057198}
  m_Layer: 0
  m_Name: Bip002 L Calf
  m_TagString: Untagged
  m_Icon: {fileID: 0}
  m_NavMeshLayer: 0
  m_StaticEditorFlags: 0
  m_IsActive: 1
--- !u!4 &897057198
Transform:
  m_ObjectHideFlags: 0
  m_PrefabParentObject: {fileID: 400002, guid: 959d14bf134f54a6e993fe6ca6e063c0, type: 3}
  m_PrefabInternal: {fileID: 672938625}
  m_GameObject: {fileID: 897057197}
  m_LocalRotation: {x: -3.5029177e-10, y: 8.9379376e-10, z: 0.12818542, w: 0.99175024}
  m_LocalPosition: {x: -0.42230678, y: 0, z: 0}
  m_LocalScale: {x: 1.0000001, y: 1.0000001, z: 1}
  m_Children:
  - {fileID: 1491793990}
  m_Father: {fileID: 934476653}
  m_RootOrder: 0
  m_LocalEulerAnglesHint: {x: 0, y: 0, z: 0}
--- !u!1 &930265186
GameObject:
  m_ObjectHideFlags: 0
  m_PrefabParentObject: {fileID: 100084, guid: 959d14bf134f54a6e993fe6ca6e063c0, type: 3}
  m_PrefabInternal: {fileID: 672938625}
  serializedVersion: 5
  m_Component:
  - component: {fileID: 930265187}
  m_Layer: 0
  m_Name: BipDummy L Finger41
  m_TagString: Untagged
  m_Icon: {fileID: 0}
  m_NavMeshLayer: 0
  m_StaticEditorFlags: 0
  m_IsActive: 1
--- !u!4 &930265187
Transform:
  m_ObjectHideFlags: 0
  m_PrefabParentObject: {fileID: 400084, guid: 959d14bf134f54a6e993fe6ca6e063c0, type: 3}
  m_PrefabInternal: {fileID: 672938625}
  m_GameObject: {fileID: 930265186}
  m_LocalRotation: {x: -0.000000027031515, y: 0.0000000021954984, z: -0.35165805,
    w: 0.93612856}
  m_LocalPosition: {x: -0.03212024, y: -0.00000003051758, z: -0.000000045776368}
  m_LocalScale: {x: 0.99999994, y: 0.99999976, z: 1}
  m_Children:
  - {fileID: 2033330468}
  m_Father: {fileID: 543642064}
  m_RootOrder: 0
  m_LocalEulerAnglesHint: {x: 0, y: 0, z: 0}
--- !u!1 &934476652
GameObject:
  m_ObjectHideFlags: 0
  m_PrefabParentObject: {fileID: 100014, guid: 959d14bf134f54a6e993fe6ca6e063c0, type: 3}
  m_PrefabInternal: {fileID: 672938625}
  serializedVersion: 5
  m_Component:
  - component: {fileID: 934476653}
  m_Layer: 0
  m_Name: Bip002 L Thigh
  m_TagString: Untagged
  m_Icon: {fileID: 0}
  m_NavMeshLayer: 0
  m_StaticEditorFlags: 0
  m_IsActive: 1
--- !u!4 &934476653
Transform:
  m_ObjectHideFlags: 0
  m_PrefabParentObject: {fileID: 400014, guid: 959d14bf134f54a6e993fe6ca6e063c0, type: 3}
  m_PrefabInternal: {fileID: 672938625}
  m_GameObject: {fileID: 934476652}
  m_LocalRotation: {x: -0.012555973, y: 0.9998845, z: 0.0005191883, w: 0.008549745}
  m_LocalPosition: {x: 0.09312867, y: -0.0024274522, z: 0.096502244}
  m_LocalScale: {x: 1, y: 1, z: 1.0000001}
  m_Children:
  - {fileID: 897057198}
  m_Father: {fileID: 228522163}
  m_RootOrder: 0
  m_LocalEulerAnglesHint: {x: 0, y: 0, z: 0}
--- !u!1 &979693113
GameObject:
  m_ObjectHideFlags: 0
  m_PrefabParentObject: {fileID: 100114, guid: 959d14bf134f54a6e993fe6ca6e063c0, type: 3}
  m_PrefabInternal: {fileID: 672938625}
  serializedVersion: 5
  m_Component:
  - component: {fileID: 979693114}
  m_Layer: 0
  m_Name: BipDummy R Finger42
  m_TagString: Untagged
  m_Icon: {fileID: 0}
  m_NavMeshLayer: 0
  m_StaticEditorFlags: 0
  m_IsActive: 1
--- !u!4 &979693114
Transform:
  m_ObjectHideFlags: 0
  m_PrefabParentObject: {fileID: 400114, guid: 959d14bf134f54a6e993fe6ca6e063c0, type: 3}
  m_PrefabInternal: {fileID: 672938625}
  m_GameObject: {fileID: 979693113}
  m_LocalRotation: {x: 0.00000002317485, y: -0.000000022827779, z: -0.35736334, w: 0.93396544}
  m_LocalPosition: {x: -0.018896058, y: 0, z: -0.00000001525879}
  m_LocalScale: {x: 1.0000001, y: 1, z: 0.99999994}
  m_Children: []
  m_Father: {fileID: 1978628872}
  m_RootOrder: 0
  m_LocalEulerAnglesHint: {x: 0, y: 0, z: 0}
--- !u!1 &1082635534
GameObject:
  m_ObjectHideFlags: 0
  m_PrefabParentObject: {fileID: 100072, guid: 959d14bf134f54a6e993fe6ca6e063c0, type: 3}
  m_PrefabInternal: {fileID: 672938625}
  serializedVersion: 5
  m_Component:
  - component: {fileID: 1082635535}
  m_Layer: 0
  m_Name: BipDummy L Finger21
  m_TagString: Untagged
  m_Icon: {fileID: 0}
  m_NavMeshLayer: 0
  m_StaticEditorFlags: 0
  m_IsActive: 1
--- !u!4 &1082635535
Transform:
  m_ObjectHideFlags: 0
  m_PrefabParentObject: {fileID: 400072, guid: 959d14bf134f54a6e993fe6ca6e063c0, type: 3}
  m_PrefabInternal: {fileID: 672938625}
  m_GameObject: {fileID: 1082635534}
  m_LocalRotation: {x: 0.000000026105285, y: 0.000000005454415, z: -0.22450191, w: 0.97447366}
  m_LocalPosition: {x: -0.044976626, y: 0, z: 0}
  m_LocalScale: {x: 1, y: 1, z: 1.0000001}
  m_Children:
  - {fileID: 369200128}
  m_Father: {fileID: 1693890242}
  m_RootOrder: 0
  m_LocalEulerAnglesHint: {x: 0, y: 0, z: 0}
--- !u!1 &1146503092
GameObject:
  m_ObjectHideFlags: 0
  m_PrefabParentObject: {fileID: 100058, guid: 959d14bf134f54a6e993fe6ca6e063c0, type: 3}
  m_PrefabInternal: {fileID: 672938625}
  serializedVersion: 5
  m_Component:
  - component: {fileID: 1146503093}
  m_Layer: 0
  m_Name: BipDummy
  m_TagString: Untagged
  m_Icon: {fileID: 0}
  m_NavMeshLayer: 0
  m_StaticEditorFlags: 0
  m_IsActive: 1
--- !u!4 &1146503093
Transform:
  m_ObjectHideFlags: 0
  m_PrefabParentObject: {fileID: 400058, guid: 959d14bf134f54a6e993fe6ca6e063c0, type: 3}
  m_PrefabInternal: {fileID: 672938625}
  m_GameObject: {fileID: 1146503092}
  m_LocalRotation: {x: -0.50000054, y: 0.49999946, z: 0.49999946, w: 0.50000054}
  m_LocalPosition: {x: -1.4901162e-10, y: 0.89560544, z: -0.0034221578}
  m_LocalScale: {x: 1, y: 1, z: 1}
  m_Children:
  - {fileID: 1671589714}
  m_Father: {fileID: 2080756818}
  m_RootOrder: 0
  m_LocalEulerAnglesHint: {x: 0, y: 0, z: 0}
--- !u!1 &1172920251
GameObject:
  m_ObjectHideFlags: 0
  m_PrefabParentObject: {fileID: 100042, guid: 959d14bf134f54a6e993fe6ca6e063c0, type: 3}
  m_PrefabInternal: {fileID: 672938625}
  serializedVersion: 5
  m_Component:
  - component: {fileID: 1172920252}
  m_Layer: 0
  m_Name: Bip002 R Toe0
  m_TagString: Untagged
  m_Icon: {fileID: 0}
  m_NavMeshLayer: 0
  m_StaticEditorFlags: 0
  m_IsActive: 1
--- !u!4 &1172920252
Transform:
  m_ObjectHideFlags: 0
  m_PrefabParentObject: {fileID: 400042, guid: 959d14bf134f54a6e993fe6ca6e063c0, type: 3}
  m_PrefabInternal: {fileID: 672938625}
  m_GameObject: {fileID: 1172920251}
  m_LocalRotation: {x: -0.000000015454312, y: 0.000000015454312, z: -0.7071068, w: 0.7071068}
  m_LocalPosition: {x: -0.06716837, y: 0.13374838, z: 0}
  m_LocalScale: {x: 1, y: 1, z: 1}
  m_Children:
  - {fileID: 808940951}
  m_Father: {fileID: 893481137}
  m_RootOrder: 0
  m_LocalEulerAnglesHint: {x: 0, y: 0, z: 0}
--- !u!1 &1174396908
GameObject:
  m_ObjectHideFlags: 0
  m_PrefabParentObject: {fileID: 100060, guid: 959d14bf134f54a6e993fe6ca6e063c0, type: 3}
  m_PrefabInternal: {fileID: 672938625}
  serializedVersion: 5
  m_Component:
  - component: {fileID: 1174396909}
  m_Layer: 0
  m_Name: BipDummy L Finger01
  m_TagString: Untagged
  m_Icon: {fileID: 0}
  m_NavMeshLayer: 0
  m_StaticEditorFlags: 0
  m_IsActive: 1
--- !u!4 &1174396909
Transform:
  m_ObjectHideFlags: 0
  m_PrefabParentObject: {fileID: 400060, guid: 959d14bf134f54a6e993fe6ca6e063c0, type: 3}
  m_PrefabInternal: {fileID: 672938625}
  m_GameObject: {fileID: 1174396908}
  m_LocalRotation: {x: 0, y: 0, z: -0.24637195, w: 0.9691754}
  m_LocalPosition: {x: -0.028966127, y: 0, z: -0.00000003051758}
  m_LocalScale: {x: 1.0000001, y: 1.0000001, z: 1}
  m_Children:
  - {fileID: 1279870946}
  m_Father: {fileID: 2006982153}
  m_RootOrder: 0
  m_LocalEulerAnglesHint: {x: 0, y: 0, z: 0}
--- !u!1 &1175840066
GameObject:
  m_ObjectHideFlags: 0
  m_PrefabParentObject: {fileID: 100000, guid: 959d14bf134f54a6e993fe6ca6e063c0, type: 3}
  m_PrefabInternal: {fileID: 672938625}
  serializedVersion: 5
  m_Component:
  - component: {fileID: 1175840067}
  m_Layer: 0
  m_Name: Bip002 Head
  m_TagString: Untagged
  m_Icon: {fileID: 0}
  m_NavMeshLayer: 0
  m_StaticEditorFlags: 0
  m_IsActive: 1
--- !u!4 &1175840067
Transform:
  m_ObjectHideFlags: 0
  m_PrefabParentObject: {fileID: 400000, guid: 959d14bf134f54a6e993fe6ca6e063c0, type: 3}
  m_PrefabInternal: {fileID: 672938625}
  m_GameObject: {fileID: 1175840066}
  m_LocalRotation: {x: 4.7719963e-11, y: -0.00000040002516, z: 0.14414449, w: 0.98955667}
  m_LocalPosition: {x: -0.1367727, y: 0, z: 1.1641533e-13}
  m_LocalScale: {x: 1.0000001, y: 1.0000001, z: 1}
  m_Children: []
  m_Father: {fileID: 1291661721}
  m_RootOrder: 0
  m_LocalEulerAnglesHint: {x: 0, y: 0, z: 0}
--- !u!1 &1178531802
GameObject:
  m_ObjectHideFlags: 0
  m_PrefabParentObject: {fileID: 0}
  m_PrefabInternal: {fileID: 0}
  serializedVersion: 5
  m_Component:
  - component: {fileID: 1178531803}
  - component: {fileID: 1178531804}
  m_Layer: 0
  m_Name: Directional light
  m_TagString: Untagged
  m_Icon: {fileID: 0}
  m_NavMeshLayer: 0
  m_StaticEditorFlags: 0
  m_IsActive: 1
--- !u!4 &1178531803
Transform:
  m_ObjectHideFlags: 0
  m_PrefabParentObject: {fileID: 0}
  m_PrefabInternal: {fileID: 0}
  m_GameObject: {fileID: 1178531802}
  m_LocalRotation: {x: 0.8722197, y: -0.22294034, z: -0.12568198, w: 0.41681477}
  m_LocalPosition: {x: -0.022630244, y: 3.5827851, z: 0.086004406}
  m_LocalScale: {x: 1, y: 1, z: 1}
  m_Children: []
  m_Father: {fileID: 0}
  m_RootOrder: 2
  m_LocalEulerAnglesHint: {x: 0, y: 0, z: 0}
--- !u!108 &1178531804
Light:
  m_ObjectHideFlags: 0
  m_PrefabParentObject: {fileID: 0}
  m_PrefabInternal: {fileID: 0}
  m_GameObject: {fileID: 1178531802}
  m_Enabled: 1
  serializedVersion: 8
  m_Type: 1
  m_Color: {r: 1, g: 1, b: 1, a: 1}
  m_Intensity: 1
  m_Range: 10
  m_SpotAngle: 30
  m_CookieSize: 10
  m_Shadows:
    m_Type: 2
    m_Resolution: -1
    m_CustomResolution: -1
    m_Strength: 0.796
    m_Bias: 0.044
    m_NormalBias: 0.4
    m_NearPlane: 0.2
  m_Cookie: {fileID: 0}
  m_DrawHalo: 0
  m_Flare: {fileID: 0}
  m_RenderMode: 0
  m_CullingMask:
    serializedVersion: 2
    m_Bits: 4294967295
  m_Lightmapping: 1
  m_AreaSize: {x: 1, y: 1}
  m_BounceIntensity: 1
  m_ColorTemperature: 6570
  m_UseColorTemperature: 0
  m_ShadowRadius: 0
  m_ShadowAngle: 0
--- !u!1 &1190270029
GameObject:
  m_ObjectHideFlags: 0
  m_PrefabParentObject: {fileID: 100080, guid: 959d14bf134f54a6e993fe6ca6e063c0, type: 3}
  m_PrefabInternal: {fileID: 672938625}
  serializedVersion: 5
  m_Component:
  - component: {fileID: 1190270030}
  m_Layer: 0
  m_Name: BipDummy L Finger32
  m_TagString: Untagged
  m_Icon: {fileID: 0}
  m_NavMeshLayer: 0
  m_StaticEditorFlags: 0
  m_IsActive: 1
--- !u!4 &1190270030
Transform:
  m_ObjectHideFlags: 0
  m_PrefabParentObject: {fileID: 400080, guid: 959d14bf134f54a6e993fe6ca6e063c0, type: 3}
  m_PrefabInternal: {fileID: 672938625}
  m_GameObject: {fileID: 1190270029}
  m_LocalRotation: {x: -0.000000023906223, y: -0.000000025557926, z: -0.30713028,
    w: 0.9516675}
  m_LocalPosition: {x: -0.02278595, y: -0.00000001525879, z: 0}
  m_LocalScale: {x: 0.9999999, y: 0.99999994, z: 0.99999994}
  m_Children: []
  m_Father: {fileID: 786519682}
  m_RootOrder: 0
  m_LocalEulerAnglesHint: {x: 0, y: 0, z: 0}
--- !u!4 &1200296718
Transform:
  m_ObjectHideFlags: 0
  m_PrefabParentObject: {fileID: 400038, guid: 959d14bf134f54a6e993fe6ca6e063c0, type: 3}
  m_PrefabInternal: {fileID: 672938625}
  m_GameObject: {fileID: 1744392203}
  m_LocalRotation: {x: 0.72127545, y: 0.08105711, z: 0.07682161, w: 0.68358606}
  m_LocalPosition: {x: -0.2430326, y: 0.00000003051758, z: -0.00000006103516}
  m_LocalScale: {x: 0.99999994, y: 1, z: 0.99999994}
  m_Children:
  - {fileID: 804423696}
  - {fileID: 1765031653}
  - {fileID: 848450172}
  - {fileID: 1883895356}
  - {fileID: 2070720712}
  - {fileID: 1326096876}
  m_Father: {fileID: 63551720}
  m_RootOrder: 0
  m_LocalEulerAnglesHint: {x: 0, y: 0, z: 0}
--- !u!1 &1215677393
GameObject:
  m_ObjectHideFlags: 0
  m_PrefabParentObject: {fileID: 100100, guid: 959d14bf134f54a6e993fe6ca6e063c0, type: 3}
  m_PrefabInternal: {fileID: 672938625}
  serializedVersion: 5
  m_Component:
  - component: {fileID: 1215677394}
  m_Layer: 0
  m_Name: BipDummy R Finger21
  m_TagString: Untagged
  m_Icon: {fileID: 0}
  m_NavMeshLayer: 0
  m_StaticEditorFlags: 0
  m_IsActive: 1
--- !u!4 &1215677394
Transform:
  m_ObjectHideFlags: 0
  m_PrefabParentObject: {fileID: 400100, guid: 959d14bf134f54a6e993fe6ca6e063c0, type: 3}
  m_PrefabInternal: {fileID: 672938625}
  m_GameObject: {fileID: 1215677393}
  m_LocalRotation: {x: 0.000000035312798, y: 0.0000000014167345, z: -0.2779434, w: 0.96059746}
  m_LocalPosition: {x: -0.044976626, y: -0.00000001525879, z: 0}
  m_LocalScale: {x: 1, y: 1, z: 1}
  m_Children:
  - {fileID: 1857915518}
  m_Father: {fileID: 848450172}
  m_RootOrder: 0
  m_LocalEulerAnglesHint: {x: 0, y: 0, z: 0}
--- !u!1 &1226160179
GameObject:
  m_ObjectHideFlags: 0
  m_PrefabParentObject: {fileID: 100090, guid: 959d14bf134f54a6e993fe6ca6e063c0, type: 3}
  m_PrefabInternal: {fileID: 672938625}
  serializedVersion: 5
  m_Component:
  - component: {fileID: 1226160180}
  m_Layer: 0
  m_Name: BipDummy R Finger02
  m_TagString: Untagged
  m_Icon: {fileID: 0}
  m_NavMeshLayer: 0
  m_StaticEditorFlags: 0
  m_IsActive: 1
--- !u!4 &1226160180
Transform:
  m_ObjectHideFlags: 0
  m_PrefabParentObject: {fileID: 400090, guid: 959d14bf134f54a6e993fe6ca6e063c0, type: 3}
  m_PrefabInternal: {fileID: 672938625}
  m_GameObject: {fileID: 1226160179}
  m_LocalRotation: {x: -0.0051727896, y: -0.14755645, z: -0.23301202, w: 0.9612002}
  m_LocalPosition: {x: -0.032908753, y: -0.000000007629395, z: -0.00000003051758}
  m_LocalScale: {x: 1.0000001, y: 1.0000001, z: 1.0000001}
  m_Children: []
  m_Father: {fileID: 1760593760}
  m_RootOrder: 0
  m_LocalEulerAnglesHint: {x: 0, y: 0, z: 0}
--- !u!1 &1279870945
GameObject:
  m_ObjectHideFlags: 0
  m_PrefabParentObject: {fileID: 100062, guid: 959d14bf134f54a6e993fe6ca6e063c0, type: 3}
  m_PrefabInternal: {fileID: 672938625}
  serializedVersion: 5
  m_Component:
  - component: {fileID: 1279870946}
  m_Layer: 0
  m_Name: BipDummy L Finger02
  m_TagString: Untagged
  m_Icon: {fileID: 0}
  m_NavMeshLayer: 0
  m_StaticEditorFlags: 0
  m_IsActive: 1
--- !u!4 &1279870946
Transform:
  m_ObjectHideFlags: 0
  m_PrefabParentObject: {fileID: 400062, guid: 959d14bf134f54a6e993fe6ca6e063c0, type: 3}
  m_PrefabInternal: {fileID: 672938625}
  m_GameObject: {fileID: 1279870945}
  m_LocalRotation: {x: 0.032045208, y: 0.123279884, z: -0.24952908, w: 0.95995337}
  m_LocalPosition: {x: -0.032908816, y: -0.000000007629395, z: 0.00000003051758}
  m_LocalScale: {x: 0.9999999, y: 0.99999994, z: 1}
  m_Children: []
  m_Father: {fileID: 1174396909}
  m_RootOrder: 0
  m_LocalEulerAnglesHint: {x: 0, y: 0, z: 0}
--- !u!4 &1291661721
Transform:
  m_ObjectHideFlags: 0
  m_PrefabParentObject: {fileID: 400024, guid: 959d14bf134f54a6e993fe6ca6e063c0, type: 3}
  m_PrefabInternal: {fileID: 672938625}
  m_GameObject: {fileID: 1653128052}
  m_LocalRotation: {x: 4.448862e-14, y: 0.0000004163574, z: -0.15011443, w: 0.9886686}
  m_LocalPosition: {x: -0.10534644, y: -0.00010401631, z: -2.884772e-10}
  m_LocalScale: {x: 1.0000001, y: 1.0000001, z: 1}
  m_Children:
  - {fileID: 1175840067}
  - {fileID: 1696399738}
  - {fileID: 571165036}
  m_Father: {fileID: 1480834526}
  m_RootOrder: 0
  m_LocalEulerAnglesHint: {x: 0, y: 0, z: 0}
--- !u!1 &1326096875
GameObject:
  m_ObjectHideFlags: 0
  m_PrefabParentObject: {fileID: 0}
  m_PrefabInternal: {fileID: 0}
  serializedVersion: 5
  m_Component:
  - component: {fileID: 1326096876}
  - component: {fileID: 1326096879}
  - component: {fileID: 1326096877}
  m_Layer: 0
  m_Name: Prop
  m_TagString: Untagged
  m_Icon: {fileID: 0}
  m_NavMeshLayer: 0
  m_StaticEditorFlags: 0
  m_IsActive: 1
--- !u!4 &1326096876
Transform:
  m_ObjectHideFlags: 0
  m_PrefabParentObject: {fileID: 0}
  m_PrefabInternal: {fileID: 0}
  m_GameObject: {fileID: 1326096875}
  m_LocalRotation: {x: 0.1777969, y: 0.000000059604645, z: -0.0000000037252903, w: 0.9840672}
  m_LocalPosition: {x: -0.105998725, y: -0.08122723, z: 0.35171276}
  m_LocalScale: {x: 0.068461396, y: 0.0684614, z: 0.8940683}
  m_Children: []
  m_Father: {fileID: 1200296718}
  m_RootOrder: 5
  m_LocalEulerAnglesHint: {x: 0, y: 0, z: 0}
--- !u!23 &1326096877
MeshRenderer:
  m_ObjectHideFlags: 0
  m_PrefabParentObject: {fileID: 0}
  m_PrefabInternal: {fileID: 0}
  m_GameObject: {fileID: 1326096875}
  m_Enabled: 1
  m_CastShadows: 1
  m_ReceiveShadows: 1
  m_DynamicOccludee: 1
  m_MotionVectors: 1
  m_LightProbeUsage: 0
  m_ReflectionProbeUsage: 1
  m_Materials:
  - {fileID: 2100000, guid: aec38ac1f2b4b994f9fe780ff5de7217, type: 2}
  m_StaticBatchInfo:
    firstSubMesh: 0
    subMeshCount: 0
  m_StaticBatchRoot: {fileID: 0}
  m_ProbeAnchor: {fileID: 0}
  m_LightProbeVolumeOverride: {fileID: 0}
  m_ScaleInLightmap: 1
  m_PreserveUVs: 0
  m_IgnoreNormalsForChartDetection: 0
  m_ImportantGI: 0
  m_StitchLightmapSeams: 0
  m_SelectedEditorRenderState: 3
  m_MinimumChartSize: 4
  m_AutoUVMaxDistance: 0.5
  m_AutoUVMaxAngle: 89
  m_LightmapParameters: {fileID: 0}
  m_SortingLayerID: 0
  m_SortingLayer: 0
  m_SortingOrder: 0
--- !u!33 &1326096879
MeshFilter:
  m_ObjectHideFlags: 0
  m_PrefabParentObject: {fileID: 0}
  m_PrefabInternal: {fileID: 0}
  m_GameObject: {fileID: 1326096875}
  m_Mesh: {fileID: 10202, guid: 0000000000000000e000000000000000, type: 0}
--- !u!1 &1341233260
GameObject:
  m_ObjectHideFlags: 0
  m_PrefabParentObject: {fileID: 0}
  m_PrefabInternal: {fileID: 0}
  serializedVersion: 5
  m_Component:
  - component: {fileID: 1341233263}
  - component: {fileID: 1341233262}
  - component: {fileID: 1341233261}
  m_Layer: 0
  m_Name: Terrain
  m_TagString: Untagged
  m_Icon: {fileID: 0}
  m_NavMeshLayer: 0
  m_StaticEditorFlags: 4294967295
  m_IsActive: 1
--- !u!154 &1341233261
TerrainCollider:
  m_ObjectHideFlags: 0
  m_PrefabParentObject: {fileID: 0}
  m_PrefabInternal: {fileID: 0}
  m_GameObject: {fileID: 1341233260}
  m_Material: {fileID: 0}
  m_Enabled: 1
  m_TerrainData: {fileID: 15600000, guid: 0f409df061a234bde89a52ecd7e8463e, type: 2}
  m_EnableTreeColliders: 1
--- !u!218 &1341233262
Terrain:
  m_ObjectHideFlags: 0
  m_PrefabParentObject: {fileID: 0}
  m_PrefabInternal: {fileID: 0}
  m_GameObject: {fileID: 1341233260}
  m_Enabled: 1
  serializedVersion: 3
  m_TerrainData: {fileID: 15600000, guid: 0f409df061a234bde89a52ecd7e8463e, type: 2}
  m_TreeDistance: 2000
  m_TreeBillboardDistance: 50
  m_TreeCrossFadeLength: 5
  m_TreeMaximumFullLODCount: 50
  m_DetailObjectDistance: 80
  m_DetailObjectDensity: 1
  m_HeightmapPixelError: 5
  m_SplatMapDistance: 1000
  m_HeightmapMaximumLOD: 0
  m_CastShadows: 1
  m_DrawHeightmap: 1
  m_DrawTreesAndFoliage: 1
  m_ReflectionProbeUsage: 1
  m_MaterialType: 1
  m_LegacySpecular:
    serializedVersion: 2
    rgba: 4286545791
  m_LegacyShininess: 0.078125
  m_MaterialTemplate: {fileID: 0}
  m_BakeLightProbesForTrees: 1
  m_ScaleInLightmap: 1
  m_LightmapParameters: {fileID: 15203, guid: 0000000000000000f000000000000000, type: 0}
--- !u!4 &1341233263
Transform:
  m_ObjectHideFlags: 0
  m_PrefabParentObject: {fileID: 0}
  m_PrefabInternal: {fileID: 0}
  m_GameObject: {fileID: 1341233260}
  m_LocalRotation: {x: 0, y: 0, z: 0, w: 1}
  m_LocalPosition: {x: -26.68892, y: 0, z: -22.984604}
  m_LocalScale: {x: 1, y: 1, z: 1}
  m_Children: []
  m_Father: {fileID: 0}
  m_RootOrder: 5
  m_LocalEulerAnglesHint: {x: 0, y: 0, z: 0}
--- !u!1 &1365931082
GameObject:
  m_ObjectHideFlags: 0
  m_PrefabParentObject: {fileID: 100018, guid: 959d14bf134f54a6e993fe6ca6e063c0, type: 3}
  m_PrefabInternal: {fileID: 672938625}
  serializedVersion: 5
  m_Component:
  - component: {fileID: 1365931083}
  m_Layer: 0
  m_Name: Bip002 L Toe01
  m_TagString: Untagged
  m_Icon: {fileID: 0}
  m_NavMeshLayer: 0
  m_StaticEditorFlags: 0
  m_IsActive: 1
--- !u!4 &1365931083
Transform:
  m_ObjectHideFlags: 0
  m_PrefabParentObject: {fileID: 400018, guid: 959d14bf134f54a6e993fe6ca6e063c0, type: 3}
  m_PrefabInternal: {fileID: 672938625}
  m_GameObject: {fileID: 1365931082}
  m_LocalRotation: {x: 0, y: -9.407548e-16, z: -0, w: 1}
  m_LocalPosition: {x: -0.012151627, y: 0, z: 0}
  m_LocalScale: {x: 1, y: 1, z: 1}
  m_Children:
  - {fileID: 1863343593}
  m_Father: {fileID: 1682693036}
  m_RootOrder: 0
  m_LocalEulerAnglesHint: {x: 0, y: 0, z: 0}
--- !u!1 &1415987884
GameObject:
  m_ObjectHideFlags: 0
  m_PrefabParentObject: {fileID: 100030, guid: 959d14bf134f54a6e993fe6ca6e063c0, type: 3}
  m_PrefabInternal: {fileID: 672938625}
  serializedVersion: 5
  m_Component:
  - component: {fileID: 571165036}
  m_Layer: 0
  m_Name: Bip002 R Clavicle
  m_TagString: Untagged
  m_Icon: {fileID: 0}
  m_NavMeshLayer: 0
  m_StaticEditorFlags: 0
  m_IsActive: 1
--- !u!4 &1480834526
Transform:
  m_ObjectHideFlags: 0
  m_PrefabParentObject: {fileID: 400056, guid: 959d14bf134f54a6e993fe6ca6e063c0, type: 3}
  m_PrefabInternal: {fileID: 672938625}
  m_GameObject: {fileID: 538651408}
  m_LocalRotation: {x: -1.1736887e-13, y: 0.000000010320554, z: -0.0037209955, w: 0.9999931}
  m_LocalPosition: {x: -0.10531482, y: -0.00008385468, z: -2.3258327e-10}
  m_LocalScale: {x: 1, y: 1, z: 1}
  m_Children:
  - {fileID: 1291661721}
  m_Father: {fileID: 1773624310}
  m_RootOrder: 0
  m_LocalEulerAnglesHint: {x: 0, y: 0, z: 0}
--- !u!1 &1491793989
GameObject:
  m_ObjectHideFlags: 0
  m_PrefabParentObject: {fileID: 100008, guid: 959d14bf134f54a6e993fe6ca6e063c0, type: 3}
  m_PrefabInternal: {fileID: 672938625}
  serializedVersion: 5
  m_Component:
  - component: {fileID: 1491793990}
  m_Layer: 0
  m_Name: Bip002 L Foot
  m_TagString: Untagged
  m_Icon: {fileID: 0}
  m_NavMeshLayer: 0
  m_StaticEditorFlags: 0
  m_IsActive: 1
--- !u!4 &1491793990
Transform:
  m_ObjectHideFlags: 0
  m_PrefabParentObject: {fileID: 400008, guid: 959d14bf134f54a6e993fe6ca6e063c0, type: 3}
  m_PrefabInternal: {fileID: 672938625}
  m_GameObject: {fileID: 1491793989}
  m_LocalRotation: {x: -0.04586778, y: 0.013275927, z: -0.101802245, w: 0.993658}
  m_LocalPosition: {x: -0.41098914, y: -0.000000007629395, z: 0}
  m_LocalScale: {x: 1, y: 0.99999994, z: 0.99999994}
  m_Children:
  - {fileID: 1682693036}
  m_Father: {fileID: 897057198}
  m_RootOrder: 0
  m_LocalEulerAnglesHint: {x: 0, y: 0, z: 0}
--- !u!1 &1594160520
GameObject:
  m_ObjectHideFlags: 0
  m_PrefabParentObject: {fileID: 0}
  m_PrefabInternal: {fileID: 0}
  serializedVersion: 5
  m_Component:
  - component: {fileID: 1594160523}
  - component: {fileID: 1594160522}
  - component: {fileID: 1594160521}
  m_Layer: 0
  m_Name: Instructions
  m_TagString: Untagged
  m_Icon: {fileID: 0}
  m_NavMeshLayer: 0
  m_StaticEditorFlags: 0
  m_IsActive: 1
--- !u!102 &1594160521
TextMesh:
  serializedVersion: 3
  m_ObjectHideFlags: 0
  m_PrefabParentObject: {fileID: 0}
  m_PrefabInternal: {fileID: 0}
  m_GameObject: {fileID: 1594160520}
  m_Text: Move the Dummy around on the terrain and see how he changes the swing height
    based on terrain and obstacles
  m_OffsetZ: 0
  m_CharacterSize: 1
  m_LineSpacing: 1
  m_Anchor: 0
  m_Alignment: 0
  m_TabSize: 4
  m_FontSize: 0
  m_FontStyle: 0
  m_RichText: 1
  m_Font: {fileID: 10102, guid: 0000000000000000e000000000000000, type: 0}
  m_Color:
    serializedVersion: 2
    rgba: 4294967295
--- !u!23 &1594160522
MeshRenderer:
  m_ObjectHideFlags: 0
  m_PrefabParentObject: {fileID: 0}
  m_PrefabInternal: {fileID: 0}
  m_GameObject: {fileID: 1594160520}
  m_Enabled: 1
  m_CastShadows: 1
  m_ReceiveShadows: 1
  m_DynamicOccludee: 1
  m_MotionVectors: 1
  m_LightProbeUsage: 0
  m_ReflectionProbeUsage: 1
  m_Materials:
  - {fileID: 10100, guid: 0000000000000000e000000000000000, type: 0}
  m_StaticBatchInfo:
    firstSubMesh: 0
    subMeshCount: 0
  m_StaticBatchRoot: {fileID: 0}
  m_ProbeAnchor: {fileID: 0}
  m_LightProbeVolumeOverride: {fileID: 0}
  m_ScaleInLightmap: 1
  m_PreserveUVs: 0
  m_IgnoreNormalsForChartDetection: 0
  m_ImportantGI: 0
  m_StitchLightmapSeams: 0
  m_SelectedEditorRenderState: 3
  m_MinimumChartSize: 4
  m_AutoUVMaxDistance: 0.5
  m_AutoUVMaxAngle: 89
  m_LightmapParameters: {fileID: 0}
  m_SortingLayerID: 0
  m_SortingLayer: 0
  m_SortingOrder: 0
--- !u!4 &1594160523
Transform:
  m_ObjectHideFlags: 0
  m_PrefabParentObject: {fileID: 0}
  m_PrefabInternal: {fileID: 0}
  m_GameObject: {fileID: 1594160520}
  m_LocalRotation: {x: 0, y: 1, z: 0, w: -0.00000004371139}
  m_LocalPosition: {x: 5.366288, y: 3.2584636, z: 0.47563}
  m_LocalScale: {x: 0.16100906, y: 0.16100906, z: 0.16100906}
  m_Children: []
  m_Father: {fileID: 0}
  m_RootOrder: 3
  m_LocalEulerAnglesHint: {x: 0, y: 0, z: 0}
--- !u!1 &1619680511
GameObject:
  m_ObjectHideFlags: 0
  m_PrefabParentObject: {fileID: 100066, guid: 959d14bf134f54a6e993fe6ca6e063c0, type: 3}
  m_PrefabInternal: {fileID: 672938625}
  serializedVersion: 5
  m_Component:
  - component: {fileID: 1619680512}
  m_Layer: 0
  m_Name: BipDummy L Finger11
  m_TagString: Untagged
  m_Icon: {fileID: 0}
  m_NavMeshLayer: 0
  m_StaticEditorFlags: 0
  m_IsActive: 1
--- !u!4 &1619680512
Transform:
  m_ObjectHideFlags: 0
  m_PrefabParentObject: {fileID: 400066, guid: 959d14bf134f54a6e993fe6ca6e063c0, type: 3}
  m_PrefabInternal: {fileID: 672938625}
  m_GameObject: {fileID: 1619680511}
  m_LocalRotation: {x: -0.00000004303571, y: 0.000000014207038, z: -0.15310442, w: 0.98821}
  m_LocalPosition: {x: -0.047266666, y: 0, z: 0.00000003051758}
  m_LocalScale: {x: 1.0000001, y: 1.0000001, z: 1}
  m_Children:
  - {fileID: 2051960379}
  m_Father: {fileID: 500742694}
  m_RootOrder: 0
  m_LocalEulerAnglesHint: {x: 0, y: 0, z: 0}
--- !u!1 &1623952069
GameObject:
  m_ObjectHideFlags: 0
  m_PrefabParentObject: {fileID: 100040, guid: 959d14bf134f54a6e993fe6ca6e063c0, type: 3}
  m_PrefabInternal: {fileID: 672938625}
  serializedVersion: 5
  m_Component:
  - component: {fileID: 1623952070}
  m_Layer: 0
  m_Name: Bip002 R Thigh
  m_TagString: Untagged
  m_Icon: {fileID: 0}
  m_NavMeshLayer: 0
  m_StaticEditorFlags: 0
  m_IsActive: 1
--- !u!4 &1623952070
Transform:
  m_ObjectHideFlags: 0
  m_PrefabParentObject: {fileID: 400040, guid: 959d14bf134f54a6e993fe6ca6e063c0, type: 3}
  m_PrefabInternal: {fileID: 672938625}
  m_GameObject: {fileID: 1623952069}
  m_LocalRotation: {x: -0.012553991, y: 0.99988455, z: -0.0005164296, w: -0.008549793}
  m_LocalPosition: {x: 0.09312867, y: -0.0024269181, z: -0.096502244}
  m_LocalScale: {x: 0.99999994, y: 1.0000001, z: 1.0000001}
  m_Children:
  - {fileID: 1801181694}
  m_Father: {fileID: 228522163}
  m_RootOrder: 1
  m_LocalEulerAnglesHint: {x: 0, y: 0, z: 0}
--- !u!1 &1650383231
GameObject:
  m_ObjectHideFlags: 0
  m_PrefabParentObject: {fileID: 0}
  m_PrefabInternal: {fileID: 0}
  serializedVersion: 5
  m_Component:
  - component: {fileID: 1650383235}
  - component: {fileID: 1650383234}
  - component: {fileID: 1650383233}
  - component: {fileID: 1650383232}
  m_Layer: 0
  m_Name: Cube
  m_TagString: Untagged
  m_Icon: {fileID: 0}
  m_NavMeshLayer: 0
  m_StaticEditorFlags: 0
  m_IsActive: 1
--- !u!23 &1650383232
MeshRenderer:
  m_ObjectHideFlags: 0
  m_PrefabParentObject: {fileID: 0}
  m_PrefabInternal: {fileID: 0}
  m_GameObject: {fileID: 1650383231}
  m_Enabled: 1
  m_CastShadows: 1
  m_ReceiveShadows: 1
  m_DynamicOccludee: 1
  m_MotionVectors: 1
  m_LightProbeUsage: 0
  m_ReflectionProbeUsage: 1
  m_Materials:
  - {fileID: 2100000, guid: 7e451a94e6eaac34db05cedecc3e0202, type: 2}
  m_StaticBatchInfo:
    firstSubMesh: 0
    subMeshCount: 0
  m_StaticBatchRoot: {fileID: 0}
  m_ProbeAnchor: {fileID: 0}
  m_LightProbeVolumeOverride: {fileID: 0}
  m_ScaleInLightmap: 1
  m_PreserveUVs: 0
  m_IgnoreNormalsForChartDetection: 0
  m_ImportantGI: 0
  m_StitchLightmapSeams: 0
  m_SelectedEditorRenderState: 3
  m_MinimumChartSize: 4
  m_AutoUVMaxDistance: 0.5
  m_AutoUVMaxAngle: 89
  m_LightmapParameters: {fileID: 0}
  m_SortingLayerID: 0
  m_SortingLayer: 0
  m_SortingOrder: 0
--- !u!65 &1650383233
BoxCollider:
  m_ObjectHideFlags: 0
  m_PrefabParentObject: {fileID: 0}
  m_PrefabInternal: {fileID: 0}
  m_GameObject: {fileID: 1650383231}
  m_Material: {fileID: 0}
  m_IsTrigger: 0
  m_Enabled: 1
  serializedVersion: 2
  m_Size: {x: 1, y: 1, z: 1}
  m_Center: {x: 0, y: 0, z: 0}
--- !u!33 &1650383234
MeshFilter:
  m_ObjectHideFlags: 0
  m_PrefabParentObject: {fileID: 0}
  m_PrefabInternal: {fileID: 0}
  m_GameObject: {fileID: 1650383231}
  m_Mesh: {fileID: 10202, guid: 0000000000000000e000000000000000, type: 0}
--- !u!4 &1650383235
Transform:
  m_ObjectHideFlags: 0
  m_PrefabParentObject: {fileID: 0}
  m_PrefabInternal: {fileID: 0}
  m_GameObject: {fileID: 1650383231}
  m_LocalRotation: {x: 0, y: 0, z: 0, w: 1}
  m_LocalPosition: {x: -2.9204502, y: 0.7598812, z: 3.05731}
  m_LocalScale: {x: 1.5007443, y: 1.5007443, z: 1.5007443}
  m_Children: []
  m_Father: {fileID: 0}
  m_RootOrder: 1
  m_LocalEulerAnglesHint: {x: 0, y: 0, z: 0}
--- !u!1 &1653128052
GameObject:
  m_ObjectHideFlags: 0
  m_PrefabParentObject: {fileID: 100024, guid: 959d14bf134f54a6e993fe6ca6e063c0, type: 3}
  m_PrefabInternal: {fileID: 672938625}
  serializedVersion: 5
  m_Component:
  - component: {fileID: 1291661721}
  m_Layer: 0
  m_Name: Bip002 Neck
  m_TagString: Untagged
  m_Icon: {fileID: 0}
  m_NavMeshLayer: 0
  m_StaticEditorFlags: 0
  m_IsActive: 1
--- !u!1 &1668854465
GameObject:
  m_ObjectHideFlags: 0
  m_PrefabParentObject: {fileID: 100108, guid: 959d14bf134f54a6e993fe6ca6e063c0, type: 3}
  m_PrefabInternal: {fileID: 672938625}
  serializedVersion: 5
  m_Component:
  - component: {fileID: 1668854466}
  m_Layer: 0
  m_Name: BipDummy R Finger32
  m_TagString: Untagged
  m_Icon: {fileID: 0}
  m_NavMeshLayer: 0
  m_StaticEditorFlags: 0
  m_IsActive: 1
--- !u!4 &1668854466
Transform:
  m_ObjectHideFlags: 0
  m_PrefabParentObject: {fileID: 400108, guid: 959d14bf134f54a6e993fe6ca6e063c0, type: 3}
  m_PrefabInternal: {fileID: 672938625}
  m_GameObject: {fileID: 1668854465}
  m_LocalRotation: {x: 0.000000014849564, y: -0.0000000022370685, z: -0.27046826,
    w: 0.9627289}
  m_LocalPosition: {x: -0.02278583, y: 0, z: -0.00000001525879}
  m_LocalScale: {x: 1, y: 1, z: 1}
  m_Children: []
  m_Father: {fileID: 2121309618}
  m_RootOrder: 0
  m_LocalEulerAnglesHint: {x: 0, y: 0, z: 0}
--- !u!1 &1671589713
GameObject:
  m_ObjectHideFlags: 0
  m_PrefabParentObject: {fileID: 100026, guid: 959d14bf134f54a6e993fe6ca6e063c0, type: 3}
  m_PrefabInternal: {fileID: 672938625}
  serializedVersion: 5
  m_Component:
  - component: {fileID: 1671589714}
  m_Layer: 0
  m_Name: Bip002 Pelvis
  m_TagString: Untagged
  m_Icon: {fileID: 0}
  m_NavMeshLayer: 0
  m_StaticEditorFlags: 0
  m_IsActive: 1
--- !u!4 &1671589714
Transform:
  m_ObjectHideFlags: 0
  m_PrefabParentObject: {fileID: 400026, guid: 959d14bf134f54a6e993fe6ca6e063c0, type: 3}
  m_PrefabInternal: {fileID: 672938625}
  m_GameObject: {fileID: 1671589713}
  m_LocalRotation: {x: -0.49999964, y: 0.50000036, z: 0.49999964, w: 0.50000036}
  m_LocalPosition: {x: -0, y: 0, z: 0}
  m_LocalScale: {x: 1, y: 1, z: 1}
  m_Children:
  - {fileID: 228522163}
  m_Father: {fileID: 1146503093}
  m_RootOrder: 0
  m_LocalEulerAnglesHint: {x: 0, y: 0, z: 0}
--- !u!1 &1682693035
GameObject:
  m_ObjectHideFlags: 0
  m_PrefabParentObject: {fileID: 100016, guid: 959d14bf134f54a6e993fe6ca6e063c0, type: 3}
  m_PrefabInternal: {fileID: 672938625}
  serializedVersion: 5
  m_Component:
  - component: {fileID: 1682693036}
  m_Layer: 0
  m_Name: Bip002 L Toe0
  m_TagString: Untagged
  m_Icon: {fileID: 0}
  m_NavMeshLayer: 0
  m_StaticEditorFlags: 0
  m_IsActive: 1
--- !u!4 &1682693036
Transform:
  m_ObjectHideFlags: 0
  m_PrefabParentObject: {fileID: 400016, guid: 959d14bf134f54a6e993fe6ca6e063c0, type: 3}
  m_PrefabInternal: {fileID: 672938625}
  m_GameObject: {fileID: 1682693035}
  m_LocalRotation: {x: -0.000000015454312, y: 0.000000015454312, z: -0.7071068, w: 0.7071068}
  m_LocalPosition: {x: -0.06716837, y: 0.13374838, z: 0}
  m_LocalScale: {x: 1, y: 1, z: 1}
  m_Children:
  - {fileID: 1365931083}
  m_Father: {fileID: 1491793990}
  m_RootOrder: 0
  m_LocalEulerAnglesHint: {x: 0, y: 0, z: 0}
--- !u!1 &1693890241
GameObject:
  m_ObjectHideFlags: 0
  m_PrefabParentObject: {fileID: 100070, guid: 959d14bf134f54a6e993fe6ca6e063c0, type: 3}
  m_PrefabInternal: {fileID: 672938625}
  serializedVersion: 5
  m_Component:
  - component: {fileID: 1693890242}
  m_Layer: 0
  m_Name: BipDummy L Finger2
  m_TagString: Untagged
  m_Icon: {fileID: 0}
  m_NavMeshLayer: 0
  m_StaticEditorFlags: 0
  m_IsActive: 1
--- !u!4 &1693890242
Transform:
  m_ObjectHideFlags: 0
  m_PrefabParentObject: {fileID: 400070, guid: 959d14bf134f54a6e993fe6ca6e063c0, type: 3}
  m_PrefabInternal: {fileID: 672938625}
  m_GameObject: {fileID: 1693890241}
  m_LocalRotation: {x: -0.001918456, y: 0.023514757, z: -0.14601779, w: 0.9890006}
  m_LocalPosition: {x: -0.10838886, y: -0.005206055, z: -0.00035929872}
  m_LocalScale: {x: 1, y: 1.0000001, z: 1.0000001}
  m_Children:
  - {fileID: 1082635535}
  m_Father: {fileID: 795970380}
  m_RootOrder: 2
  m_LocalEulerAnglesHint: {x: 0, y: 0, z: 0}
--- !u!1 &1696399737
GameObject:
  m_ObjectHideFlags: 0
  m_PrefabParentObject: {fileID: 100004, guid: 959d14bf134f54a6e993fe6ca6e063c0, type: 3}
  m_PrefabInternal: {fileID: 672938625}
  serializedVersion: 5
  m_Component:
  - component: {fileID: 1696399738}
  m_Layer: 0
  m_Name: Bip002 L Clavicle
  m_TagString: Untagged
  m_Icon: {fileID: 0}
  m_NavMeshLayer: 0
  m_StaticEditorFlags: 0
  m_IsActive: 1
--- !u!4 &1696399738
Transform:
  m_ObjectHideFlags: 0
  m_PrefabParentObject: {fileID: 400004, guid: 959d14bf134f54a6e993fe6ca6e063c0, type: 3}
  m_PrefabInternal: {fileID: 672938625}
  m_GameObject: {fileID: 1696399737}
  m_LocalRotation: {x: -0.69003224, y: -0.10505305, z: 0.7079568, w: -0.10778003}
  m_LocalPosition: {x: -0, y: 0.000108856206, z: 0.028353818}
  m_LocalScale: {x: 1, y: 1, z: 1}
  m_Children:
  - {fileID: 305798505}
  m_Father: {fileID: 1291661721}
  m_RootOrder: 1
  m_LocalEulerAnglesHint: {x: 0, y: 0, z: 0}
--- !u!1 &1744392203
GameObject:
  m_ObjectHideFlags: 0
  m_PrefabParentObject: {fileID: 100038, guid: 959d14bf134f54a6e993fe6ca6e063c0, type: 3}
  m_PrefabInternal: {fileID: 672938625}
  serializedVersion: 5
  m_Component:
  - component: {fileID: 1200296718}
  m_Layer: 0
  m_Name: Bip002 R Hand
  m_TagString: Untagged
  m_Icon: {fileID: 0}
  m_NavMeshLayer: 0
  m_StaticEditorFlags: 0
  m_IsActive: 1
--- !u!1 &1760593759
GameObject:
  m_ObjectHideFlags: 0
  m_PrefabParentObject: {fileID: 100088, guid: 959d14bf134f54a6e993fe6ca6e063c0, type: 3}
  m_PrefabInternal: {fileID: 672938625}
  serializedVersion: 5
  m_Component:
  - component: {fileID: 1760593760}
  m_Layer: 0
  m_Name: BipDummy R Finger01
  m_TagString: Untagged
  m_Icon: {fileID: 0}
  m_NavMeshLayer: 0
  m_StaticEditorFlags: 0
  m_IsActive: 1
--- !u!4 &1760593760
Transform:
  m_ObjectHideFlags: 0
  m_PrefabParentObject: {fileID: 400088, guid: 959d14bf134f54a6e993fe6ca6e063c0, type: 3}
  m_PrefabInternal: {fileID: 672938625}
  m_GameObject: {fileID: 1760593759}
  m_LocalRotation: {x: -0.0000000054362164, y: 0.0000000012932826, z: -0.23144192,
    w: 0.9728487}
  m_LocalPosition: {x: -0.028966065, y: 0.00000003051758, z: 0}
  m_LocalScale: {x: 1, y: 0.99999994, z: 1}
  m_Children:
  - {fileID: 1226160180}
  m_Father: {fileID: 804423696}
  m_RootOrder: 0
  m_LocalEulerAnglesHint: {x: 0, y: 0, z: 0}
--- !u!1 &1765031652
GameObject:
  m_ObjectHideFlags: 0
  m_PrefabParentObject: {fileID: 100092, guid: 959d14bf134f54a6e993fe6ca6e063c0, type: 3}
  m_PrefabInternal: {fileID: 672938625}
  serializedVersion: 5
  m_Component:
  - component: {fileID: 1765031653}
  m_Layer: 0
  m_Name: BipDummy R Finger1
  m_TagString: Untagged
  m_Icon: {fileID: 0}
  m_NavMeshLayer: 0
  m_StaticEditorFlags: 0
  m_IsActive: 1
--- !u!4 &1765031653
Transform:
  m_ObjectHideFlags: 0
  m_PrefabParentObject: {fileID: 400092, guid: 959d14bf134f54a6e993fe6ca6e063c0, type: 3}
  m_PrefabInternal: {fileID: 672938625}
  m_GameObject: {fileID: 1765031652}
  m_LocalRotation: {x: 0.00039008295, y: 0.000079733094, z: -0.20024739, w: 0.97974527}
  m_LocalPosition: {x: -0.1003982, y: -0.003286316, z: 0.022276932}
  m_LocalScale: {x: 1, y: 1, z: 1.0000001}
  m_Children:
  - {fileID: 255401882}
  m_Father: {fileID: 1200296718}
  m_RootOrder: 1
  m_LocalEulerAnglesHint: {x: 0, y: 0, z: 0}
--- !u!4 &1773624310
Transform:
  m_ObjectHideFlags: 0
  m_PrefabParentObject: {fileID: 400054, guid: 959d14bf134f54a6e993fe6ca6e063c0, type: 3}
  m_PrefabInternal: {fileID: 672938625}
  m_GameObject: {fileID: 755032227}
  m_LocalRotation: {x: -8.096637e-15, y: 0.000000010320556, z: -0.0037209948, w: 0.9999931}
  m_LocalPosition: {x: -0.10531482, y: -0.00008385659, z: -2.3258327e-10}
  m_LocalScale: {x: 1, y: 1, z: 1}
  m_Children:
  - {fileID: 1480834526}
  m_Father: {fileID: 409497981}
  m_RootOrder: 0
  m_LocalEulerAnglesHint: {x: 0, y: 0, z: 0}
--- !u!1 &1801181693
GameObject:
  m_ObjectHideFlags: 0
  m_PrefabParentObject: {fileID: 100028, guid: 959d14bf134f54a6e993fe6ca6e063c0, type: 3}
  m_PrefabInternal: {fileID: 672938625}
  serializedVersion: 5
  m_Component:
  - component: {fileID: 1801181694}
  m_Layer: 0
  m_Name: Bip002 R Calf
  m_TagString: Untagged
  m_Icon: {fileID: 0}
  m_NavMeshLayer: 0
  m_StaticEditorFlags: 0
  m_IsActive: 1
--- !u!4 &1801181694
Transform:
  m_ObjectHideFlags: 0
  m_PrefabParentObject: {fileID: 400028, guid: 959d14bf134f54a6e993fe6ca6e063c0, type: 3}
  m_PrefabInternal: {fileID: 672938625}
  m_GameObject: {fileID: 1801181693}
  m_LocalRotation: {x: -2.2306051e-10, y: -0.000000001906969, z: 0.12818292, w: 0.99175054}
  m_LocalPosition: {x: -0.42230672, y: 0, z: 0}
  m_LocalScale: {x: 1, y: 1, z: 0.99999994}
  m_Children:
  - {fileID: 893481137}
  m_Father: {fileID: 1623952070}
  m_RootOrder: 0
  m_LocalEulerAnglesHint: {x: 0, y: 0, z: 0}
--- !u!1 &1857915517
GameObject:
  m_ObjectHideFlags: 0
  m_PrefabParentObject: {fileID: 100102, guid: 959d14bf134f54a6e993fe6ca6e063c0, type: 3}
  m_PrefabInternal: {fileID: 672938625}
  serializedVersion: 5
  m_Component:
  - component: {fileID: 1857915518}
  m_Layer: 0
  m_Name: BipDummy R Finger22
  m_TagString: Untagged
  m_Icon: {fileID: 0}
  m_NavMeshLayer: 0
  m_StaticEditorFlags: 0
  m_IsActive: 1
--- !u!4 &1857915518
Transform:
  m_ObjectHideFlags: 0
  m_PrefabParentObject: {fileID: 400102, guid: 959d14bf134f54a6e993fe6ca6e063c0, type: 3}
  m_PrefabInternal: {fileID: 672938625}
  m_GameObject: {fileID: 1857915517}
  m_LocalRotation: {x: -3.7377737e-10, y: -0.0000000037064913, z: -0.100335106, w: 0.99495375}
  m_LocalPosition: {x: -0.023578431, y: 0, z: 0.00000003051758}
  m_LocalScale: {x: 1, y: 1.0000001, z: 1.0000001}
  m_Children: []
  m_Father: {fileID: 1215677394}
  m_RootOrder: 0
  m_LocalEulerAnglesHint: {x: 0, y: 0, z: 0}
--- !u!1 &1863343592
GameObject:
  m_ObjectHideFlags: 0
  m_PrefabParentObject: {fileID: 100020, guid: 959d14bf134f54a6e993fe6ca6e063c0, type: 3}
  m_PrefabInternal: {fileID: 672938625}
  serializedVersion: 5
  m_Component:
  - component: {fileID: 1863343593}
  m_Layer: 0
  m_Name: Bip002 L Toe02
  m_TagString: Untagged
  m_Icon: {fileID: 0}
  m_NavMeshLayer: 0
  m_StaticEditorFlags: 0
  m_IsActive: 1
--- !u!4 &1863343593
Transform:
  m_ObjectHideFlags: 0
  m_PrefabParentObject: {fileID: 400020, guid: 959d14bf134f54a6e993fe6ca6e063c0, type: 3}
  m_PrefabInternal: {fileID: 672938625}
  m_GameObject: {fileID: 1863343592}
  m_LocalRotation: {x: 0, y: -9.407548e-16, z: -0, w: 1}
  m_LocalPosition: {x: -0.012151627, y: 0, z: -0.000000007629395}
  m_LocalScale: {x: 1, y: 1, z: 1}
  m_Children: []
  m_Father: {fileID: 1365931083}
  m_RootOrder: 0
  m_LocalEulerAnglesHint: {x: 0, y: 0, z: 0}
--- !u!1 &1869548990
GameObject:
  m_ObjectHideFlags: 0
  m_PrefabParentObject: {fileID: 100048, guid: 959d14bf134f54a6e993fe6ca6e063c0, type: 3}
  m_PrefabInternal: {fileID: 672938625}
  serializedVersion: 5
  m_Component:
  - component: {fileID: 1869548991}
  m_Layer: 0
  m_Name: Bip002 R UpperArm
  m_TagString: Untagged
  m_Icon: {fileID: 0}
  m_NavMeshLayer: 0
  m_StaticEditorFlags: 0
  m_IsActive: 1
--- !u!4 &1869548991
Transform:
  m_ObjectHideFlags: 0
  m_PrefabParentObject: {fileID: 400048, guid: 959d14bf134f54a6e993fe6ca6e063c0, type: 3}
  m_PrefabInternal: {fileID: 672938625}
  m_GameObject: {fileID: 1869548990}
  m_LocalRotation: {x: -0.39572957, y: 0.43531126, z: 0.033003364, w: 0.80796844}
  m_LocalPosition: {x: -0.17969485, y: 9.536744e-10, z: 0}
  m_LocalScale: {x: 1.0000001, y: 1.0000001, z: 1}
  m_Children:
  - {fileID: 63551720}
  m_Father: {fileID: 571165036}
  m_RootOrder: 0
  m_LocalEulerAnglesHint: {x: 0, y: 0, z: 0}
--- !u!1 &1883895355
GameObject:
  m_ObjectHideFlags: 0
  m_PrefabParentObject: {fileID: 100104, guid: 959d14bf134f54a6e993fe6ca6e063c0, type: 3}
  m_PrefabInternal: {fileID: 672938625}
  serializedVersion: 5
  m_Component:
  - component: {fileID: 1883895356}
  m_Layer: 0
  m_Name: BipDummy R Finger3
  m_TagString: Untagged
  m_Icon: {fileID: 0}
  m_NavMeshLayer: 0
  m_StaticEditorFlags: 0
  m_IsActive: 1
--- !u!4 &1883895356
Transform:
  m_ObjectHideFlags: 0
  m_PrefabParentObject: {fileID: 400104, guid: 959d14bf134f54a6e993fe6ca6e063c0, type: 3}
  m_PrefabInternal: {fileID: 672938625}
  m_GameObject: {fileID: 1883895355}
  m_LocalRotation: {x: 0.0022173636, y: -0.0136231445, z: -0.13210824, w: 0.99113923}
  m_LocalPosition: {x: -0.10328601, y: 0.0010224, z: -0.020135256}
  m_LocalScale: {x: 1, y: 1, z: 1.0000001}
  m_Children:
  - {fileID: 2121309618}
  m_Father: {fileID: 1200296718}
  m_RootOrder: 3
  m_LocalEulerAnglesHint: {x: 0, y: 0, z: 0}
--- !u!1 &1978628871
GameObject:
  m_ObjectHideFlags: 0
  m_PrefabParentObject: {fileID: 100112, guid: 959d14bf134f54a6e993fe6ca6e063c0, type: 3}
  m_PrefabInternal: {fileID: 672938625}
  serializedVersion: 5
  m_Component:
  - component: {fileID: 1978628872}
  m_Layer: 0
  m_Name: BipDummy R Finger41
  m_TagString: Untagged
  m_Icon: {fileID: 0}
  m_NavMeshLayer: 0
  m_StaticEditorFlags: 0
  m_IsActive: 1
--- !u!4 &1978628872
Transform:
  m_ObjectHideFlags: 0
  m_PrefabParentObject: {fileID: 400112, guid: 959d14bf134f54a6e993fe6ca6e063c0, type: 3}
  m_PrefabInternal: {fileID: 672938625}
  m_GameObject: {fileID: 1978628871}
  m_LocalRotation: {x: 0.0000000024180136, y: 0.0000000028339022, z: -0.6490805, w: 0.7607197}
  m_LocalPosition: {x: -0.032120302, y: 0.00000006103516, z: 0.00000006103516}
  m_LocalScale: {x: 0.9999999, y: 0.99999976, z: 0.99999994}
  m_Children:
  - {fileID: 979693114}
  m_Father: {fileID: 2070720712}
  m_RootOrder: 0
  m_LocalEulerAnglesHint: {x: 0, y: 0, z: 0}
--- !u!1 &2000227607
GameObject:
  m_ObjectHideFlags: 0
  m_PrefabParentObject: {fileID: 100116, guid: 959d14bf134f54a6e993fe6ca6e063c0, type: 3}
  m_PrefabInternal: {fileID: 672938625}
  serializedVersion: 5
  m_Component:
  - component: {fileID: 2000227608}
  - component: {fileID: 2000227609}
  m_Layer: 0
  m_Name: Dummy
  m_TagString: Untagged
  m_Icon: {fileID: 0}
  m_NavMeshLayer: 0
  m_StaticEditorFlags: 0
  m_IsActive: 1
--- !u!4 &2000227608
Transform:
  m_ObjectHideFlags: 0
  m_PrefabParentObject: {fileID: 400116, guid: 959d14bf134f54a6e993fe6ca6e063c0, type: 3}
  m_PrefabInternal: {fileID: 672938625}
  m_GameObject: {fileID: 2000227607}
  m_LocalRotation: {x: 0.000000021855694, y: 0, z: -0, w: 1}
  m_LocalPosition: {x: -0, y: 0, z: 0}
  m_LocalScale: {x: 1.9103826, y: 1.9103826, z: 1.9103826}
  m_Children: []
  m_Father: {fileID: 2080756818}
  m_RootOrder: 1
  m_LocalEulerAnglesHint: {x: 0, y: 0, z: 0}
--- !u!137 &2000227609
SkinnedMeshRenderer:
  m_ObjectHideFlags: 0
  m_PrefabParentObject: {fileID: 13700000, guid: 959d14bf134f54a6e993fe6ca6e063c0,
    type: 3}
  m_PrefabInternal: {fileID: 672938625}
  m_GameObject: {fileID: 2000227607}
  m_Enabled: 1
  m_CastShadows: 1
  m_ReceiveShadows: 1
  m_DynamicOccludee: 1
  m_MotionVectors: 1
  m_LightProbeUsage: 1
  m_ReflectionProbeUsage: 1
  m_Materials:
  - {fileID: 2100000, guid: 8a758f41de96147d29c0b9d92ce2a3c5, type: 2}
  m_StaticBatchInfo:
    firstSubMesh: 0
    subMeshCount: 0
  m_StaticBatchRoot: {fileID: 0}
  m_ProbeAnchor: {fileID: 0}
  m_LightProbeVolumeOverride: {fileID: 0}
  m_ScaleInLightmap: 1
  m_PreserveUVs: 0
  m_IgnoreNormalsForChartDetection: 0
  m_ImportantGI: 0
  m_StitchLightmapSeams: 0
  m_SelectedEditorRenderState: 3
  m_MinimumChartSize: 4
  m_AutoUVMaxDistance: 0.5
  m_AutoUVMaxAngle: 89
  m_LightmapParameters: {fileID: 0}
  m_SortingLayerID: 0
  m_SortingLayer: 0
  m_SortingOrder: 0
  serializedVersion: 2
  m_Quality: 0
  m_UpdateWhenOffscreen: 0
  m_SkinnedMotionVectors: 1
  m_Mesh: {fileID: 4300000, guid: 959d14bf134f54a6e993fe6ca6e063c0, type: 3}
  m_Bones:
  - {fileID: 934476653}
  - {fileID: 1671589714}
  - {fileID: 228522163}
  - {fileID: 1146503093}
  - {fileID: 1623952070}
  - {fileID: 1696399738}
  - {fileID: 305798505}
  - {fileID: 1773624310}
  - {fileID: 1480834526}
  - {fileID: 1291661721}
  - {fileID: 1175840067}
  - {fileID: 571165036}
  - {fileID: 696362764}
  - {fileID: 1869548991}
  - {fileID: 63551720}
  - {fileID: 409497981}
  - {fileID: 897057198}
  - {fileID: 1491793990}
  - {fileID: 893481137}
  - {fileID: 1682693036}
  - {fileID: 1801181694}
  - {fileID: 1172920252}
  - {fileID: 2006982153}
  - {fileID: 795970380}
  - {fileID: 1693890242}
  - {fileID: 208816792}
  - {fileID: 500742694}
  - {fileID: 1174396909}
  - {fileID: 543642064}
  - {fileID: 1279870946}
  - {fileID: 1082635535}
  - {fileID: 369200128}
  - {fileID: 786519682}
  - {fileID: 1190270030}
  - {fileID: 1619680512}
  - {fileID: 2051960379}
  - {fileID: 930265187}
  - {fileID: 2033330468}
  - {fileID: 804423696}
  - {fileID: 1200296718}
  - {fileID: 848450172}
  - {fileID: 1883895356}
  - {fileID: 1765031653}
  - {fileID: 1760593760}
  - {fileID: 2070720712}
  - {fileID: 1226160180}
  - {fileID: 1215677394}
  - {fileID: 1857915518}
  - {fileID: 2121309618}
  - {fileID: 1668854466}
  - {fileID: 255401882}
  - {fileID: 232100413}
  - {fileID: 1978628872}
  - {fileID: 979693114}
  - {fileID: 446204831}
  - {fileID: 1863343593}
  m_BlendShapeWeights: []
  m_RootBone: {fileID: 1146503093}
  m_AABB:
    m_Center: {x: -0.013714805, y: -0.00000086426735, z: 0.00061771274}
    m_Extent: {x: 0.1674635, y: 0.48301005, z: 0.89055586}
  m_DirtyAABB: 0
--- !u!1 &2006982152
GameObject:
  m_ObjectHideFlags: 0
  m_PrefabParentObject: {fileID: 100006, guid: 959d14bf134f54a6e993fe6ca6e063c0, type: 3}
  m_PrefabInternal: {fileID: 672938625}
  serializedVersion: 5
  m_Component:
  - component: {fileID: 2006982153}
  m_Layer: 0
  m_Name: Bip002 L Finger0
  m_TagString: Untagged
  m_Icon: {fileID: 0}
  m_NavMeshLayer: 0
  m_StaticEditorFlags: 0
  m_IsActive: 1
--- !u!4 &2006982153
Transform:
  m_ObjectHideFlags: 0
  m_PrefabParentObject: {fileID: 400006, guid: 959d14bf134f54a6e993fe6ca6e063c0, type: 3}
  m_PrefabInternal: {fileID: 672938625}
  m_GameObject: {fileID: 2006982152}
  m_LocalRotation: {x: 0.40023914, y: -0.27571434, z: 0.056018174, w: 0.87215376}
  m_LocalPosition: {x: -0.042638857, y: 0.010434205, z: -0.028118744}
  m_LocalScale: {x: 1.0000001, y: 1, z: 0.9999999}
  m_Children:
  - {fileID: 1174396909}
  m_Father: {fileID: 795970380}
  m_RootOrder: 0
  m_LocalEulerAnglesHint: {x: 0, y: 0, z: 0}
--- !u!1 &2033330467
GameObject:
  m_ObjectHideFlags: 0
  m_PrefabParentObject: {fileID: 100086, guid: 959d14bf134f54a6e993fe6ca6e063c0, type: 3}
  m_PrefabInternal: {fileID: 672938625}
  serializedVersion: 5
  m_Component:
  - component: {fileID: 2033330468}
  m_Layer: 0
  m_Name: BipDummy L Finger42
  m_TagString: Untagged
  m_Icon: {fileID: 0}
  m_NavMeshLayer: 0
  m_StaticEditorFlags: 0
  m_IsActive: 1
--- !u!4 &2033330468
Transform:
  m_ObjectHideFlags: 0
  m_PrefabParentObject: {fileID: 400086, guid: 959d14bf134f54a6e993fe6ca6e063c0, type: 3}
  m_PrefabInternal: {fileID: 672938625}
  m_GameObject: {fileID: 2033330467}
  m_LocalRotation: {x: 0.00000001644754, y: 0.00000001808565, z: -0.41532043, w: 0.90967524}
  m_LocalPosition: {x: -0.01889612, y: 0, z: 0.000000045776368}
  m_LocalScale: {x: 1, y: 1.0000001, z: 1}
  m_Children: []
  m_Father: {fileID: 930265187}
  m_RootOrder: 0
  m_LocalEulerAnglesHint: {x: 0, y: 0, z: 0}
--- !u!1 &2051960378
GameObject:
  m_ObjectHideFlags: 0
  m_PrefabParentObject: {fileID: 100068, guid: 959d14bf134f54a6e993fe6ca6e063c0, type: 3}
  m_PrefabInternal: {fileID: 672938625}
  serializedVersion: 5
  m_Component:
  - component: {fileID: 2051960379}
  m_Layer: 0
  m_Name: BipDummy L Finger12
  m_TagString: Untagged
  m_Icon: {fileID: 0}
  m_NavMeshLayer: 0
  m_StaticEditorFlags: 0
  m_IsActive: 1
--- !u!4 &2051960379
Transform:
  m_ObjectHideFlags: 0
  m_PrefabParentObject: {fileID: 400068, guid: 959d14bf134f54a6e993fe6ca6e063c0, type: 3}
  m_PrefabInternal: {fileID: 672938625}
  m_GameObject: {fileID: 2051960378}
  m_LocalRotation: {x: 0.000000039817607, y: -0.000000012218085, z: -0.117604196,
    w: 0.9930606}
  m_LocalPosition: {x: -0.01876288, y: 0.00000003051758, z: 0}
  m_LocalScale: {x: 1, y: 1.0000001, z: 1}
  m_Children: []
  m_Father: {fileID: 1619680512}
  m_RootOrder: 0
  m_LocalEulerAnglesHint: {x: 0, y: 0, z: 0}
--- !u!1 &2070720711
GameObject:
  m_ObjectHideFlags: 0
  m_PrefabParentObject: {fileID: 100110, guid: 959d14bf134f54a6e993fe6ca6e063c0, type: 3}
  m_PrefabInternal: {fileID: 672938625}
  serializedVersion: 5
  m_Component:
  - component: {fileID: 2070720712}
  m_Layer: 0
  m_Name: BipDummy R Finger4
  m_TagString: Untagged
  m_Icon: {fileID: 0}
  m_NavMeshLayer: 0
  m_StaticEditorFlags: 0
  m_IsActive: 1
--- !u!4 &2070720712
Transform:
  m_ObjectHideFlags: 0
  m_PrefabParentObject: {fileID: 400110, guid: 959d14bf134f54a6e993fe6ca6e063c0, type: 3}
  m_PrefabInternal: {fileID: 672938625}
  m_GameObject: {fileID: 2070720711}
  m_LocalRotation: {x: 0.0007130304, y: -0.0098164985, z: -0.032043967, w: 0.99943805}
  m_LocalPosition: {x: -0.09384656, y: 0.009099671, z: -0.039979525}
  m_LocalScale: {x: 1.0000001, y: 1.0000001, z: 1}
  m_Children:
  - {fileID: 1978628872}
  m_Father: {fileID: 1200296718}
  m_RootOrder: 4
  m_LocalEulerAnglesHint: {x: 0, y: 0, z: 0}
--- !u!1 &2080756817
GameObject:
  m_ObjectHideFlags: 0
  m_PrefabParentObject: {fileID: 100118, guid: 959d14bf134f54a6e993fe6ca6e063c0, type: 3}
  m_PrefabInternal: {fileID: 672938625}
  serializedVersion: 5
  m_Component:
  - component: {fileID: 2080756818}
  - component: {fileID: 2080756821}
  - component: {fileID: 2080756822}
  - component: {fileID: 2080756819}
  - component: {fileID: 2080756820}
  m_Layer: 0
  m_Name: Dummy
  m_TagString: Untagged
  m_Icon: {fileID: 0}
  m_NavMeshLayer: 0
  m_StaticEditorFlags: 0
  m_IsActive: 1
--- !u!4 &2080756818
Transform:
  m_ObjectHideFlags: 0
  m_PrefabParentObject: {fileID: 400118, guid: 959d14bf134f54a6e993fe6ca6e063c0, type: 3}
  m_PrefabInternal: {fileID: 672938625}
  m_GameObject: {fileID: 2080756817}
  m_LocalRotation: {x: 0, y: 0, z: 0, w: 1}
  m_LocalPosition: {x: 0, y: 0, z: 0}
  m_LocalScale: {x: 1, y: 1, z: 1}
  m_Children:
  - {fileID: 1146503093}
  - {fileID: 2000227608}
  m_Father: {fileID: 0}
  m_RootOrder: 6
  m_LocalEulerAnglesHint: {x: 0, y: 0, z: 0}
--- !u!114 &2080756819
MonoBehaviour:
  m_ObjectHideFlags: 0
  m_PrefabParentObject: {fileID: 0}
  m_PrefabInternal: {fileID: 0}
  m_GameObject: {fileID: 2080756817}
  m_Enabled: 1
  m_EditorHideFlags: 0
  m_Script: {fileID: 11500000, guid: 5013856973b27429d937d256dc082f2e, type: 3}
  m_Name: 
  m_EditorClassIdentifier: 
  fixTransforms: 1
  solver:
    IKPosition: {x: -2.5206466, y: 1.1113462, z: 1.6606158}
    IKPositionWeight: 1
    root: {fileID: 2080756818}
    target: {fileID: 0}
    tolerance: 0
    maxIterations: 4
    useRotationLimits: 0
    XY: 0
    bones:
    - transform: {fileID: 409497981}
      weight: 1
      solverPosition: {x: 0, y: 0, z: 0}
      solverRotation: {x: 0, y: 0, z: 0, w: 1}
      defaultLocalPosition: {x: -0.10531403, y: -0.00008385659, z: -2.3259054e-10}
      defaultLocalRotation: {x: 4.0745185e-14, y: 0, z: -0, w: 1}
      length: 0
      sqrMag: 0
      axis: {x: 0, y: 0, z: 0}
    - transform: {fileID: 1773624310}
      weight: 0.61702126
      solverPosition: {x: 0, y: 0, z: 0}
      solverRotation: {x: 0, y: 0, z: 0, w: 1}
      defaultLocalPosition: {x: -0.10531482, y: -0.00008385659, z: -2.3258327e-10}
      defaultLocalRotation: {x: -8.096637e-15, y: 0.000000010320556, z: -0.0037209948,
        w: 0.9999931}
      length: 0
      sqrMag: 0
      axis: {x: 0, y: 0, z: 0}
    - transform: {fileID: 1480834526}
      weight: 0.29787233
      solverPosition: {x: 0, y: 0, z: 0}
      solverRotation: {x: 0, y: 0, z: 0, w: 1}
      defaultLocalPosition: {x: -0.10531482, y: -0.00008385468, z: -2.3258327e-10}
      defaultLocalRotation: {x: -1.1736887e-13, y: 0.000000010320554, z: -0.0037209955,
        w: 0.9999931}
      length: 0
      sqrMag: 0
      axis: {x: 0, y: 0, z: 0}
    - transform: {fileID: 1291661721}
      weight: 1
      solverPosition: {x: 0, y: 0, z: 0}
      solverRotation: {x: 0, y: 0, z: 0, w: 1}
      defaultLocalPosition: {x: -0.10534644, y: -0.00010401631, z: -2.884772e-10}
      defaultLocalRotation: {x: 4.448862e-14, y: 0.0000004163574, z: -0.15011443,
        w: 0.9886686}
      length: 0
      sqrMag: 0
      axis: {x: 0, y: 0, z: 0}
    transform: {fileID: 251274340}
    axis: {x: 0, y: 0, z: 1}
    poleAxis: {x: 0, y: 1, z: 0}
    polePosition: {x: 1.4635854, y: -0.1632824, z: 2.3685796}
    poleWeight: 0
    poleTarget: {fileID: 0}
    clampWeight: 0
    clampSmoothing: 0
--- !u!114 &2080756820
MonoBehaviour:
  m_ObjectHideFlags: 0
  m_PrefabParentObject: {fileID: 0}
  m_PrefabInternal: {fileID: 0}
  m_GameObject: {fileID: 2080756817}
  m_Enabled: 1
  m_EditorHideFlags: 0
  m_Script: {fileID: 11500000, guid: e7c5ddaa57a724f7baa46a4196fd27ee, type: 3}
  m_Name: 
  m_EditorClassIdentifier: 
  aimIK: {fileID: 2080756819}
  raycastOffset: {x: 0, y: 2, z: 1.5}
  raycastLayers:
    serializedVersion: 2
    m_Bits: 1
  min: -2
  max: 2
  lerpSpeed: 10
--- !u!95 &2080756821
Animator:
  serializedVersion: 3
  m_ObjectHideFlags: 0
  m_PrefabParentObject: {fileID: 9500000, guid: 959d14bf134f54a6e993fe6ca6e063c0,
    type: 3}
  m_PrefabInternal: {fileID: 672938625}
  m_GameObject: {fileID: 2080756817}
  m_Enabled: 1
  m_Avatar: {fileID: 9000000, guid: 959d14bf134f54a6e993fe6ca6e063c0, type: 3}
  m_Controller: {fileID: 9100000, guid: c6a41433f43f04320a84210d6839f609, type: 2}
  m_CullingMode: 1
  m_UpdateMode: 0
  m_ApplyRootMotion: 1
  m_LinearVelocityBlending: 0
  m_WarningMessage: 
  m_HasTransformHierarchy: 1
  m_AllowConstantClipSamplingOptimization: 1
--- !u!143 &2080756822
CharacterController:
  m_ObjectHideFlags: 0
  m_PrefabParentObject: {fileID: 0}
  m_PrefabInternal: {fileID: 0}
  m_GameObject: {fileID: 2080756817}
  m_Material: {fileID: 0}
  m_IsTrigger: 0
  m_Enabled: 1
  serializedVersion: 2
  m_Height: 1.8
  m_Radius: 0.5
  m_SlopeLimit: 45
  m_StepOffset: 0.3
  m_SkinWidth: 0.08
  m_MinMoveDistance: 0.001
  m_Center: {x: 0, y: 1, z: 0}
--- !u!1 &2121309617
GameObject:
  m_ObjectHideFlags: 0
  m_PrefabParentObject: {fileID: 100106, guid: 959d14bf134f54a6e993fe6ca6e063c0, type: 3}
  m_PrefabInternal: {fileID: 672938625}
  serializedVersion: 5
  m_Component:
  - component: {fileID: 2121309618}
  m_Layer: 0
  m_Name: BipDummy R Finger31
  m_TagString: Untagged
  m_Icon: {fileID: 0}
  m_NavMeshLayer: 0
  m_StaticEditorFlags: 0
  m_IsActive: 1
--- !u!4 &2121309618
Transform:
  m_ObjectHideFlags: 0
  m_PrefabParentObject: {fileID: 400106, guid: 959d14bf134f54a6e993fe6ca6e063c0, type: 3}
  m_PrefabInternal: {fileID: 672938625}
  m_GameObject: {fileID: 2121309617}
  m_LocalRotation: {x: -0.000000009311458, y: 1.813486e-10, z: -0.615464, w: 0.78816503}
  m_LocalPosition: {x: -0.040773623, y: 0.00000003051758, z: 0.00000001525879}
  m_LocalScale: {x: 1.0000001, y: 1.0000001, z: 1}
  m_Children:
  - {fileID: 1668854466}
  m_Father: {fileID: 1883895356}
  m_RootOrder: 0
  m_LocalEulerAnglesHint: {x: 0, y: 0, z: 0}
