%YAML 1.1
%TAG !u! tag:unity3d.com,2011:
--- !u!114 &11400000
MonoBehaviour:
  m_ObjectHideFlags: 0
  m_PrefabParentObject: {fileID: 0}
  m_PrefabInternal: {fileID: 0}
  m_GameObject: {fileID: 0}
  m_Enabled: 1
  m_EditorHideFlags: 0
  m_Script: {fileID: 11500000, guid: 9e228b45736a8cf4ea000616e628a4dd, type: 3}
  m_Name: First-Person Demo Dungeon Flow
  m_EditorClassIdentifier: 
  Length:
    Min: 5
    Max: 10
  GlobalPropGroupIDs: 
  GlobalPropRanges: []
  KeyManager: {fileID: 0}
  DoorwayConnectionChance: 0.5
  TileInjectionRules: []
  Nodes:
  - Graph: {fileID: 11400000}
    TileSets:
    - {fileID: 11400000, guid: d66f531a8354c6c498087a32f12825de, type: 2}
    NodeType: 1
    Position: 0
    Label: Start
    Keys: []
    Locks: []
    LockPlacement: 0
  - Graph: {fileID: 11400000}
    TileSets:
    - {fileID: 11400000, guid: d66f531a8354c6c498087a32f12825de, type: 2}
    NodeType: 2
    Position: 1
    Label: Goal
    Keys: []
    Locks: []
    LockPlacement: 0
  Lines:
  - Graph: {fileID: 11400000}
    DungeonArchetypes:
    - {fileID: 11400000, guid: 5a2283a67c0fbcd4ab20a3efb8e126dc, type: 2}
    Position: 0
    Length: 1
    Keys: []
    Locks: []
